
//
FINGERPRINTS BC

FORMED_CLEAVED
[O-P:2.0]

//
FINGERPRINTS RC
[O=P(O)(O)O[CH2]>>O=P(O)(O[CH2])OP(=O)(O)O[CH2]:1.0, O=P(O)(O[P])OP(=O)(O)O[CH2]>>O=P(O)(O)O[P]:1.0, O=P(O)(O[P])O[CH2]:2.0, O=P(O)(O[P])O[CH2]>>O=P(O)(O[P])O[CH2]:1.0, [OH]:2.0, [O]:2.0, [O]P(=O)(O)O:2.0, [O]P(=O)(O)O>>[O]P(=O)(O)OP([O])(=O)O:1.0, [O]P(=O)(O)OP(=O)(O)OC[CH]>>[O]P(=O)(O)OP(=O)(O)OC[CH]:1.0, [O]P(=O)(O)OP([O])(=O)O:2.0, [O]P(=O)(O)OP([O])(=O)O>>[O]P(=O)(O)O:1.0, [O]P([O])(=O)O:2.0, [O]P([O])(=O)O>>[O]P([O])(=O)O:1.0, [P]:2.0, [P]O:2.0, [P]O>>[P]O[P]:1.0, [P]O[P]:2.0, [P]O[P]>>[P]O:1.0]

//
Reaction Centre Formed/Cleaved

ID=Reaction Center at Level: 0 (2)
[[O]:2.0, [P]:2.0]


ID=Reaction Center at Level: 1 (2)
[[O]P([O])(=O)O:2.0, [P]O[P]:2.0]


ID=Reaction Center at Level: 2 (2)
[O=P(O)(O[P])O[CH2]:2.0, [O]P(=O)(O)OP([O])(=O)O:2.0]


Reaction Centre Order Changed

Reaction Centre Stereo Changes


//
TRANSFORMATIONS
MMP Level 1
1: [O]P([O])(=O)O>>[O]P([O])(=O)O
2: [P]O>>[P]O[P]
3: [P]O[P]>>[P]O

MMP Level 2
1: O=P(O)(O[P])O[CH2]>>O=P(O)(O[P])O[CH2]
2: [O]P(=O)(O)O>>[O]P(=O)(O)OP([O])(=O)O
3: [O]P(=O)(O)OP([O])(=O)O>>[O]P(=O)(O)O

MMP Level 3
1: [O]P(=O)(O)OP(=O)(O)OC[CH]>>[O]P(=O)(O)OP(=O)(O)OC[CH]
2: O=P(O)(O)O[CH2]>>O=P(O)(O[CH2])OP(=O)(O)O[CH2]
3: O=P(O)(O[P])OP(=O)(O)O[CH2]>>O=P(O)(O)O[P]


//
REACTION MMP (RPAIR)
1: R:M00001, P:M00003	[O=P(O)(O)OP(=O)(O)OP(=O)(O)OCC1OC(n2cnc3c(ncnc32)N)C(O)C1O>>O=P(O)(O)OP(=O)(O)O]
2: R:M00001, P:M00004	[O=P(O)(O)OP(=O)(O)OP(=O)(O)OCC1OC(n2cnc3c(ncnc32)N)C(O)C1O>>O=C(NCCS)CCNC(=O)C(O)C(C)(C)COP(=O)(O)OP(=O)(O)OCC1OC(n2cnc3c(ncnc32)N)C(O)C1O]
3: R:M00002, P:M00004	[O=C(NCCS)CCNC(=O)C(O)C(C)(C)COP(=O)(O)O>>O=C(NCCS)CCNC(=O)C(O)C(C)(C)COP(=O)(O)OP(=O)(O)OCC1OC(n2cnc3c(ncnc32)N)C(O)C1O]


//
SELECTED AAM MAPPING
[O:32]=[C:33]([NH:34][CH2:35][CH2:36][SH:37])[CH2:38][CH2:39][NH:40][C:41](=[O:42])[CH:43]([OH:44])[C:45]([CH3:46])([CH3:47])[CH2:48][O:49][P:50](=[O:51])([OH:52])[OH:53].[O:1]=[P:2]([OH:3])([OH:4])[O:5][P:6](=[O:7])([OH:8])[O:9][P:10](=[O:11])([OH:12])[O:13][CH2:14][CH:15]1[O:16][CH:17]([N:18]:2:[CH:19]:[N:20]:[C:21]:3:[C:22](:[N:23]:[CH:24]:[N:25]:[C:26]32)[NH2:27])[CH:28]([OH:29])[CH:30]1[OH:31]>>[O:32]=[C:33]([NH:34][CH2:35][CH2:36][SH:37])[CH2:38][CH2:39][NH:40][C:41](=[O:42])[CH:43]([OH:44])[C:45]([CH3:46])([CH3:47])[CH2:48][O:49][P:50](=[O:51])([OH:52])[O:53][P:10](=[O:11])([OH:12])[O:13][CH2:14][CH:15]1[O:16][CH:17]([N:18]:2:[CH:19]:[N:20]:[C:21]:3:[C:22](:[N:23]:[CH:24]:[N:25]:[C:26]32)[NH2:27])[CH:28]([OH:29])[CH:30]1[OH:31].[O:1]=[P:2]([OH:3])([OH:4])[O:5][P:6](=[O:7])([OH:8])[OH:9]


//
REACTANT INPUT ATOM INDEX<->AAM ID
{1=24, 2=25, 3=26, 4=21, 5=22, 6=23, 7=27, 8=20, 9=19, 10=18, 11=17, 12=28, 13=30, 14=15, 15=16, 16=14, 17=13, 18=10, 19=11, 20=12, 21=9, 22=6, 23=7, 24=8, 25=5, 26=2, 27=1, 28=3, 29=4, 30=31, 31=29, 32=46, 33=45, 34=47, 35=48, 36=49, 37=50, 38=51, 39=52, 40=53, 41=43, 42=41, 43=42, 44=40, 45=39, 46=38, 47=33, 48=32, 49=34, 50=35, 51=36, 52=37, 53=44}
PRODUCT INPUT ATOM INDEX<->AAM ID
{1=47, 2=46, 3=45, 4=48, 5=49, 6=50, 7=51, 8=52, 9=53, 10=15, 11=14, 12=16, 13=17, 14=18, 15=19, 16=20, 17=21, 18=22, 19=23, 20=24, 21=25, 22=26, 23=27, 24=28, 25=43, 26=41, 27=30, 28=29, 29=31, 30=32, 31=33, 32=34, 33=39, 34=38, 35=37, 36=36, 37=35, 38=40, 39=42, 40=44, 41=12, 42=10, 43=11, 44=9, 45=8, 46=7, 47=2, 48=1, 49=3, 50=4, 51=5, 52=6, 53=13}

