
//
FINGERPRINTS BC

FORMED_CLEAVED
[O%O:1.0, S-S:1.0]

ORDER_CHANGED
[C%O*C=O:1.0]

STEREO_CHANGED
[C(R/S):1.0]

//
FINGERPRINTS RC
[O1OC2CC1[CH]C2[CH2]>>OC1C[C][CH]C1[CH2]:1.0, O=C([CH])[CH2]:2.0, O=C1C[CH][CH]C1[CH]:1.0, S[CH2]:2.0, S[CH2]>>[S]S[CH2]:2.0, [CH]:1.0, [CH]=CC1C2OOC(C2)C1[CH2]>>O=C1CC(O)C([CH2])C1C=[CH]:1.0, [CH]C(O)[CH2]:1.0, [CH]C1OO[CH]C1:2.0, [CH]C1OO[CH]C1>>O=C([CH])[CH2]:1.0, [CH]C1OO[CH]C1>>[CH]C(O)[CH2]:1.0, [CH]C1[CH]C2OOC1C2:1.0, [CH]C1[CH]C2OOC1C2>>O=C1C[CH][CH]C1[CH]:2.0, [CH]CS:2.0, [CH]CS>>[CH]CSS[CH2]:2.0, [CH]CSS[CH2]:2.0, [CH]O:1.0, [C]:1.0, [C]=O:1.0, [C]C([NH])CS>>[C]C([NH])CSSC[CH]:2.0, [OH]:1.0, [O]:3.0, [O]C([CH])[CH2]:1.0, [O]C([CH])[CH2]>>O=C([CH])[CH2]:1.0, [O]O[CH]:2.0, [O]O[CH]>>[CH]O:1.0, [O]O[CH]>>[C]=O:1.0, [SH]:2.0, [S]:2.0, [S]S[CH2]:2.0]

//
Reaction Centre Formed/Cleaved

ID=Reaction Center at Level: 0 (2)
[[O]:2.0, [S]:2.0]


ID=Reaction Center at Level: 1 (2)
[[O]O[CH]:2.0, [S]S[CH2]:2.0]


ID=Reaction Center at Level: 2 (2)
[[CH]C1OO[CH]C1:2.0, [CH]CSS[CH2]:2.0]


Reaction Centre Order Changed

ID=Reaction Center at Level: 0 (3)
[[CH]:1.0, [C]:1.0, [O]:2.0]


ID=Reaction Center at Level: 1 (4)
[O=C([CH])[CH2]:1.0, [C]=O:1.0, [O]C([CH])[CH2]:1.0, [O]O[CH]:1.0]


ID=Reaction Center at Level: 2 (4)
[O=C([CH])[CH2]:1.0, O=C1C[CH][CH]C1[CH]:1.0, [CH]C1OO[CH]C1:1.0, [CH]C1[CH]C2OOC1C2:1.0]


Reaction Centre Stereo Changes

ID=Reaction Center at Level: 0 (2)
[[CH]:1.0, [C]:1.0]


ID=Reaction Center at Level: 1 (2)
[O=C([CH])[CH2]:1.0, [O]C([CH])[CH2]:1.0]


ID=Reaction Center at Level: 2 (2)
[O=C1C[CH][CH]C1[CH]:1.0, [CH]C1[CH]C2OOC1C2:1.0]



//
TRANSFORMATIONS
MMP Level 1
1: [O]C([CH])[CH2]>>O=C([CH])[CH2]
2: [O]O[CH]>>[CH]O
3: [O]O[CH]>>[C]=O
4: S[CH2]>>[S]S[CH2]

MMP Level 2
1: [CH]C1[CH]C2OOC1C2>>O=C1C[CH][CH]C1[CH]
2: [CH]C1OO[CH]C1>>[CH]C(O)[CH2]
3: [CH]C1OO[CH]C1>>O=C([CH])[CH2]
4: [CH]CS>>[CH]CSS[CH2]

MMP Level 3
1: [CH]=CC1C2OOC(C2)C1[CH2]>>O=C1CC(O)C([CH2])C1C=[CH]
2: O1OC2CC1[CH]C2[CH2]>>OC1C[C][CH]C1[CH2]
3: [CH]C1[CH]C2OOC1C2>>O=C1C[CH][CH]C1[CH]
4: [C]C([NH])CS>>[C]C([NH])CSSC[CH]


//
REACTION MMP (RPAIR)
1: R:M00001, P:M00003	[O=C(O)CCCC=CCC1C2OOC(C2)C1C=CC(O)CCCCC>>O=C1CC(O)C(CC=CCCCC(=O)O)C1C=CC(O)CCCCC, O=C(O)CCCC=CCC1C2OOC(C2)C1C=CC(O)CCCCC>>O=C1CC(O)C(CC=CCCCC(=O)O)C1C=CC(O)CCCCC, O=C(O)CCCC=CCC1C2OOC(C2)C1C=CC(O)CCCCC>>O=C1CC(O)C(CC=CCCCC(=O)O)C1C=CC(O)CCCCC]
2: R:M00002, P:M00004	[O=C(O)CNC(=O)C(NC(=O)CCC(N)C(=O)O)CS>>O=C(O)CNC(=O)C(NC(=O)CCC(N)C(=O)O)CSSCC(NC(=O)CCC(N)C(=O)O)C(=O)NCC(=O)O]


//
SELECTED AAM MAPPING
[O:46]=[C:47]([OH:48])[CH2:49][NH:50][C:51](=[O:52])[CH:53]([NH:54][C:55](=[O:56])[CH2:57][CH2:58][CH:59]([NH2:60])[C:61](=[O:62])[OH:63])[CH2:64][SH:65].[O:26]=[C:27]([OH:28])[CH2:29][NH:30][C:31](=[O:32])[CH:33]([NH:34][C:35](=[O:36])[CH2:37][CH2:38][CH:39]([NH2:40])[C:41](=[O:42])[OH:43])[CH2:44][SH:45].[O:1]=[C:2]([OH:3])[CH2:4][CH2:5][CH2:6][CH:7]=[CH:8][CH2:9][CH:10]1[CH:11]2[O:12][O:13][CH:14]([CH2:15]2)[CH:16]1[CH:17]=[CH:18][CH:19]([OH:20])[CH2:21][CH2:22][CH2:23][CH2:24][CH3:25]>>[H+:66].[O:26]=[C:27]([OH:28])[CH2:29][NH:30][C:31](=[O:32])[CH:33]([NH:34][C:35](=[O:36])[CH2:37][CH2:38][CH:39]([NH2:40])[C:41](=[O:42])[OH:43])[CH2:44][S:45][S:65][CH2:64][CH:53]([NH:54][C:55](=[O:56])[CH2:57][CH2:58][CH:59]([NH2:60])[C:61](=[O:62])[OH:63])[C:51](=[O:52])[NH:50][CH2:49][C:47](=[O:46])[OH:48].[O:1]=[C:2]([OH:3])[CH2:4][CH2:5][CH2:6][CH:7]=[CH:8][CH2:9][CH:10]1[CH:11]([OH:12])[CH2:15][C:14](=[O:13])[CH:16]1[CH:17]=[CH:18][CH:19]([OH:20])[CH2:21][CH2:22][CH2:23][CH2:24][CH3:25]


//
REACTANT INPUT ATOM INDEX<->AAM ID
{1=25, 2=24, 3=23, 4=22, 5=21, 6=19, 7=18, 8=17, 9=16, 10=14, 11=15, 12=11, 13=10, 14=9, 15=8, 16=7, 17=6, 18=5, 19=4, 20=2, 21=1, 22=3, 23=12, 24=13, 25=20, 26=58, 27=57, 28=55, 29=56, 30=54, 31=53, 32=64, 33=65, 34=51, 35=52, 36=50, 37=49, 38=47, 39=46, 40=48, 41=59, 42=61, 43=62, 44=63, 45=60}
PRODUCT INPUT ATOM INDEX<->AAM ID
{1=65, 2=64, 3=63, 4=62, 5=61, 6=59, 7=58, 8=57, 9=56, 10=50, 11=51, 12=53, 13=54, 14=55, 15=52, 16=49, 17=48, 18=47, 19=46, 20=45, 21=44, 22=42, 23=41, 24=43, 25=60, 26=28, 27=27, 28=25, 29=26, 30=24, 31=23, 32=22, 33=21, 34=20, 35=19, 36=8, 37=6, 38=7, 39=5, 40=4, 41=2, 42=1, 43=3, 44=9, 45=10, 46=11, 47=12, 48=13, 49=14, 50=16, 51=17, 52=18, 53=15, 54=34, 55=35, 56=36, 57=37, 58=38, 59=39, 60=40, 61=29, 62=31, 63=32, 64=33, 65=30, 66=66}

