
//
FINGERPRINTS BC

FORMED_CLEAVED
[C-N:1.0, C-S:1.0]

//
FINGERPRINTS RC
[O=C(NC[CH])C:1.0, O=C(N[CH2])C:1.0, O=C(SCC[NH])C>>[NH]CCS:1.0, O=C(SC[CH2])C:1.0, O=C(SC[CH2])C>>O=C(NC[CH])C:1.0, O=C(SC[CH2])C>>SC[CH2]:1.0, O=C(S[CH2])C:1.0, O=C(S[CH2])C>>O=C(N[CH2])C:1.0, O=C([NH])C:1.0, O=C([S])C:1.0, O=C([S])C>>O=C([NH])C:1.0, SC[CH2]:1.0, S[CH2]:1.0, [CH2]N:1.0, [CH2]N>>[C]N[CH2]:1.0, [CH]CN:1.0, [CH]CN>>O=C(NC[CH])C:1.0, [C]:2.0, [C]N[CH2]:1.0, [C]S[CH2]:1.0, [C]S[CH2]>>S[CH2]:1.0, [NH2]:1.0, [NH]:1.0, [O]C([CH])CN>>[O]C([CH])CNC(=O)C:1.0, [SH]:1.0, [S]:1.0]

//
Reaction Centre Formed/Cleaved

ID=Reaction Center at Level: 0 (3)
[[C]:2.0, [NH]:1.0, [S]:1.0]


ID=Reaction Center at Level: 1 (4)
[O=C([NH])C:1.0, O=C([S])C:1.0, [C]N[CH2]:1.0, [C]S[CH2]:1.0]


ID=Reaction Center at Level: 2 (4)
[O=C(NC[CH])C:1.0, O=C(N[CH2])C:1.0, O=C(SC[CH2])C:1.0, O=C(S[CH2])C:1.0]


Reaction Centre Order Changed

Reaction Centre Stereo Changes


//
TRANSFORMATIONS
MMP Level 1
1: [CH2]N>>[C]N[CH2]
2: O=C([S])C>>O=C([NH])C
3: [C]S[CH2]>>S[CH2]

MMP Level 2
1: [CH]CN>>O=C(NC[CH])C
2: O=C(S[CH2])C>>O=C(N[CH2])C
3: O=C(SC[CH2])C>>SC[CH2]

MMP Level 3
1: [O]C([CH])CN>>[O]C([CH])CNC(=O)C
2: O=C(SC[CH2])C>>O=C(NC[CH])C
3: O=C(SCC[NH])C>>[NH]CCS


//
REACTION MMP (RPAIR)
1: R:M00001, P:M00003	[O=C(SCCNC(=O)CCNC(=O)C(O)C(C)(C)COP(=O)(O)OP(=O)(O)OCC1OC(n2cnc3c(ncnc32)N)C(O)C1OP(=O)(O)O)C>>O=C(NCCS)CCNC(=O)C(O)C(C)(C)COP(=O)(O)OP(=O)(O)OCC1OC(n2cnc3c(ncnc32)N)C(O)C1OP(=O)(O)O]
2: R:M00001, P:M00004	[O=C(SCCNC(=O)CCNC(=O)C(O)C(C)(C)COP(=O)(O)OP(=O)(O)OCC1OC(n2cnc3c(ncnc32)N)C(O)C1OP(=O)(O)O)C>>O=C(NCC1OC(OC2C(O)C(OC3OC(CO)C(O)C(N)C3O)C(N)CC2N)C(N)CC1O)C]
3: R:M00002, P:M00004	[OCC1OC(OC2C(O)C(OC3OC(CN)C(O)CC3N)C(N)CC2N)C(O)C(N)C1O>>O=C(NCC1OC(OC2C(O)C(OC3OC(CO)C(O)C(N)C3O)C(N)CC2N)C(N)CC1O)C]


//
SELECTED AAM MAPPING
[O:1]=[C:2]([S:3][CH2:4][CH2:5][NH:6][C:7](=[O:8])[CH2:9][CH2:10][NH:11][C:12](=[O:13])[CH:14]([OH:15])[C:16]([CH3:17])([CH3:18])[CH2:19][O:20][P:21](=[O:22])([OH:23])[O:24][P:25](=[O:26])([OH:27])[O:28][CH2:29][CH:30]1[O:31][CH:32]([N:33]:2:[CH:34]:[N:35]:[C:36]:3:[C:37](:[N:38]:[CH:39]:[N:40]:[C:41]32)[NH2:42])[CH:43]([OH:44])[CH:45]1[O:46][P:47](=[O:48])([OH:49])[OH:50])[CH3:51].[OH:52][CH2:53][CH:54]1[O:55][CH:56]([O:57][CH:58]2[CH:59]([OH:60])[CH:61]([O:62][CH:63]3[O:64][CH:65]([CH2:66][NH2:67])[CH:68]([OH:69])[CH2:70][CH:71]3[NH2:72])[CH:73]([NH2:74])[CH2:75][CH:76]2[NH2:77])[CH:78]([OH:79])[CH:80]([NH2:81])[CH:82]1[OH:83]>>[O:1]=[C:2]([NH:67][CH2:66][CH:65]1[O:64][CH:63]([O:62][CH:61]2[CH:59]([OH:60])[CH:58]([O:57][CH:56]3[O:55][CH:54]([CH2:53][OH:52])[CH:82]([OH:83])[CH:80]([NH2:81])[CH:78]3[OH:79])[CH:76]([NH2:77])[CH2:75][CH:73]2[NH2:74])[CH:71]([NH2:72])[CH2:70][CH:68]1[OH:69])[CH3:51].[O:8]=[C:7]([NH:6][CH2:5][CH2:4][SH:3])[CH2:9][CH2:10][NH:11][C:12](=[O:13])[CH:14]([OH:15])[C:16]([CH3:17])([CH3:18])[CH2:19][O:20][P:21](=[O:22])([OH:23])[O:24][P:25](=[O:26])([OH:27])[O:28][CH2:29][CH:30]1[O:31][CH:32]([N:33]:2:[CH:34]:[N:35]:[C:36]:3:[C:37](:[N:38]:[CH:39]:[N:40]:[C:41]32)[NH2:42])[CH:43]([OH:44])[CH:45]1[O:46][P:47](=[O:48])([OH:49])[OH:50]


//
REACTANT INPUT ATOM INDEX<->AAM ID
{1=51, 2=2, 3=1, 4=3, 5=4, 6=5, 7=6, 8=7, 9=8, 10=9, 11=10, 12=11, 13=12, 14=13, 15=14, 16=16, 17=17, 18=18, 19=19, 20=20, 21=21, 22=22, 23=23, 24=24, 25=25, 26=26, 27=27, 28=28, 29=29, 30=30, 31=45, 32=43, 33=32, 34=31, 35=33, 36=34, 37=35, 38=36, 39=41, 40=40, 41=39, 42=38, 43=37, 44=42, 45=44, 46=46, 47=47, 48=48, 49=49, 50=50, 51=15, 52=75, 53=73, 54=61, 55=59, 56=58, 57=76, 58=77, 59=57, 60=56, 61=78, 62=80, 63=82, 64=54, 65=55, 66=53, 67=52, 68=83, 69=81, 70=79, 71=60, 72=62, 73=63, 74=71, 75=70, 76=68, 77=65, 78=64, 79=66, 80=67, 81=69, 82=72, 83=74}
PRODUCT INPUT ATOM INDEX<->AAM ID
{1=15, 2=14, 3=16, 4=17, 5=18, 6=19, 7=20, 8=21, 9=22, 10=23, 11=24, 12=25, 13=26, 14=27, 15=28, 16=43, 17=41, 18=30, 19=29, 20=31, 21=32, 22=33, 23=34, 24=39, 25=38, 26=37, 27=36, 28=35, 29=40, 30=42, 31=44, 32=45, 33=46, 34=47, 35=48, 36=12, 37=10, 38=11, 39=9, 40=8, 41=7, 42=2, 43=1, 44=3, 45=4, 46=5, 47=6, 48=13, 49=83, 50=50, 51=49, 52=51, 53=52, 54=53, 55=81, 56=80, 57=78, 58=55, 59=54, 60=56, 61=57, 62=76, 63=75, 64=73, 65=60, 66=58, 67=59, 68=61, 69=62, 70=71, 71=69, 72=67, 73=64, 74=63, 75=65, 76=66, 77=68, 78=70, 79=72, 80=74, 81=77, 82=79, 83=82}

