
//
FINGERPRINTS BC

FORMED_CLEAVED
[C-O:1.0, C-S:1.0]

//
FINGERPRINTS RC
[O=C(O)C[CH]>>[O-]C(=O)C[CH]:1.0, O=C(O)[CH2]:1.0, O=C(O)[CH2]>>[O-]C(=O)[CH2]:1.0, O=C(OC([CH2])[CH2])[CH2]:1.0, O=C(O[CH])C[CH2]:1.0, O=C(SCC[NH])C[CH2]>>[NH]CCS:1.0, O=C(SC[CH2])CC[CH2]>>O=C(OC([CH2])[CH2])CC[CH2]:1.0, O=C(SC[CH2])[CH2]:1.0, O=C(SC[CH2])[CH2]>>SC[CH2]:1.0, O=C(S[CH2])C[CH2]:1.0, O=C(S[CH2])C[CH2]>>O=C(O[CH])C[CH2]:1.0, O=C([S])[CH2]:1.0, O=C([S])[CH2]>>[O]C(=O)[CH2]:1.0, OC([CH2])[CH2]:1.0, OC([CH2])[CH2]>>O=C(OC([CH2])[CH2])[CH2]:1.0, SC[CH2]:1.0, S[CH2]:1.0, [CH]O:1.0, [CH]O>>[C]O[CH]:1.0, [C]:2.0, [C]CC(O)C[N+]>>[C]CC(OC(=O)C[CH2])C[N+]:1.0, [C]O:1.0, [C]O>>[C][O-]:1.0, [C]O[CH]:1.0, [C]S[CH2]:1.0, [C]S[CH2]>>S[CH2]:1.0, [C][O-]:1.0, [O-]:1.0, [O-]C(=O)[CH2]:1.0, [OH]:2.0, [O]:1.0, [O]C(=O)[CH2]:1.0, [SH]:1.0, [S]:1.0]

//
Reaction Centre Formed/Cleaved

ID=Reaction Center at Level: 0 (3)
[[C]:2.0, [O]:1.0, [S]:1.0]


ID=Reaction Center at Level: 1 (4)
[O=C([S])[CH2]:1.0, [C]O[CH]:1.0, [C]S[CH2]:1.0, [O]C(=O)[CH2]:1.0]


ID=Reaction Center at Level: 2 (4)
[O=C(OC([CH2])[CH2])[CH2]:1.0, O=C(O[CH])C[CH2]:1.0, O=C(SC[CH2])[CH2]:1.0, O=C(S[CH2])C[CH2]:1.0]


Reaction Centre Order Changed

Reaction Centre Stereo Changes


//
TRANSFORMATIONS
MMP Level 1
1: [C]S[CH2]>>S[CH2]
2: [C]O>>[C][O-]
3: [CH]O>>[C]O[CH]
4: O=C([S])[CH2]>>[O]C(=O)[CH2]

MMP Level 2
1: O=C(SC[CH2])[CH2]>>SC[CH2]
2: O=C(O)[CH2]>>[O-]C(=O)[CH2]
3: OC([CH2])[CH2]>>O=C(OC([CH2])[CH2])[CH2]
4: O=C(S[CH2])C[CH2]>>O=C(O[CH])C[CH2]

MMP Level 3
1: O=C(SCC[NH])C[CH2]>>[NH]CCS
2: O=C(O)C[CH]>>[O-]C(=O)C[CH]
3: [C]CC(O)C[N+]>>[C]CC(OC(=O)C[CH2])C[N+]
4: O=C(SC[CH2])CC[CH2]>>O=C(OC([CH2])[CH2])CC[CH2]


//
REACTION MMP (RPAIR)
1: R:M00001, P:M00003	[O=C(SCCNC(=O)CCNC(=O)C(O)C(C)(C)COP(=O)(O)OP(=O)(O)OCC1OC(n2cnc3c(ncnc32)N)C(O)C1OP(=O)(O)O)CCCCCCCCCCCCCCC>>[O-]C(=O)CC(OC(=O)CCCCCCCCCCCCCCC)C[N+](C)(C)C]
2: R:M00001, P:M00004	[O=C(SCCNC(=O)CCNC(=O)C(O)C(C)(C)COP(=O)(O)OP(=O)(O)OCC1OC(n2cnc3c(ncnc32)N)C(O)C1OP(=O)(O)O)CCCCCCCCCCCCCCC>>O=C(NCCS)CCNC(=O)C(O)C(C)(C)COP(=O)(O)OP(=O)(O)OCC1OC(n2cnc3c(ncnc32)N)C(O)C1OP(=O)(O)O]
3: R:M00002, P:M00003	[O=C(O)CC(O)C[N+](C)(C)C>>[O-]C(=O)CC(OC(=O)CCCCCCCCCCCCCCC)C[N+](C)(C)C, O=C(O)CC(O)C[N+](C)(C)C>>[O-]C(=O)CC(OC(=O)CCCCCCCCCCCCCCC)C[N+](C)(C)C]


//
SELECTED AAM MAPPING
[O:66]=[C:67]([OH:68])[CH2:69][CH:70]([OH:71])[CH2:72][N+:73]([CH3:74])([CH3:75])[CH3:76].[O:1]=[C:2]([S:3][CH2:4][CH2:5][NH:6][C:7](=[O:8])[CH2:9][CH2:10][NH:11][C:12](=[O:13])[CH:14]([OH:15])[C:16]([CH3:17])([CH3:18])[CH2:19][O:20][P:21](=[O:22])([OH:23])[O:24][P:25](=[O:26])([OH:27])[O:28][CH2:29][CH:30]1[O:31][CH:32]([N:33]:2:[CH:34]:[N:35]:[C:36]:3:[C:37](:[N:38]:[CH:39]:[N:40]:[C:41]32)[NH2:42])[CH:43]([OH:44])[CH:45]1[O:46][P:47](=[O:48])([OH:49])[OH:50])[CH2:51][CH2:52][CH2:53][CH2:54][CH2:55][CH2:56][CH2:57][CH2:58][CH2:59][CH2:60][CH2:61][CH2:62][CH2:63][CH2:64][CH3:65]>>[O:66]=[C:67]([O-:68])[CH2:69][CH:70]([O:71][C:2](=[O:1])[CH2:51][CH2:52][CH2:53][CH2:54][CH2:55][CH2:56][CH2:57][CH2:58][CH2:59][CH2:60][CH2:61][CH2:62][CH2:63][CH2:64][CH3:65])[CH2:72][N+:73]([CH3:75])([CH3:76])[CH3:74].[O:8]=[C:7]([NH:6][CH2:5][CH2:4][SH:3])[CH2:9][CH2:10][NH:11][C:12](=[O:13])[CH:14]([OH:15])[C:16]([CH3:17])([CH3:18])[CH2:19][O:20][P:21](=[O:22])([OH:23])[O:24][P:25](=[O:26])([OH:27])[O:28][CH2:29][CH:30]1[O:31][CH:32]([N:33]:2:[CH:34]:[N:35]:[C:36]:3:[C:37](:[N:38]:[CH:39]:[N:40]:[C:41]32)[NH2:42])[CH:43]([OH:44])[CH:45]1[O:46][P:47](=[O:48])([OH:49])[OH:50]


//
REACTANT INPUT ATOM INDEX<->AAM ID
{1=65, 2=64, 3=63, 4=62, 5=61, 6=60, 7=59, 8=58, 9=57, 10=56, 11=55, 12=54, 13=53, 14=52, 15=51, 16=2, 17=1, 18=3, 19=4, 20=5, 21=6, 22=7, 23=8, 24=9, 25=10, 26=11, 27=12, 28=13, 29=14, 30=16, 31=17, 32=18, 33=19, 34=20, 35=21, 36=22, 37=23, 38=24, 39=25, 40=26, 41=27, 42=28, 43=29, 44=30, 45=45, 46=43, 47=32, 48=31, 49=33, 50=34, 51=35, 52=36, 53=41, 54=40, 55=39, 56=38, 57=37, 58=42, 59=44, 60=46, 61=47, 62=48, 63=49, 64=50, 65=15, 66=74, 67=73, 68=75, 69=76, 70=72, 71=70, 72=69, 73=67, 74=66, 75=68, 76=71}
PRODUCT INPUT ATOM INDEX<->AAM ID
{1=71, 2=70, 3=69, 4=68, 5=67, 6=66, 7=65, 8=64, 9=63, 10=62, 11=61, 12=60, 13=59, 14=58, 15=57, 16=55, 17=56, 18=54, 19=53, 20=52, 21=50, 22=49, 23=51, 24=72, 25=73, 26=74, 27=75, 28=76, 29=15, 30=14, 31=16, 32=17, 33=18, 34=19, 35=20, 36=21, 37=22, 38=23, 39=24, 40=25, 41=26, 42=27, 43=28, 44=43, 45=41, 46=30, 47=29, 48=31, 49=32, 50=33, 51=34, 52=39, 53=38, 54=37, 55=36, 56=35, 57=40, 58=42, 59=44, 60=45, 61=46, 62=47, 63=48, 64=12, 65=10, 66=11, 67=9, 68=8, 69=7, 70=2, 71=1, 72=3, 73=4, 74=5, 75=6, 76=13}

