
//
FINGERPRINTS BC

FORMED_CLEAVED
[C-O:1.0, C-S:1.0, O-P:2.0]

//
FINGERPRINTS RC
[O=C(O)C[CH2]:1.0, O=C(O)C[CH2]>>O=C(S[CH2])C[CH2]:1.0, O=C(O)C[CH2]>>O=P(O)(O)O:1.0, O=C(O)[CH2]:2.0, O=C(O)[CH2]>>O=C([S])[CH2]:1.0, O=C(O)[CH2]>>O=P(O)(O)O:1.0, O=C(SC[CH2])[CH2]:1.0, O=C(S[CH2])C[CH2]:1.0, O=C([S])[CH2]:1.0, O=P(O)(O)O:3.0, O=P(O)(O)OP(=O)(O)O[P]>>O=P(O)(O)O[P]:1.0, O=P(O)(O)O[P]:1.0, O=P(O)(O)O[P]>>O=P(O)(O)O:1.0, SC[CH2]:1.0, SC[CH2]>>O=C(SC[CH2])[CH2]:1.0, S[CH2]:1.0, S[CH2]>>[C]S[CH2]:1.0, [C]:2.0, [C]CCC(=O)O>>[C]CCC(=O)SC[CH2]:1.0, [C]O:1.0, [C]O>>[P]O:1.0, [C]S[CH2]:1.0, [NH]CCS>>O=C(SCC[NH])C[CH2]:1.0, [OH]:3.0, [O]:1.0, [O]P(=O)(O)O:2.0, [O]P(=O)(O)O>>O=P(O)(O)O:1.0, [O]P(=O)(O)OP(=O)(O)O:1.0, [O]P(=O)(O)OP(=O)(O)O>>O=P(O)(O)O:1.0, [O]P(=O)(O)OP(=O)(O)O>>[O]P(=O)(O)O:1.0, [P]:2.0, [P]O:2.0, [P]O[P]:1.0, [P]O[P]>>[P]O:1.0, [SH]:1.0, [S]:1.0]

//
Reaction Centre Formed/Cleaved

ID=Reaction Center at Level: 0 (5)
[[C]:2.0, [OH]:2.0, [O]:1.0, [P]:2.0, [S]:1.0]


ID=Reaction Center at Level: 1 (8)
[O=C(O)[CH2]:1.0, O=C([S])[CH2]:1.0, O=P(O)(O)O:1.0, [C]O:1.0, [C]S[CH2]:1.0, [O]P(=O)(O)O:1.0, [P]O:1.0, [P]O[P]:1.0]


ID=Reaction Center at Level: 2 (7)
[O=C(O)C[CH2]:1.0, O=C(O)[CH2]:1.0, O=C(SC[CH2])[CH2]:1.0, O=C(S[CH2])C[CH2]:1.0, O=P(O)(O)O:2.0, O=P(O)(O)O[P]:1.0, [O]P(=O)(O)OP(=O)(O)O:1.0]


Reaction Centre Order Changed

Reaction Centre Stereo Changes


//
TRANSFORMATIONS
MMP Level 1
1: S[CH2]>>[C]S[CH2]
2: [P]O[P]>>[P]O
3: O=C(O)[CH2]>>O=C([S])[CH2]
4: [O]P(=O)(O)O>>O=P(O)(O)O
5: [C]O>>[P]O

MMP Level 2
1: SC[CH2]>>O=C(SC[CH2])[CH2]
2: [O]P(=O)(O)OP(=O)(O)O>>[O]P(=O)(O)O
3: O=C(O)C[CH2]>>O=C(S[CH2])C[CH2]
4: O=P(O)(O)O[P]>>O=P(O)(O)O
5: O=C(O)[CH2]>>O=P(O)(O)O

MMP Level 3
1: [NH]CCS>>O=C(SCC[NH])C[CH2]
2: O=P(O)(O)OP(=O)(O)O[P]>>O=P(O)(O)O[P]
3: [C]CCC(=O)O>>[C]CCC(=O)SC[CH2]
4: [O]P(=O)(O)OP(=O)(O)O>>O=P(O)(O)O
5: O=C(O)C[CH2]>>O=P(O)(O)O


//
REACTION MMP (RPAIR)
1: R:M00001, P:M00004	[O=c1nc(N)[nH]c2c1ncn2C3OC(COP(=O)(O)OP(=O)(O)OP(=O)(O)O)C(O)C3O>>O=c1nc(N)[nH]c2c1ncn2C3OC(COP(=O)(O)OP(=O)(O)O)C(O)C3O]
2: R:M00001, P:M00005	[O=c1nc(N)[nH]c2c1ncn2C3OC(COP(=O)(O)OP(=O)(O)OP(=O)(O)O)C(O)C3O>>O=P(O)(O)O]
3: R:M00002, P:M00005	[O=C(O)CCC(=O)O>>O=P(O)(O)O]
4: R:M00002, P:M00006	[O=C(O)CCC(=O)O>>O=C(O)CCC(=O)SCCNC(=O)CCNC(=O)C(O)C(C)(C)COP(=O)(O)OP(=O)(O)OCC1OC(n2cnc3c(ncnc32)N)C(O)C1OP(=O)(O)O]
5: R:M00003, P:M00006	[O=C(NCCS)CCNC(=O)C(O)C(C)(C)COP(=O)(O)OP(=O)(O)OCC1OC(n2cnc3c(ncnc32)N)C(O)C1OP(=O)(O)O>>O=C(O)CCC(=O)SCCNC(=O)CCNC(=O)C(O)C(C)(C)COP(=O)(O)OP(=O)(O)OCC1OC(n2cnc3c(ncnc32)N)C(O)C1OP(=O)(O)O]


//
SELECTED AAM MAPPING
[O:81]=[C:82]([OH:83])[CH2:84][CH2:85][C:86](=[O:87])[OH:88].[O:49]=[C:50]1[N:51]=[C:52]([NH2:53])[NH:54][C:55]:2:[C:56]1:[N:57]:[CH:58]:[N:59]2[CH:60]3[O:61][CH:62]([CH2:63][O:64][P:65](=[O:66])([OH:67])[O:68][P:69](=[O:70])([OH:71])[O:72][P:73](=[O:74])([OH:75])[OH:76])[CH:77]([OH:78])[CH:79]3[OH:80].[O:1]=[C:2]([NH:3][CH2:4][CH2:5][SH:6])[CH2:7][CH2:8][NH:9][C:10](=[O:11])[CH:12]([OH:13])[C:14]([CH3:15])([CH3:16])[CH2:17][O:18][P:19](=[O:20])([OH:21])[O:22][P:23](=[O:24])([OH:25])[O:26][CH2:27][CH:28]1[O:29][CH:30]([N:31]:2:[CH:32]:[N:33]:[C:34]:3:[C:35](:[N:36]:[CH:37]:[N:38]:[C:39]32)[NH2:40])[CH:41]([OH:42])[CH:43]1[O:44][P:45](=[O:46])([OH:47])[OH:48]>>[O:81]=[C:82]([OH:83])[CH2:84][CH2:85][C:86](=[O:87])[S:6][CH2:5][CH2:4][NH:3][C:2](=[O:1])[CH2:7][CH2:8][NH:9][C:10](=[O:11])[CH:12]([OH:13])[C:14]([CH3:15])([CH3:16])[CH2:17][O:18][P:19](=[O:20])([OH:21])[O:22][P:23](=[O:24])([OH:25])[O:26][CH2:27][CH:28]1[O:29][CH:30]([N:31]:2:[CH:32]:[N:33]:[C:34]:3:[C:35](:[N:36]:[CH:37]:[N:38]:[C:39]32)[NH2:40])[CH:41]([OH:42])[CH:43]1[O:44][P:45](=[O:46])([OH:47])[OH:48].[O:49]=[C:50]1[N:51]=[C:52]([NH2:53])[NH:54][C:55]:2:[C:56]1:[N:57]:[CH:58]:[N:59]2[CH:60]3[O:61][CH:62]([CH2:63][O:64][P:65](=[O:66])([OH:67])[O:68][P:69](=[O:70])([OH:71])[OH:72])[CH:77]([OH:78])[CH:79]3[OH:80].[O:74]=[P:73]([OH:75])([OH:76])[OH:88]


//
REACTANT INPUT ATOM INDEX<->AAM ID
{1=58, 2=57, 3=56, 4=55, 5=59, 6=60, 7=79, 8=77, 9=62, 10=61, 11=63, 12=64, 13=65, 14=66, 15=67, 16=68, 17=69, 18=70, 19=71, 20=72, 21=73, 22=74, 23=75, 24=76, 25=78, 26=80, 27=54, 28=52, 29=51, 30=50, 31=49, 32=53, 33=85, 34=84, 35=82, 36=81, 37=83, 38=86, 39=87, 40=88, 41=15, 42=14, 43=16, 44=17, 45=18, 46=19, 47=20, 48=21, 49=22, 50=23, 51=24, 52=25, 53=26, 54=27, 55=28, 56=43, 57=41, 58=30, 59=29, 60=31, 61=32, 62=33, 63=34, 64=39, 65=38, 66=37, 67=36, 68=35, 69=40, 70=42, 71=44, 72=45, 73=46, 74=47, 75=48, 76=12, 77=10, 78=11, 79=9, 80=8, 81=7, 82=2, 83=1, 84=3, 85=4, 86=5, 87=6, 88=13}
PRODUCT INPUT ATOM INDEX<->AAM ID
{1=65, 2=64, 3=63, 4=62, 5=66, 6=67, 7=82, 8=80, 9=69, 10=68, 11=70, 12=71, 13=72, 14=73, 15=74, 16=75, 17=76, 18=77, 19=78, 20=79, 21=81, 22=83, 23=61, 24=59, 25=58, 26=57, 27=56, 28=60, 29=86, 30=85, 31=84, 32=87, 33=88, 34=22, 35=21, 36=23, 37=24, 38=25, 39=26, 40=27, 41=28, 42=29, 43=30, 44=31, 45=32, 46=33, 47=34, 48=35, 49=50, 50=48, 51=37, 52=36, 53=38, 54=39, 55=40, 56=41, 57=46, 58=45, 59=44, 60=43, 61=42, 62=47, 63=49, 64=51, 65=52, 66=53, 67=54, 68=55, 69=19, 70=17, 71=18, 72=16, 73=15, 74=14, 75=12, 76=13, 77=11, 78=10, 79=9, 80=8, 81=6, 82=7, 83=5, 84=4, 85=2, 86=1, 87=3, 88=20}

