
//
FINGERPRINTS BC

FORMED_CLEAVED
[C-O:1.0, C-S:1.0, O-P:2.0]

//
FINGERPRINTS RC
[O=C(O)C(=C[CH])C=[CH]>>O=C(SC[CH2])C(=C[CH])C=[CH]:1.0, O=C(O)C([CH])=[CH]:1.0, O=C(O)C([CH])=[CH]>>O=C(S[CH2])C([CH])=[CH]:1.0, O=C(O)C([CH])=[CH]>>O=P(O)(O)O[P]:1.0, O=C(S[CH2])C([CH])=[CH]:1.0, O=P(O)(O)O[P]:1.0, O=P(O)(O[P])OP(=O)(O)O[CH2]>>O=P(O)(O)O[CH2]:1.0, O=P(O)(O[P])O[P]:1.0, O=P(O)(O[P])O[P]>>O=P(O)(O)O[P]:1.0, SC[CH2]:1.0, SC[CH2]>>[C]C(=O)SC[CH2]:1.0, S[CH2]:1.0, S[CH2]>>[C]S[CH2]:1.0, [C]:2.0, [C]C(=O)O:2.0, [C]C(=O)O>>[C]C(=O)[S]:1.0, [C]C(=O)O>>[O]P(=O)(O)O:1.0, [C]C(=O)SC[CH2]:1.0, [C]C(=O)[S]:1.0, [C]O:1.0, [C]O>>[P]O:1.0, [C]S[CH2]:1.0, [NH]CCS>>O=C(SCC[NH])C([CH])=[CH]:1.0, [OH]:3.0, [O]:1.0, [O]P(=O)(O)O:3.0, [O]P(=O)(O)OP(=O)(O)OP(=O)(O)O>>O=P(O)(O)OP(=O)(O)O:1.0, [O]P(=O)(O)OP([O])(=O)O:1.0, [O]P(=O)(O)OP([O])(=O)O>>[O]P(=O)(O)O:1.0, [O]P([O])(=O)O:1.0, [O]P([O])(=O)O>>[O]P(=O)(O)O:1.0, [P]:2.0, [P]O:2.0, [P]O[P]:1.0, [P]O[P]>>[P]O:1.0, [SH]:1.0, [S]:1.0]

//
Reaction Centre Formed/Cleaved

ID=Reaction Center at Level: 0 (5)
[[C]:2.0, [OH]:2.0, [O]:1.0, [P]:2.0, [S]:1.0]


ID=Reaction Center at Level: 1 (8)
[[C]C(=O)O:1.0, [C]C(=O)[S]:1.0, [C]O:1.0, [C]S[CH2]:1.0, [O]P(=O)(O)O:1.0, [O]P([O])(=O)O:1.0, [P]O:1.0, [P]O[P]:1.0]


ID=Reaction Center at Level: 2 (8)
[O=C(O)C([CH])=[CH]:1.0, O=C(S[CH2])C([CH])=[CH]:1.0, O=P(O)(O)O[P]:1.0, O=P(O)(O[P])O[P]:1.0, [C]C(=O)O:1.0, [C]C(=O)SC[CH2]:1.0, [O]P(=O)(O)O:1.0, [O]P(=O)(O)OP([O])(=O)O:1.0]


Reaction Centre Order Changed

Reaction Centre Stereo Changes


//
TRANSFORMATIONS
MMP Level 1
1: S[CH2]>>[C]S[CH2]
2: [P]O[P]>>[P]O
3: [C]O>>[P]O
4: [C]C(=O)O>>[C]C(=O)[S]
5: [O]P([O])(=O)O>>[O]P(=O)(O)O

MMP Level 2
1: SC[CH2]>>[C]C(=O)SC[CH2]
2: [O]P(=O)(O)OP([O])(=O)O>>[O]P(=O)(O)O
3: [C]C(=O)O>>[O]P(=O)(O)O
4: O=C(O)C([CH])=[CH]>>O=C(S[CH2])C([CH])=[CH]
5: O=P(O)(O[P])O[P]>>O=P(O)(O)O[P]

MMP Level 3
1: [NH]CCS>>O=C(SCC[NH])C([CH])=[CH]
2: O=P(O)(O[P])OP(=O)(O)O[CH2]>>O=P(O)(O)O[CH2]
3: O=C(O)C([CH])=[CH]>>O=P(O)(O)O[P]
4: O=C(O)C(=C[CH])C=[CH]>>O=C(SC[CH2])C(=C[CH])C=[CH]
5: [O]P(=O)(O)OP(=O)(O)OP(=O)(O)O>>O=P(O)(O)OP(=O)(O)O


//
REACTION MMP (RPAIR)
1: R:M00001, P:M00004	[O=P(O)(O)OP(=O)(O)OP(=O)(O)OCC1OC(n2cnc3c(ncnc32)N)C(O)C1O>>O=P(O)(O)OP(=O)(O)O]
2: R:M00001, P:M00005	[O=P(O)(O)OP(=O)(O)OP(=O)(O)OCC1OC(n2cnc3c(ncnc32)N)C(O)C1O>>O=P(O)(O)OCC1OC(n2cnc3c(ncnc32)N)C(O)C1O]
3: R:M00002, P:M00006	[O=C(NCCS)CCNC(=O)C(O)C(C)(C)COP(=O)(O)OP(=O)(O)OCC1OC(n2cnc3c(ncnc32)N)C(O)C1OP(=O)(O)O>>O=C(SCCNC(=O)CCNC(=O)C(O)C(C)(C)COP(=O)(O)OP(=O)(O)OCC1OC(n2cnc3c(ncnc32)N)C(O)C1OP(=O)(O)O)c4ccc(Cl)cc4]
4: R:M00003, P:M00004	[O=C(O)c1ccc(Cl)cc1>>O=P(O)(O)OP(=O)(O)O]
5: R:M00003, P:M00006	[O=C(O)c1ccc(Cl)cc1>>O=C(SCCNC(=O)CCNC(=O)C(O)C(C)(C)COP(=O)(O)OP(=O)(O)OCC1OC(n2cnc3c(ncnc32)N)C(O)C1OP(=O)(O)O)c4ccc(Cl)cc4]


//
SELECTED AAM MAPPING
[O:80]=[C:81]([OH:82])[C:83]:1:[CH:89]:[CH:88]:[C:86]([Cl:87]):[CH:85]:[CH:84]1.[O:1]=[C:2]([NH:3][CH2:4][CH2:5][SH:6])[CH2:7][CH2:8][NH:9][C:10](=[O:11])[CH:12]([OH:13])[C:14]([CH3:15])([CH3:16])[CH2:17][O:18][P:19](=[O:20])([OH:21])[O:22][P:23](=[O:24])([OH:25])[O:26][CH2:27][CH:28]1[O:29][CH:30]([N:31]:2:[CH:32]:[N:33]:[C:34]:3:[C:35](:[N:36]:[CH:37]:[N:38]:[C:39]32)[NH2:40])[CH:41]([OH:42])[CH:43]1[O:44][P:45](=[O:46])([OH:47])[OH:48].[O:49]=[P:50]([OH:51])([OH:52])[O:53][P:54](=[O:55])([OH:56])[O:57][P:58](=[O:59])([OH:60])[O:61][CH2:62][CH:63]1[O:64][CH:65]([N:66]:2:[CH:67]:[N:68]:[C:69]:3:[C:70](:[N:71]:[CH:72]:[N:73]:[C:74]32)[NH2:75])[CH:76]([OH:77])[CH:78]1[OH:79]>>[O:80]=[C:81]([S:6][CH2:5][CH2:4][NH:3][C:2](=[O:1])[CH2:7][CH2:8][NH:9][C:10](=[O:11])[CH:12]([OH:13])[C:14]([CH3:15])([CH3:16])[CH2:17][O:18][P:19](=[O:20])([OH:21])[O:22][P:23](=[O:24])([OH:25])[O:26][CH2:27][CH:28]1[O:29][CH:30]([N:31]:2:[CH:32]:[N:33]:[C:34]:3:[C:35](:[N:36]:[CH:37]:[N:38]:[C:39]32)[NH2:40])[CH:41]([OH:42])[CH:43]1[O:44][P:45](=[O:46])([OH:48])[OH:47])[C:83]:4:[CH:89]:[CH:88]:[C:86]([Cl:87]):[CH:85]:[CH:84]4.[O:59]=[P:58]([OH:57])([OH:60])[O:61][CH2:62][CH:63]1[O:64][CH:65]([N:66]:2:[CH:67]:[N:68]:[C:69]:3:[C:70](:[N:71]:[CH:72]:[N:73]:[C:74]32)[NH2:75])[CH:76]([OH:77])[CH:78]1[OH:79].[O:49]=[P:50]([OH:51])([OH:52])[O:53][P:54](=[O:55])([OH:56])[OH:82]


//
REACTANT INPUT ATOM INDEX<->AAM ID
{1=72, 2=73, 3=74, 4=69, 5=70, 6=71, 7=75, 8=68, 9=67, 10=66, 11=65, 12=76, 13=78, 14=63, 15=64, 16=62, 17=61, 18=58, 19=59, 20=60, 21=57, 22=54, 23=55, 24=56, 25=53, 26=50, 27=49, 28=51, 29=52, 30=79, 31=77, 32=15, 33=14, 34=16, 35=17, 36=18, 37=19, 38=20, 39=21, 40=22, 41=23, 42=24, 43=25, 44=26, 45=27, 46=28, 47=43, 48=41, 49=30, 50=29, 51=31, 52=32, 53=33, 54=34, 55=39, 56=38, 57=37, 58=36, 59=35, 60=40, 61=42, 62=44, 63=45, 64=46, 65=47, 66=48, 67=12, 68=10, 69=11, 70=9, 71=8, 72=7, 73=2, 74=1, 75=3, 76=4, 77=5, 78=6, 79=13, 80=84, 81=85, 82=86, 83=88, 84=89, 85=83, 86=81, 87=80, 88=82, 89=87}
PRODUCT INPUT ATOM INDEX<->AAM ID
{1=83, 2=82, 3=81, 4=84, 5=85, 6=86, 7=87, 8=88, 9=89, 10=73, 11=74, 12=75, 13=70, 14=71, 15=72, 16=76, 17=69, 18=68, 19=67, 20=66, 21=77, 22=79, 23=64, 24=65, 25=63, 26=62, 27=59, 28=58, 29=60, 30=61, 31=80, 32=78, 33=17, 34=16, 35=18, 36=19, 37=20, 38=21, 39=22, 40=23, 41=24, 42=25, 43=26, 44=27, 45=28, 46=29, 47=30, 48=45, 49=43, 50=32, 51=31, 52=33, 53=34, 54=35, 55=36, 56=41, 57=40, 58=39, 59=38, 60=37, 61=42, 62=44, 63=46, 64=47, 65=48, 66=49, 67=50, 68=14, 69=12, 70=13, 71=11, 72=10, 73=9, 74=7, 75=8, 76=6, 77=5, 78=4, 79=3, 80=2, 81=1, 82=51, 83=52, 84=53, 85=54, 86=56, 87=57, 88=55, 89=15}

