
//
FINGERPRINTS BC

FORMED_CLEAVED
[O%O:1.0, S-S:1.0]

ORDER_CHANGED
[C%O*C=O:1.0]

STEREO_CHANGED
[C(R/S):1.0]

//
FINGERPRINTS RC
[O1OC2CC1[CH]C2[CH2]:1.0, O1OC2CC1[CH]C2[CH2]>>O=C1C[CH][CH]C1[CH2]:2.0, O=C(O)[CH2]:1.0, O=C([CH])[CH2]:2.0, O=C1C[CH][CH]C1[CH2]:1.0, S[CH2]:1.0, S[CH2]>>[S]S[CH2]:1.0, [CH]:1.0, [CH]C(O)[CH2]:1.0, [CH]C1OO[CH]C1:2.0, [CH]C1OO[CH]C1>>O=C([CH])[CH2]:1.0, [CH]C1OO[CH]C1>>[CH]C(O)[CH2]:1.0, [CH]C1[CH]C2OOC1C2>>[CH]C1[CH][C]CC1O:1.0, [CH]CC1C([CH])C2OOC1C2>>O=C1CC(O)C([CH])C1C[CH]:1.0, [CH]CS:1.0, [CH]CS>>[CH]CSS[CH2]:1.0, [CH]CSS[CH2]:1.0, [CH]O:1.0, [C]:1.0, [C]=O:1.0, [C]C([NH])CS>>[C]C([NH])CSSC[CH]:1.0, [C]O:1.0, [C][O-]:1.0, [C][O-]>>[C]O:1.0, [O-]:1.0, [O-]C(=O)C[CH2]>>O=C(O)C[CH2]:1.0, [O-]C(=O)[CH2]:1.0, [O-]C(=O)[CH2]>>O=C(O)[CH2]:1.0, [OH]:2.0, [O]:3.0, [O]C([CH])[CH2]:1.0, [O]C([CH])[CH2]>>O=C([CH])[CH2]:1.0, [O]O[CH]:2.0, [O]O[CH]>>[CH]O:1.0, [O]O[CH]>>[C]=O:1.0, [SH]:1.0, [S]:1.0, [S]S[CH2]:1.0]

//
Reaction Centre Formed/Cleaved

ID=Reaction Center at Level: 0 (2)
[[O]:2.0, [S]:2.0]


ID=Reaction Center at Level: 1 (2)
[[O]O[CH]:2.0, [S]S[CH2]:2.0]


ID=Reaction Center at Level: 2 (2)
[[CH]C1OO[CH]C1:2.0, [CH]CSS[CH2]:2.0]


Reaction Centre Order Changed

ID=Reaction Center at Level: 0 (3)
[[CH]:1.0, [C]:1.0, [O]:2.0]


ID=Reaction Center at Level: 1 (4)
[O=C([CH])[CH2]:1.0, [C]=O:1.0, [O]C([CH])[CH2]:1.0, [O]O[CH]:1.0]


ID=Reaction Center at Level: 2 (4)
[O1OC2CC1[CH]C2[CH2]:1.0, O=C([CH])[CH2]:1.0, O=C1C[CH][CH]C1[CH2]:1.0, [CH]C1OO[CH]C1:1.0]


Reaction Centre Stereo Changes

ID=Reaction Center at Level: 0 (2)
[[CH]:1.0, [C]:1.0]


ID=Reaction Center at Level: 1 (2)
[O=C([CH])[CH2]:1.0, [O]C([CH])[CH2]:1.0]


ID=Reaction Center at Level: 2 (2)
[O1OC2CC1[CH]C2[CH2]:1.0, O=C1C[CH][CH]C1[CH2]:1.0]



//
TRANSFORMATIONS
MMP Level 1
1: [C][O-]>>[C]O
2: S[CH2]>>[S]S[CH2]
3: [O]O[CH]>>[CH]O
4: [O]C([CH])[CH2]>>O=C([CH])[CH2]
5: [O]O[CH]>>[C]=O

MMP Level 2
1: [O-]C(=O)[CH2]>>O=C(O)[CH2]
2: [CH]CS>>[CH]CSS[CH2]
3: [CH]C1OO[CH]C1>>[CH]C(O)[CH2]
4: O1OC2CC1[CH]C2[CH2]>>O=C1C[CH][CH]C1[CH2]
5: [CH]C1OO[CH]C1>>O=C([CH])[CH2]

MMP Level 3
1: [O-]C(=O)C[CH2]>>O=C(O)C[CH2]
2: [C]C([NH])CS>>[C]C([NH])CSSC[CH]
3: [CH]C1[CH]C2OOC1C2>>[CH]C1[CH][C]CC1O
4: [CH]CC1C([CH])C2OOC1C2>>O=C1CC(O)C([CH])C1C[CH]
5: O1OC2CC1[CH]C2[CH2]>>O=C1C[CH][CH]C1[CH2]


//
REACTION MMP (RPAIR)
1: R:M00001, P:M00003	[[O-]C(=O)CCCC=CCC1C2OOC(C2)C1C=CC(O)CCCCC>>O=C1CC(O)C(C=CC(O)CCCCC)C1CC=CCCCC(=O)O, [O-]C(=O)CCCC=CCC1C2OOC(C2)C1C=CC(O)CCCCC>>O=C1CC(O)C(C=CC(O)CCCCC)C1CC=CCCCC(=O)O, [O-]C(=O)CCCC=CCC1C2OOC(C2)C1C=CC(O)CCCCC>>O=C1CC(O)C(C=CC(O)CCCCC)C1CC=CCCCC(=O)O, [O-]C(=O)CCCC=CCC1C2OOC(C2)C1C=CC(O)CCCCC>>O=C1CC(O)C(C=CC(O)CCCCC)C1CC=CCCCC(=O)O]
2: R:M00002, P:M00004	[O=C(O)CNC(=O)C(NC(=O)CCC(N)C(=O)O)CS>>O=C(O)CNC(=O)C(NC(=O)CCC(N)C(=O)O)CSSCC(NC(=O)CCC(N)C(=O)O)C(=O)NCC(=O)O]


//
SELECTED AAM MAPPING
[O:1]=[C:2]([O-:3])[CH2:4][CH2:5][CH2:6][CH:7]=[CH:8][CH2:9][CH:10]1[CH:11]2[O:12][O:13][CH:14]([CH2:15]2)[CH:16]1[CH:17]=[CH:18][CH:19]([OH:20])[CH2:21][CH2:22][CH2:23][CH2:24][CH3:25].[O:26]=[C:27]([OH:28])[CH2:29][NH:30][C:31](=[O:32])[CH:33]([NH:34][C:35](=[O:36])[CH2:37][CH2:38][CH:39]([NH2:40])[C:41](=[O:42])[OH:43])[CH2:44][SH:45]>>[O:64]=[C:63]([OH:65])[CH2:62][NH:61][C:59](=[O:60])[CH:48]([NH:49][C:50](=[O:51])[CH2:52][CH2:53][CH:54]([NH2:55])[C:56](=[O:57])[OH:58])[CH2:47][S:46][S:45][CH2:44][CH:33]([NH:34][C:35](=[O:36])[CH2:37][CH2:38][CH:39]([NH2:40])[C:41](=[O:42])[OH:43])[C:31](=[O:32])[NH:30][CH2:29][C:27](=[O:26])[OH:28].[O:1]=[C:2]([OH:3])[CH2:4][CH2:5][CH2:6][CH:7]=[CH:8][CH2:9][CH:10]1[C:11](=[O:12])[CH2:15][CH:14]([OH:13])[CH:16]1[CH:17]=[CH:18][CH:19]([OH:20])[CH2:21][CH2:22][CH2:23][CH2:24][CH3:25]


//
REACTANT INPUT ATOM INDEX<->AAM ID
{1=25, 2=24, 3=23, 4=22, 5=21, 6=19, 7=18, 8=17, 9=16, 10=14, 11=15, 12=11, 13=10, 14=9, 15=8, 16=7, 17=6, 18=5, 19=4, 20=2, 21=1, 22=3, 23=12, 24=13, 25=20, 26=38, 27=37, 28=35, 29=36, 30=34, 31=33, 32=44, 33=45, 34=31, 35=32, 36=30, 37=29, 38=27, 39=26, 40=28, 41=39, 42=41, 43=42, 44=43, 45=40}
PRODUCT INPUT ATOM INDEX<->AAM ID
{1=65, 2=64, 3=63, 4=62, 5=61, 6=59, 7=58, 8=57, 9=56, 10=54, 11=53, 12=51, 13=52, 14=50, 15=49, 16=48, 17=47, 18=46, 19=45, 20=44, 21=42, 22=41, 23=43, 24=55, 25=60, 26=28, 27=27, 28=25, 29=26, 30=24, 31=23, 32=22, 33=21, 34=20, 35=19, 36=8, 37=6, 38=7, 39=5, 40=4, 41=2, 42=1, 43=3, 44=9, 45=10, 46=11, 47=12, 48=13, 49=14, 50=16, 51=17, 52=18, 53=15, 54=34, 55=35, 56=36, 57=37, 58=38, 59=39, 60=40, 61=29, 62=31, 63=32, 64=33, 65=30}

