
//
FINGERPRINTS BC

FORMED_CLEAVED
[C-O:1.0]

//
FINGERPRINTS RC
[[CH2]:2.0, [CH][CH2]:1.0, [OH]:1.0, [O]:1.0, [O]C([CH])COP(=O)(O)O[P]>>O=P(O)(O)O[P]:1.0, [O]C([CH])CO[P]:1.0, [O]C([CH])CO[P]>>[O]C([CH])[CH2]:1.0, [O]C([CH])[CH2]:1.0, [O]C[CH]:1.0, [O]C[CH]>>[CH][CH2]:1.0, [O]P(=O)(O)O:1.0, [O]P(=O)(O)OCC1O[CH][CH]C1O>>OC1[CH][CH]OC1[CH2]:1.0, [O]P(=O)(O)OC[CH]:1.0, [O]P(=O)(O)OC[CH]>>[O]P(=O)(O)O:1.0, [P]O:1.0, [P]O[CH2]:1.0, [P]O[CH2]>>[P]O:1.0]

//
Reaction Centre Formed/Cleaved

ID=Reaction Center at Level: 0 (2)
[[CH2]:1.0, [O]:1.0]


ID=Reaction Center at Level: 1 (2)
[[O]C[CH]:1.0, [P]O[CH2]:1.0]


ID=Reaction Center at Level: 2 (2)
[[O]C([CH])CO[P]:1.0, [O]P(=O)(O)OC[CH]:1.0]


Reaction Centre Order Changed

Reaction Centre Stereo Changes


//
TRANSFORMATIONS
MMP Level 1
1: [O]C[CH]>>[CH][CH2]
2: [P]O[CH2]>>[P]O

MMP Level 2
1: [O]C([CH])CO[P]>>[O]C([CH])[CH2]
2: [O]P(=O)(O)OC[CH]>>[O]P(=O)(O)O

MMP Level 3
1: [O]P(=O)(O)OCC1O[CH][CH]C1O>>OC1[CH][CH]OC1[CH2]
2: [O]C([CH])COP(=O)(O)O[P]>>O=P(O)(O)O[P]


//
REACTION MMP (RPAIR)
1: R:M00001, P:M00004	[O=P(O)(O)OP(=O)(O)OP(=O)(O)OCC1OC(n2cnc3c(ncnc32)N)C(O)C1O>>O=P(O)(O)OP(=O)(O)OP(=O)(O)O]
2: R:M00001, P:M00005	[O=P(O)(O)OP(=O)(O)OP(=O)(O)OCC1OC(n2cnc3c(ncnc32)N)C(O)C1O>>OC1C(O)C(OC1[CH2])n2cnc3c(ncnc32)N]


//
SELECTED AAM MAPPING
[Co+2:122].[O:1]=[C:2]([NH2:3])[CH2:4][CH:5]1[CH:6]2[N:7]=[C:8]([C:9](=[C:10]3[N:11]=[C:12]([CH:13]=[C:14]4[NH:15][C:16](=[C:17]([C:18]5=[N:19][C:20]2([CH3:21])[C:22]([CH3:23])([CH2:24][C:25](=[O:26])[NH2:27])[CH:28]5[CH2:29][CH2:30][C:31]([O-:32])=[NH:33])[CH3:34])[C:35]([CH3:36])([CH2:37][C:38](=[O:39])[NH2:40])[CH:41]4[CH2:42][CH2:43][C:44]([O-:45])=[NH:46])[C:47]([CH3:48])([CH3:49])[CH:50]3[CH2:51][CH2:52][C:53]([O-:54])=[NH:55])[CH3:56])[C:57]1([CH3:58])[CH2:59][CH2:60][C:61](=[O:62])[NH:63][CH2:64][CH:65]([O:66][P:67](=[O:68])([OH:69])[O:70][CH:71]6[CH:72]([OH:73])[CH:74]([O:75][CH:76]6[CH2:77][OH:78])[N+:79]:7:[CH:80]:[NH:81]:[C:82]:8:[CH:83]:[C:84](:[C:85](:[CH:86]:[C:87]87)[CH3:88])[CH3:89])[CH3:90].[O:91]=[P:92]([OH:93])([OH:94])[O:95][P:96](=[O:97])([OH:98])[O:99][P:100](=[O:101])([OH:102])[O:103][CH2:104][CH:105]1[O:106][CH:107]([N:108]:2:[CH:109]:[N:110]:[C:111]:3:[C:112](:[N:113]:[CH:114]:[N:115]:[C:116]32)[NH2:117])[CH:118]([OH:119])[CH:120]1[OH:121]>>[Co+2:122].[O:1]=[C:2]([NH2:3])[CH2:4][CH:5]1[CH:6]2[N:7]=[C:8]([C:9](=[C:10]3[N:11]=[C:12]([CH:13]=[C:14]4[NH:15][C:16](=[C:17]([C:18]5=[N:19][C:20]2([CH3:21])[C:22]([CH3:23])([CH2:24][C:25](=[O:26])[NH2:27])[CH:28]5[CH2:29][CH2:30][C:31]([O-:32])=[NH:33])[CH3:34])[C:35]([CH3:36])([CH2:37][C:38](=[O:39])[NH2:40])[CH:41]4[CH2:42][CH2:43][C:44]([O-:45])=[NH:46])[C:47]([CH3:48])([CH3:49])[CH:50]3[CH2:51][CH2:52][C:53]([O-:54])=[NH:55])[CH3:56])[C:57]1([CH3:58])[CH2:59][CH2:60][C:61](=[O:62])[NH:63][CH2:64][CH:65]([O:66][P:67](=[O:68])([OH:69])[O:70][CH:71]6[CH:72]([OH:73])[CH:74]([O:75][CH:76]6[CH2:77][OH:78])[N+:79]:7:[CH:80]:[NH:81]:[C:82]:8:[CH:83]:[C:84](:[C:85](:[CH:86]:[C:87]87)[CH3:88])[CH3:89])[CH3:90].[O:91]=[P:92]([OH:93])([OH:94])[O:95][P:96](=[O:97])([OH:98])[O:99][P:100](=[O:101])([OH:103])[OH:102].[OH:119][CH:118]1[CH:120]([OH:121])[CH:105]([O:106][CH:107]1[N:108]:2:[CH:109]:[N:110]:[C:111]:3:[C:112](:[N:113]:[CH:114]:[N:115]:[C:116]32)[NH2:117])[CH3:104]


//
REACTANT INPUT ATOM INDEX<->AAM ID
{1=114, 2=115, 3=116, 4=111, 5=112, 6=113, 7=117, 8=110, 9=109, 10=108, 11=107, 12=118, 13=120, 14=105, 15=106, 16=104, 17=103, 18=100, 19=101, 20=102, 21=99, 22=96, 23=97, 24=98, 25=95, 26=92, 27=91, 28=93, 29=94, 30=121, 31=119, 32=89, 33=84, 34=83, 35=82, 36=87, 37=86, 38=85, 39=88, 40=79, 41=80, 42=81, 43=74, 44=72, 45=71, 46=76, 47=75, 48=77, 49=78, 50=70, 51=67, 52=68, 53=69, 54=66, 55=65, 56=90, 57=64, 58=63, 59=61, 60=62, 61=60, 62=59, 63=57, 64=5, 65=6, 66=20, 67=22, 68=28, 69=18, 70=19, 71=17, 72=16, 73=35, 74=41, 75=14, 76=13, 77=12, 78=11, 79=10, 80=9, 81=8, 82=7, 83=56, 84=50, 85=47, 86=48, 87=49, 88=51, 89=52, 90=53, 91=55, 92=54, 93=15, 94=42, 95=43, 96=44, 97=46, 98=45, 99=36, 100=37, 101=38, 102=39, 103=40, 104=34, 105=29, 106=30, 107=31, 108=33, 109=32, 110=23, 111=24, 112=25, 113=26, 114=27, 115=21, 116=4, 117=2, 118=1, 119=3, 120=58, 121=73, 122=122}
PRODUCT INPUT ATOM INDEX<->AAM ID
{1=111, 2=110, 3=109, 4=112, 5=113, 6=114, 7=115, 8=116, 9=117, 10=118, 11=119, 12=120, 13=121, 14=89, 15=84, 16=83, 17=82, 18=87, 19=86, 20=85, 21=88, 22=79, 23=80, 24=81, 25=74, 26=72, 27=71, 28=76, 29=75, 30=77, 31=78, 32=70, 33=67, 34=68, 35=69, 36=66, 37=65, 38=90, 39=64, 40=63, 41=61, 42=62, 43=60, 44=59, 45=57, 46=5, 47=6, 48=20, 49=22, 50=28, 51=18, 52=19, 53=17, 54=16, 55=35, 56=41, 57=14, 58=13, 59=12, 60=11, 61=10, 62=9, 63=8, 64=7, 65=56, 66=50, 67=47, 68=48, 69=49, 70=51, 71=52, 72=53, 73=55, 74=54, 75=15, 76=42, 77=43, 78=44, 79=46, 80=45, 81=36, 82=37, 83=38, 84=39, 85=40, 86=34, 87=29, 88=30, 89=31, 90=33, 91=32, 92=23, 93=24, 94=25, 95=26, 96=27, 97=21, 98=4, 99=2, 100=1, 101=3, 102=58, 103=73, 104=98, 105=97, 106=92, 107=93, 108=95, 109=96, 110=99, 111=100, 112=101, 113=102, 114=107, 115=106, 116=105, 117=104, 118=103, 119=108, 120=94, 121=91, 122=122}

