
//
FINGERPRINTS BC

ORDER_CHANGED
[C-O*C=O:1.0]

STEREO_CHANGED
[C(R/S):1.0]

//
FINGERPRINTS RC
[O=C(N)C1=C[N]C=CC1>>O=C(N)C=1C=[N+]C=CC1:1.0, O=C([CH2])[CH2]:2.0, O=C([CH2])[CH2]>>OC([CH2])[CH2]:2.0, O=C([S])CC(=O)CCC>>O=C([S])CC(O)CCC:1.0, OC([CH2])[CH2]:2.0, [CH2]:1.0, [CH]:2.0, [CH]N([CH])[CH]:1.0, [CH]N([CH])[CH]>>[CH][N+]([CH])=[CH]:1.0, [CH]O:1.0, [CH][N+]([CH])=[CH]:1.0, [C]:1.0, [C]=CN(C=[CH])C([O])[CH]:1.0, [C]=CN(C=[CH])C([O])[CH]>>[C]=C[N+](=C[CH])C([O])[CH]:1.0, [C]=C[N+](=C[CH])C([O])[CH]:1.0, [C]=O:1.0, [C]=O>>[CH]O:1.0, [C]C(=[CH])C=C[CH]:1.0, [C]C(=[CH])CC=[CH]:1.0, [C]C(=[CH])CC=[CH]>>[C]C(=[CH])C=C[CH]:1.0, [C]C1=CN(C=CC1)C2O[CH][CH]C2O>>[C]c1ccc[n+](c1)C2O[CH][CH]C2O:1.0, [C]C=[CH]:1.0, [C]CC(=O)C[CH2]:1.0, [C]CC(=O)C[CH2]>>[C]CC(O)C[CH2]:2.0, [C]CC(O)C[CH2]:1.0, [C]C[CH]:1.0, [C]C[CH]>>[C]C=[CH]:1.0, [N+]:1.0, [N]:1.0, [OH]:1.0, [O]:1.0]

//
Reaction Centre Formed/Cleaved

Reaction Centre Order Changed

ID=Reaction Center at Level: 0 (4)
[[CH]:1.0, [C]:1.0, [OH]:1.0, [O]:1.0]


ID=Reaction Center at Level: 1 (4)
[O=C([CH2])[CH2]:1.0, OC([CH2])[CH2]:1.0, [CH]O:1.0, [C]=O:1.0]


ID=Reaction Center at Level: 2 (4)
[O=C([CH2])[CH2]:1.0, OC([CH2])[CH2]:1.0, [C]CC(=O)C[CH2]:1.0, [C]CC(O)C[CH2]:1.0]


Reaction Centre Stereo Changes

ID=Reaction Center at Level: 0 (2)
[[CH]:1.0, [C]:1.0]


ID=Reaction Center at Level: 1 (2)
[O=C([CH2])[CH2]:1.0, OC([CH2])[CH2]:1.0]


ID=Reaction Center at Level: 2 (2)
[[C]CC(=O)C[CH2]:1.0, [C]CC(O)C[CH2]:1.0]



//
TRANSFORMATIONS
MMP Level 1
1: [C]=O>>[CH]O
2: [CH]N([CH])[CH]>>[CH][N+]([CH])=[CH]
3: [C]C[CH]>>[C]C=[CH]
4: O=C([CH2])[CH2]>>OC([CH2])[CH2]

MMP Level 2
1: O=C([CH2])[CH2]>>OC([CH2])[CH2]
2: [C]=CN(C=[CH])C([O])[CH]>>[C]=C[N+](=C[CH])C([O])[CH]
3: [C]C(=[CH])CC=[CH]>>[C]C(=[CH])C=C[CH]
4: [C]CC(=O)C[CH2]>>[C]CC(O)C[CH2]

MMP Level 3
1: [C]CC(=O)C[CH2]>>[C]CC(O)C[CH2]
2: [C]C1=CN(C=CC1)C2O[CH][CH]C2O>>[C]c1ccc[n+](c1)C2O[CH][CH]C2O
3: O=C(N)C1=C[N]C=CC1>>O=C(N)C=1C=[N+]C=CC1
4: O=C([S])CC(=O)CCC>>O=C([S])CC(O)CCC


//
REACTION MMP (RPAIR)
1: R:M00001, P:M00005	[O=C(N)C1=CN(C=CC1)C2OC(COP(=O)(O)OP(=O)(O)OCC3OC(n4cnc5c(ncnc54)N)C(O)C3O)C(O)C2O>>O=C(N)c1ccc[n+](c1)C2OC(COP(=O)(O)OP(=O)(O)OCC3OC(n4cnc5c(ncnc54)N)C(O)C3O)C(O)C2O, O=C(N)C1=CN(C=CC1)C2OC(COP(=O)(O)OP(=O)(O)OCC3OC(n4cnc5c(ncnc54)N)C(O)C3O)C(O)C2O>>O=C(N)c1ccc[n+](c1)C2OC(COP(=O)(O)OP(=O)(O)OCC3OC(n4cnc5c(ncnc54)N)C(O)C3O)C(O)C2O]
2: R:M00003, P:M00004	[O=C(SCCNC(=O)CCNC(=O)C(O)C(C)(C)COP(=O)(O)OP(=O)(O)OCC1OC(n2cnc3c(ncnc32)N)C(O)C1OP(=O)(O)O)CC(=O)CCC>>O=C(SCCNC(=O)CCNC(=O)C(O)C(C)(C)COP(=O)(O)OP(=O)(O)OCC1OC(n2cnc3c(ncnc32)N)C(O)C1OP(=O)(O)O)CC(O)CCC, O=C(SCCNC(=O)CCNC(=O)C(O)C(C)(C)COP(=O)(O)OP(=O)(O)OCC1OC(n2cnc3c(ncnc32)N)C(O)C1OP(=O)(O)O)CC(=O)CCC>>O=C(SCCNC(=O)CCNC(=O)C(O)C(C)(C)COP(=O)(O)OP(=O)(O)OCC1OC(n2cnc3c(ncnc32)N)C(O)C1OP(=O)(O)O)CC(O)CCC]


//
SELECTED AAM MAPPING
[H+:101].[O:57]=[C:58]([NH2:59])[C:60]1=[CH:61][N:62]([CH:63]=[CH:64][CH2:65]1)[CH:66]2[O:67][CH:68]([CH2:69][O:70][P:71](=[O:72])([OH:73])[O:74][P:75](=[O:76])([OH:77])[O:78][CH2:79][CH:80]3[O:81][CH:82]([N:83]:4:[CH:84]:[N:85]:[C:86]:5:[C:87](:[N:88]:[CH:89]:[N:90]:[C:91]54)[NH2:92])[CH:93]([OH:94])[CH:95]3[OH:96])[CH:97]([OH:98])[CH:99]2[OH:100].[O:1]=[C:2]([S:3][CH2:4][CH2:5][NH:6][C:7](=[O:8])[CH2:9][CH2:10][NH:11][C:12](=[O:13])[CH:14]([OH:15])[C:16]([CH3:17])([CH3:18])[CH2:19][O:20][P:21](=[O:22])([OH:23])[O:24][P:25](=[O:26])([OH:27])[O:28][CH2:29][CH:30]1[O:31][CH:32]([N:33]:2:[CH:34]:[N:35]:[C:36]:3:[C:37](:[N:38]:[CH:39]:[N:40]:[C:41]32)[NH2:42])[CH:43]([OH:44])[CH:45]1[O:46][P:47](=[O:48])([OH:49])[OH:50])[CH2:51][C:52](=[O:53])[CH2:54][CH2:55][CH3:56]>>[O:57]=[C:58]([NH2:59])[C:60]:1:[CH:65]:[CH:64]:[CH:63]:[N+:62](:[CH:61]1)[CH:66]2[O:67][CH:68]([CH2:69][O:70][P:71](=[O:72])([OH:73])[O:74][P:75](=[O:76])([OH:77])[O:78][CH2:79][CH:80]3[O:81][CH:82]([N:83]:4:[CH:84]:[N:85]:[C:86]:5:[C:87](:[N:88]:[CH:89]:[N:90]:[C:91]54)[NH2:92])[CH:93]([OH:94])[CH:95]3[OH:96])[CH:97]([OH:98])[CH:99]2[OH:100].[O:1]=[C:2]([S:3][CH2:4][CH2:5][NH:6][C:7](=[O:8])[CH2:9][CH2:10][NH:11][C:12](=[O:13])[CH:14]([OH:15])[C:16]([CH3:17])([CH3:18])[CH2:19][O:20][P:21](=[O:22])([OH:23])[O:24][P:25](=[O:26])([OH:27])[O:28][CH2:29][CH:30]1[O:31][CH:32]([N:33]:2:[CH:34]:[N:35]:[C:36]:3:[C:37](:[N:38]:[CH:39]:[N:40]:[C:41]32)[NH2:42])[CH:43]([OH:44])[CH:45]1[O:46][P:47](=[O:48])([OH:49])[OH:50])[CH2:51][CH:52]([OH:53])[CH2:54][CH2:55][CH3:56]


//
REACTANT INPUT ATOM INDEX<->AAM ID
{1=65, 2=64, 3=63, 4=62, 5=61, 6=60, 7=58, 8=57, 9=59, 10=66, 11=99, 12=97, 13=68, 14=67, 15=69, 16=70, 17=71, 18=72, 19=73, 20=74, 21=75, 22=76, 23=77, 24=78, 25=79, 26=80, 27=95, 28=93, 29=82, 30=81, 31=83, 32=84, 33=85, 34=86, 35=91, 36=90, 37=89, 38=88, 39=87, 40=92, 41=94, 42=96, 43=98, 44=100, 45=101, 46=56, 47=55, 48=54, 49=52, 50=53, 51=51, 52=2, 53=1, 54=3, 55=4, 56=5, 57=6, 58=7, 59=8, 60=9, 61=10, 62=11, 63=12, 64=13, 65=14, 66=16, 67=17, 68=18, 69=19, 70=20, 71=21, 72=22, 73=23, 74=24, 75=25, 76=26, 77=27, 78=28, 79=29, 80=30, 81=45, 82=43, 83=32, 84=31, 85=33, 86=34, 87=35, 88=36, 89=41, 90=40, 91=39, 92=38, 93=37, 94=42, 95=44, 96=46, 97=47, 98=48, 99=49, 100=50, 101=15}
PRODUCT INPUT ATOM INDEX<->AAM ID
{1=56, 2=55, 3=54, 4=52, 5=51, 6=2, 7=1, 8=3, 9=4, 10=5, 11=6, 12=7, 13=8, 14=9, 15=10, 16=11, 17=12, 18=13, 19=14, 20=16, 21=17, 22=18, 23=19, 24=20, 25=21, 26=22, 27=23, 28=24, 29=25, 30=26, 31=27, 32=28, 33=29, 34=30, 35=45, 36=43, 37=32, 38=31, 39=33, 40=34, 41=35, 42=36, 43=41, 44=40, 45=39, 46=38, 47=37, 48=42, 49=44, 50=46, 51=47, 52=48, 53=49, 54=50, 55=15, 56=53, 57=62, 58=61, 59=60, 60=65, 61=64, 62=63, 63=66, 64=99, 65=97, 66=68, 67=67, 68=69, 69=70, 70=71, 71=72, 72=73, 73=74, 74=75, 75=76, 76=77, 77=78, 78=79, 79=80, 80=95, 81=93, 82=82, 83=81, 84=83, 85=84, 86=85, 87=86, 88=91, 89=90, 90=89, 91=88, 92=87, 93=92, 94=94, 95=96, 96=98, 97=100, 98=58, 99=57, 100=59}

