
//
FINGERPRINTS BC

FORMED_CLEAVED
[C-O:1.0, C-S:1.0]

//
FINGERPRINTS RC
[S([CH2])[CH2]:1.0, [CH2][S+]([CH2])C:2.0, [CH2][S+]([CH2])C>>S([CH2])[CH2]:1.0, [CH2][S+]([CH2])C>>[CH]OC:1.0, [CH3]:2.0, [CH]C([CH])O:1.0, [CH]C([CH])O>>[CH]C([CH])OC:1.0, [CH]C([CH])OC:1.0, [CH]CSC[CH2]:1.0, [CH]C[S+](C)C[CH2]:1.0, [CH]C[S+](C)C[CH2]>>[CH]C([CH])OC:1.0, [CH]C[S+](C)C[CH2]>>[CH]CSC[CH2]:1.0, [CH]O:1.0, [CH]O>>[CH]OC:1.0, [CH]OC:2.0, [OH]:1.0, [O]:1.0, [O]C:1.0, [O]C([CH])C(O)C([CH])O>>[O]C([CH])C(OC)C([CH])O:1.0, [O]C([CH])C[S+](C)CC[CH]>>[O]C([CH])CSCC[CH]:1.0, [S+]:1.0, [S+]C:1.0, [S+]C>>[O]C:1.0, [S]:1.0]

//
Reaction Centre Formed/Cleaved

ID=Reaction Center at Level: 0 (3)
[[CH3]:2.0, [O]:1.0, [S+]:1.0]


ID=Reaction Center at Level: 1 (4)
[[CH2][S+]([CH2])C:1.0, [CH]OC:1.0, [O]C:1.0, [S+]C:1.0]


ID=Reaction Center at Level: 2 (4)
[[CH2][S+]([CH2])C:1.0, [CH]C([CH])OC:1.0, [CH]C[S+](C)C[CH2]:1.0, [CH]OC:1.0]


Reaction Centre Order Changed

Reaction Centre Stereo Changes


//
TRANSFORMATIONS
MMP Level 1
1: [CH2][S+]([CH2])C>>S([CH2])[CH2]
2: [CH]O>>[CH]OC
3: [S+]C>>[O]C

MMP Level 2
1: [CH]C[S+](C)C[CH2]>>[CH]CSC[CH2]
2: [CH]C([CH])O>>[CH]C([CH])OC
3: [CH2][S+]([CH2])C>>[CH]OC

MMP Level 3
1: [O]C([CH])C[S+](C)CC[CH]>>[O]C([CH])CSCC[CH]
2: [O]C([CH])C(O)C([CH])O>>[O]C([CH])C(OC)C([CH])O
3: [CH]C[S+](C)C[CH2]>>[CH]C([CH])OC


//
REACTION MMP (RPAIR)
1: R:M00001, P:M00003	[O=C(O)C(N)CC[S+](C)CC1OC(n2cnc3c(ncnc32)N)C(O)C1O>>O=C(O)C(N)CCSCC1OC(n2cnc3c(ncnc32)N)C(O)C1O]
2: R:M00001, P:M00004	[O=C(O)C(N)CC[S+](C)CC1OC(n2cnc3c(ncnc32)N)C(O)C1O>>O=C1OC(CC)C(C=CC=CC(=O)C(C)CC(C)C(OC2OC(C)CC(N(C)C)C2O)C(C=C1)C)COC3OC(C)C(O)C(OC)C3OC]
3: R:M00002, P:M00004	[O=C1OC(CC)C(C=CC=CC(=O)C(C)CC(C)C(OC2OC(C)CC(N(C)C)C2O)C(C=C1)C)COC3OC(C)C(O)C(O)C3OC>>O=C1OC(CC)C(C=CC=CC(=O)C(C)CC(C)C(OC2OC(C)CC(N(C)C)C2O)C(C=C1)C)COC3OC(C)C(O)C(OC)C3OC]


//
SELECTED AAM MAPPING
[O:49]=[C:50]([OH:51])[CH:52]([NH2:53])[CH2:54][CH2:55][S+:56]([CH3:57])[CH2:58][CH:59]1[O:60][CH:61]([N:62]:2:[CH:63]:[N:64]:[C:65]:3:[C:66](:[N:67]:[CH:68]:[N:69]:[C:70]32)[NH2:71])[CH:72]([OH:73])[CH:74]1[OH:75].[O:1]=[C:2]1[O:3][CH:4]([CH2:5][CH3:6])[CH:7]([CH:8]=[CH:9][CH:10]=[CH:11][C:12](=[O:13])[CH:14]([CH3:15])[CH2:16][CH:17]([CH3:18])[CH:19]([O:20][CH:21]2[O:22][CH:23]([CH3:24])[CH2:25][CH:26]([N:27]([CH3:28])[CH3:29])[CH:30]2[OH:31])[CH:32]([CH:33]=[CH:34]1)[CH3:35])[CH2:36][O:37][CH:38]3[O:39][CH:40]([CH3:41])[CH:42]([OH:43])[CH:44]([OH:45])[CH:46]3[O:47][CH3:48]>>[O:49]=[C:50]([OH:51])[CH:52]([NH2:53])[CH2:54][CH2:55][S:56][CH2:58][CH:59]1[O:60][CH:61]([N:62]:2:[CH:63]:[N:64]:[C:65]:3:[C:66](:[N:67]:[CH:68]:[N:69]:[C:70]32)[NH2:71])[CH:72]([OH:73])[CH:74]1[OH:75].[O:1]=[C:2]1[O:3][CH:4]([CH2:5][CH3:6])[CH:7]([CH:8]=[CH:9][CH:10]=[CH:11][C:12](=[O:13])[CH:14]([CH3:15])[CH2:16][CH:17]([CH3:18])[CH:19]([O:20][CH:21]2[O:22][CH:23]([CH3:24])[CH2:25][CH:26]([N:27]([CH3:28])[CH3:29])[CH:30]2[OH:31])[CH:32]([CH:33]=[CH:34]1)[CH3:35])[CH2:36][O:37][CH:38]3[O:39][CH:40]([CH3:41])[CH:42]([OH:43])[CH:44]([O:45][CH3:57])[CH:46]3[O:47][CH3:48]


//
REACTANT INPUT ATOM INDEX<->AAM ID
{1=57, 2=56, 3=55, 4=54, 5=52, 6=50, 7=49, 8=51, 9=53, 10=58, 11=59, 12=74, 13=72, 14=61, 15=60, 16=62, 17=63, 18=64, 19=65, 20=70, 21=69, 22=68, 23=67, 24=66, 25=71, 26=73, 27=75, 28=6, 29=5, 30=4, 31=7, 32=8, 33=9, 34=10, 35=11, 36=12, 37=13, 38=14, 39=16, 40=17, 41=19, 42=32, 43=33, 44=34, 45=2, 46=1, 47=3, 48=35, 49=20, 50=21, 51=30, 52=26, 53=25, 54=23, 55=22, 56=24, 57=27, 58=28, 59=29, 60=31, 61=18, 62=15, 63=36, 64=37, 65=38, 66=46, 67=44, 68=42, 69=40, 70=39, 71=41, 72=43, 73=45, 74=47, 75=48}
PRODUCT INPUT ATOM INDEX<->AAM ID
{1=68, 2=69, 3=70, 4=65, 5=66, 6=67, 7=71, 8=64, 9=63, 10=62, 11=61, 12=72, 13=74, 14=59, 15=60, 16=58, 17=57, 18=56, 19=55, 20=53, 21=51, 22=50, 23=52, 24=54, 25=75, 26=73, 27=6, 28=5, 29=4, 30=7, 31=8, 32=9, 33=10, 34=11, 35=12, 36=13, 37=14, 38=16, 39=17, 40=19, 41=32, 42=33, 43=34, 44=2, 45=1, 46=3, 47=35, 48=20, 49=21, 50=30, 51=26, 52=25, 53=23, 54=22, 55=24, 56=27, 57=28, 58=29, 59=31, 60=18, 61=15, 62=36, 63=37, 64=38, 65=47, 66=44, 67=42, 68=40, 69=39, 70=41, 71=43, 72=45, 73=46, 74=48, 75=49}

