
//
FINGERPRINTS BC

FORMED_CLEAVED
[O%O:1.0]

ORDER_CHANGED
[C%O*C=O:1.0]

STEREO_CHANGED
[C(R/S):1.0]

//
FINGERPRINTS RC
[O1OC2CC1[CH]C2[CH2]>>OC1C[C][CH]C1[CH2]:1.0, O=C([CH])[CH2]:2.0, O=C1C[CH][CH]C1[CH]:1.0, [CH]:1.0, [CH]=CC1C2OOC(C2)C1[CH2]>>O=C1CC(O)C([CH2])C1C=[CH]:1.0, [CH]C(O)[CH2]:1.0, [CH]C1OO[CH]C1:2.0, [CH]C1OO[CH]C1>>O=C([CH])[CH2]:1.0, [CH]C1OO[CH]C1>>[CH]C(O)[CH2]:1.0, [CH]C1[CH]C2OOC1C2:1.0, [CH]C1[CH]C2OOC1C2>>O=C1C[CH][CH]C1[CH]:2.0, [CH]O:1.0, [C]:1.0, [C]=O:1.0, [OH]:1.0, [O]:3.0, [O]C([CH])[CH2]:1.0, [O]C([CH])[CH2]>>O=C([CH])[CH2]:1.0, [O]O[CH]:2.0, [O]O[CH]>>[CH]O:1.0, [O]O[CH]>>[C]=O:1.0]

//
Reaction Centre Formed/Cleaved

ID=Reaction Center at Level: 0 (1)
[[O]:2.0]


ID=Reaction Center at Level: 1 (1)
[[O]O[CH]:2.0]


ID=Reaction Center at Level: 2 (1)
[[CH]C1OO[CH]C1:2.0]


Reaction Centre Order Changed

ID=Reaction Center at Level: 0 (3)
[[CH]:1.0, [C]:1.0, [O]:2.0]


ID=Reaction Center at Level: 1 (4)
[O=C([CH])[CH2]:1.0, [C]=O:1.0, [O]C([CH])[CH2]:1.0, [O]O[CH]:1.0]


ID=Reaction Center at Level: 2 (4)
[O=C([CH])[CH2]:1.0, O=C1C[CH][CH]C1[CH]:1.0, [CH]C1OO[CH]C1:1.0, [CH]C1[CH]C2OOC1C2:1.0]


Reaction Centre Stereo Changes

ID=Reaction Center at Level: 0 (2)
[[CH]:1.0, [C]:1.0]


ID=Reaction Center at Level: 1 (2)
[O=C([CH])[CH2]:1.0, [O]C([CH])[CH2]:1.0]


ID=Reaction Center at Level: 2 (2)
[O=C1C[CH][CH]C1[CH]:1.0, [CH]C1[CH]C2OOC1C2:1.0]



//
TRANSFORMATIONS
MMP Level 1
1: [O]O[CH]>>[C]=O
2: [O]O[CH]>>[CH]O
3: [O]C([CH])[CH2]>>O=C([CH])[CH2]

MMP Level 2
1: [CH]C1OO[CH]C1>>O=C([CH])[CH2]
2: [CH]C1OO[CH]C1>>[CH]C(O)[CH2]
3: [CH]C1[CH]C2OOC1C2>>O=C1C[CH][CH]C1[CH]

MMP Level 3
1: [CH]C1[CH]C2OOC1C2>>O=C1C[CH][CH]C1[CH]
2: O1OC2CC1[CH]C2[CH2]>>OC1C[C][CH]C1[CH2]
3: [CH]=CC1C2OOC(C2)C1[CH2]>>O=C1CC(O)C([CH2])C1C=[CH]


//
REACTION MMP (RPAIR)
1: R:M00001, P:M00003	[O=C(O)CCCC=CCC1C2OOC(C2)C1C=CC(O)CCCCC>>O=C1CC(O)C(CC=CCCCC(=O)O)C1C=CC(O)CCCCC, O=C(O)CCCC=CCC1C2OOC(C2)C1C=CC(O)CCCCC>>O=C1CC(O)C(CC=CCCCC(=O)O)C1C=CC(O)CCCCC, O=C(O)CCCC=CCC1C2OOC(C2)C1C=CC(O)CCCCC>>O=C1CC(O)C(CC=CCCCC(=O)O)C1C=CC(O)CCCCC]


//
SELECTED AAM MAPPING
[O:26]=[C:27]([OH:28])[CH2:29][NH:30][C:31](=[O:32])[CH:33]([NH:34][C:35](=[O:36])[CH2:37][CH2:38][CH:39]([NH2:40])[C:41](=[O:42])[OH:43])[CH2:44][SH:45].[O:1]=[C:2]([OH:3])[CH2:4][CH2:5][CH2:6][CH:7]=[CH:8][CH2:9][CH:10]1[CH:11]2[O:12][O:13][CH:14]([CH2:15]2)[CH:16]1[CH:17]=[CH:18][CH:19]([OH:20])[CH2:21][CH2:22][CH2:23][CH2:24][CH3:25]>>[O:26]=[C:27]([OH:28])[CH2:29][NH:30][C:31](=[O:32])[CH:33]([NH:34][C:35](=[O:36])[CH2:37][CH2:38][CH:39]([NH2:40])[C:41](=[O:42])[OH:43])[CH2:44][SH:45].[O:1]=[C:2]([OH:3])[CH2:4][CH2:5][CH2:6][CH:7]=[CH:8][CH2:9][CH:10]1[CH:11]([OH:12])[CH2:15][C:14](=[O:13])[CH:16]1[CH:17]=[CH:18][CH:19]([OH:20])[CH2:21][CH2:22][CH2:23][CH2:24][CH3:25]


//
REACTANT INPUT ATOM INDEX<->AAM ID
{1=25, 2=24, 3=23, 4=22, 5=21, 6=19, 7=18, 8=17, 9=16, 10=14, 11=15, 12=11, 13=10, 14=9, 15=8, 16=7, 17=6, 18=5, 19=4, 20=2, 21=1, 22=3, 23=12, 24=13, 25=20, 26=38, 27=37, 28=35, 29=36, 30=34, 31=33, 32=44, 33=45, 34=31, 35=32, 36=30, 37=29, 38=27, 39=26, 40=28, 41=39, 42=41, 43=42, 44=43, 45=40}
PRODUCT INPUT ATOM INDEX<->AAM ID
{1=25, 2=24, 3=23, 4=22, 5=21, 6=19, 7=18, 8=17, 9=16, 10=10, 11=11, 12=13, 13=14, 14=15, 15=12, 16=9, 17=8, 18=7, 19=6, 20=5, 21=4, 22=2, 23=1, 24=3, 25=20, 26=38, 27=37, 28=35, 29=36, 30=34, 31=33, 32=44, 33=45, 34=31, 35=32, 36=30, 37=29, 38=27, 39=26, 40=28, 41=39, 42=41, 43=42, 44=43, 45=40}

