
//
FINGERPRINTS BC

FORMED_CLEAVED
[C%O:2.0, C-C:7.0, C-N:5.0, C-O:5.0, C-S:2.0, C=O:2.0]

ORDER_CHANGED
[C-O*C=O:1.0]

STEREO_CHANGED
[C(R/S):5.0]

//
FINGERPRINTS RC
[O:3.0, O=C(N)C1=C[N]C=CC1>>O=C(N)C=1C=[N+]C=CC1:1.0, O=C(NC[CH2])C(O)C([CH2])(C)C>>[CH2]CCCCCC:1.0, O=C(NC[CH2])CC[NH]>>[CH2]CCCCC[CH2]:1.0, O=C(N[CH2])C[CH2]:1.0, O=C(N[CH2])C[CH2]>>[CH2]CCC[CH2]:1.0, O=C(O)CC[CH2]:1.0, O=C(O)C[CH2]:1.0, O=C(O)[CH2]:4.0, O=C(O)[CH2]>>O=C=O:2.0, O=C(SCC[NH])C>>[NH]CCS:1.0, O=C(SC[CH2])C:1.0, O=C(SC[CH2])C>>O=C(O)CC[CH2]:1.0, O=C(SC[CH2])C>>SC[CH2]:1.0, O=C(SC[CH2])[CH2]:1.0, O=C(S[CH2])C:1.0, O=C(S[CH2])C>>O=C(O)CCC[CH2]:1.0, O=C(S[CH2])C>>O=C(O)C[CH2]:1.0, O=C([CH2])NC[CH2]:1.0, O=C([CH])NCCC(=O)[NH]>>[CH2]CCCCC[CH2]:1.0, O=C([CH])NC[CH2]:1.0, O=C([CH])[NH]:2.0, O=C([CH])[NH]>>[CH2]C[CH2]:1.0, O=C([NH])C(O)C(C)(C)CO[P]>>[CH2]CCCC:1.0, O=C([NH])C(O)C([CH2])(C)C:1.0, O=C([NH])C(O)C([CH2])(C)C>>O=C(O)C[CH2]:1.0, O=C([NH])C(O)C([CH2])(C)C>>[CH2]CCCC:1.0, O=C([NH])[CH2]:2.0, O=C([NH])[CH2]>>[CH2]C[CH2]:1.0, O=C([S])C:2.0, O=C([S])C>>O=C(O)CC[CH2]:1.0, O=C([S])C>>O=C(O)[CH2]:1.0, O=C([S])CC(=O)O:1.0, O=C([S])CC(=O)O>>O=C=O:1.0, O=C=O:3.0, O=P(O)(O)OC([CH])[CH]:1.0, SC[CH2]:1.0, S[CH2]:1.0, [CH2]:20.0, [CH2]CC:1.0, [CH2]CCC:1.0, [CH2]CCCC:1.0, [CH2]CCC[CH2]:9.0, [CH2]C[CH2]:11.0, [CH3]:2.0, [CH]:6.0, [CH]C([CH2])(C)C:2.0, [CH]C([CH2])(C)C>>[CH2]CC:1.0, [CH]C([CH])O:2.0, [CH]C([CH])O>>O:1.0, [CH]C([CH])O>>[CH2]C[CH2]:1.0, [CH]N([CH])[CH]:1.0, [CH]N([CH])[CH]>>[CH][N+]([CH])=[CH]:1.0, [CH]O:2.0, [CH]O>>O:1.0, [CH]O>>[C]O:1.0, [CH]O[CH]:1.0, [CH][N+]([CH])=[CH]:1.0, [C]:7.0, [C]=CN(C=[CH])C([O])[CH]:1.0, [C]=CN(C=[CH])C([O])[CH]>>[C]=C[N+](=C[CH])C([O])[CH]:1.0, [C]=C[N+](=C[CH])C([O])[CH]:1.0, [C]=O:3.0, [C]C:2.0, [C]C(=[CH])C=C[CH]:1.0, [C]C(=[CH])CC=[CH]:1.0, [C]C(=[CH])CC=[CH]>>[C]C(=[CH])C=C[CH]:1.0, [C]C(O)C(=O)N[CH2]:1.0, [C]C(O)C(=O)N[CH2]>>[CH2]CCC[CH2]:1.0, [C]C(O)C(C)(C)C[O]:1.0, [C]C(O)C(C)(C)C[O]>>[CH2]CCC:1.0, [C]C([C])O:2.0, [C]C([C])O>>O=C(O)[CH2]:1.0, [C]C([C])O>>[CH2]C[CH2]:1.0, [C]C1=CN(C=CC1)C2O[CH][CH]C2O>>[C]c1ccc[n+](c1)C2O[CH][CH]C2O:1.0, [C]C=[CH]:1.0, [C]C>>[C]C[CH2]:1.0, [C]CC(=O)O:1.0, [C]CC(=O)O>>O=C=O:2.0, [C]CCC[CH2]:1.0, [C]C[CH2]:1.0, [C]C[CH]:1.0, [C]C[CH]>>[C]C=[CH]:1.0, [C]C[C]:1.0, [C]C[O]:1.0, [C]N([CH])C1OC([CH2])C(O[P])C1O>>[C]CCCCC[CH2]:1.0, [C]N([CH])C1O[CH][CH]C1O:1.0, [C]N([CH])C1O[CH][CH]C1O>>[C]CCC[CH2]:1.0, [C]N([CH])[CH]:1.0, [C]NCCSC(=O)[CH2]>>[CH2]CCCCC[CH2]:1.0, [C]NCC[C]:1.0, [C]NCC[C]>>[CH2]CCC[CH2]:1.0, [C]NCC[S]:1.0, [C]NCC[S]>>[CH2]CCC[CH2]:1.0, [C]N[CH2]:2.0, [C]O:2.0, [C]O>>[C]=O:1.0, [C]SCCNC(=O)[CH2]>>[CH2]CCCCC[CH2]:1.0, [C]SCC[NH]:1.0, [C]SCC[NH]>>[CH2]CCC[CH2]:1.0, [C]S[CH2]:2.0, [C]S[CH2]>>S[CH2]:1.0, [N+]:1.0, [NH]:2.0, [NH]C[CH2]:2.0, [NH]C[CH2]>>[CH2]C[CH2]:2.0, [N]:2.0, [N]C([O])[CH]:1.0, [N]C([O])[CH]>>[CH2]C[CH2]:1.0, [N]C1=[C]N=CN1C([O])[CH]:1.0, [N]C1=[C]N=CN1C2OC([CH2])C([O])C2O>>O=C(O)CCCC[CH2]:1.0, [N]C1OC(CO[P])C(O[P])C1O>>[CH2]CCCCC[CH2]:1.0, [N]C1OC(C[O])C(OP(=O)(O)O)C1O>>[CH2]CCCCC[CH2]:1.0, [N]C1OC([CH2])[CH][CH]1:1.0, [N]C1O[CH]C([O])C1O:1.0, [N]C1O[CH]C([O])C1O>>O:1.0, [N]C1O[CH]C([O])C1O>>[CH2]CCC[CH2]:1.0, [OH]:4.0, [O]:6.0, [O]C([CH])CO[P]:1.0, [O]C([CH])CO[P]>>[CH2]CCC[CH2]:1.0, [O]C([CH])[CH2]:1.0, [O]C([CH])[CH2]>>[CH2]C[CH2]:1.0, [O]C([CH])[CH]:1.0, [O]C([CH])[CH]>>[CH2]C[CH2]:1.0, [O]C1[CH][CH]OC1COP([O])(=O)O>>[CH2]CCCCC[CH2]:1.0, [O]CC(C)(C)C(O)C(=O)N[CH2]>>[CH2]CCCCC:1.0, [O]CC1O[CH][CH]C1[O]:1.0, [O]CC1O[CH][CH]C1[O]>>[CH2]CCC[CH2]:1.0, [O]C[CH]:1.0, [O]C[CH]>>[CH2]C[CH2]:1.0, [O]P(=O)(O)OC[CH]:1.0, [P]OC1C(O)[CH]OC1[CH2]:1.0, [P]OC1C(O)[CH]OC1[CH2]>>[CH2]CCC[CH2]:1.0, [P]OCC([CH])(C)C:1.0, [P]O[CH2]:1.0, [P]O[CH]:1.0, [SH]:1.0, [S]:2.0, [S]C[CH2]:1.0, [S]C[CH2]>>[CH2]C[CH2]:1.0]

//
Reaction Centre Formed/Cleaved

ID=Reaction Center at Level: 0 (10)
[O:1.0, [CH2]:14.0, [CH3]:1.0, [CH]:6.0, [C]:9.0, [NH]:4.0, [N]:1.0, [OH]:3.0, [O]:6.0, [S]:2.0]


ID=Reaction Center at Level: 1 (28)
[O:1.0, O=C(O)[CH2]:2.0, O=C([CH])[NH]:2.0, O=C([NH])[CH2]:2.0, O=C([S])C:1.0, [CH2]C[CH2]:7.0, [CH]C([CH2])(C)C:2.0, [CH]C([CH])O:1.0, [CH]O:2.0, [CH]O[CH]:2.0, [C]=O:2.0, [C]C:1.0, [C]C([C])O:1.0, [C]C[CH2]:1.0, [C]C[C]:1.0, [C]C[O]:1.0, [C]N([CH])[CH]:1.0, [C]N[CH2]:4.0, [C]O:1.0, [C]S[CH2]:2.0, [NH]C[CH2]:2.0, [N]C([O])[CH]:2.0, [O]C([CH])[CH2]:1.0, [O]C([CH])[CH]:1.0, [O]C[CH]:1.0, [P]O[CH2]:1.0, [P]O[CH]:1.0, [S]C[CH2]:1.0]


ID=Reaction Center at Level: 2 (35)
[O:1.0, O=C(N[CH2])C[CH2]:2.0, O=C(O)CC[CH2]:1.0, O=C(O)C[CH2]:1.0, O=C(O)[CH2]:1.0, O=C(SC[CH2])C:1.0, O=C(SC[CH2])[CH2]:1.0, O=C(S[CH2])C:1.0, O=C([CH2])NC[CH2]:2.0, O=C([CH])NC[CH2]:2.0, O=C([CH])[NH]:1.0, O=C([NH])C(O)C([CH2])(C)C:1.0, O=C([NH])[CH2]:1.0, O=C([S])CC(=O)O:1.0, O=P(O)(O)OC([CH])[CH]:1.0, [CH2]CCC[CH2]:6.0, [CH]C([CH2])(C)C:1.0, [CH]C([CH])O:1.0, [C]C(O)C(=O)N[CH2]:2.0, [C]C(O)C(C)(C)C[O]:2.0, [C]C([C])O:1.0, [C]CC(=O)O:1.0, [C]CCC[CH2]:1.0, [C]N([CH])C1O[CH][CH]C1O:2.0, [C]NCC[C]:1.0, [C]NCC[S]:1.0, [C]SCC[NH]:1.0, [N]C1=[C]N=CN1C([O])[CH]:1.0, [N]C1OC([CH2])[CH][CH]1:2.0, [N]C1O[CH]C([O])C1O:1.0, [O]C([CH])CO[P]:1.0, [O]CC1O[CH][CH]C1[O]:1.0, [O]P(=O)(O)OC[CH]:1.0, [P]OC1C(O)[CH]OC1[CH2]:1.0, [P]OCC([CH])(C)C:1.0]


Reaction Centre Order Changed

ID=Reaction Center at Level: 0 (3)
[[C]:2.0, [OH]:1.0, [O]:1.0]


ID=Reaction Center at Level: 1 (4)
[O=C(O)[CH2]:1.0, O=C=O:1.0, [C]=O:1.0, [C]O:1.0]


ID=Reaction Center at Level: 2 (3)
[O=C(O)[CH2]:1.0, O=C=O:2.0, [C]CC(=O)O:1.0]


Reaction Centre Stereo Changes

ID=Reaction Center at Level: 0 (2)
[[CH2]:5.0, [CH]:5.0]


ID=Reaction Center at Level: 1 (6)
[[CH2]C[CH2]:5.0, [CH]C([CH])O:1.0, [C]C([C])O:1.0, [N]C([O])[CH]:1.0, [O]C([CH])[CH2]:1.0, [O]C([CH])[CH]:1.0]


ID=Reaction Center at Level: 2 (8)
[O=C([NH])C(O)C([CH2])(C)C:1.0, [CH2]CCCC:1.0, [CH2]CCC[CH2]:3.0, [C]CCC[CH2]:1.0, [C]N([CH])C1O[CH][CH]C1O:1.0, [N]C1O[CH]C([O])C1O:1.0, [O]CC1O[CH][CH]C1[O]:1.0, [P]OC1C(O)[CH]OC1[CH2]:1.0]



//
TRANSFORMATIONS
MMP Level 1
1: O=C([NH])[CH2]>>[CH2]C[CH2]
2: [C]O>>[C]=O
3: [C]C>>[C]C[CH2]
4: [S]C[CH2]>>[CH2]C[CH2]
5: [NH]C[CH2]>>[CH2]C[CH2]
6: [NH]C[CH2]>>[CH2]C[CH2]
7: O=C(O)[CH2]>>O=C=O
8: [CH]O>>O
9: [O]C[CH]>>[CH2]C[CH2]
10: [CH]O>>[C]O
11: [C]C[CH]>>[C]C=[CH]
12: [CH]C([CH2])(C)C>>[CH2]CC
13: [O]C([CH])[CH2]>>[CH2]C[CH2]
14: [CH]C([CH])O>>[CH2]C[CH2]
15: [C]C([C])O>>[CH2]C[CH2]
16: [C]S[CH2]>>S[CH2]
17: [N]C([O])[CH]>>[CH2]C[CH2]
18: O=C([S])C>>O=C(O)[CH2]
19: [O]C([CH])[CH]>>[CH2]C[CH2]
20: [CH]N([CH])[CH]>>[CH][N+]([CH])=[CH]
21: O=C([CH])[NH]>>[CH2]C[CH2]

MMP Level 2
1: O=C(N[CH2])C[CH2]>>[CH2]CCC[CH2]
2: O=C(O)[CH2]>>O=C=O
3: O=C([S])C>>O=C(O)CC[CH2]
4: [C]SCC[NH]>>[CH2]CCC[CH2]
5: [C]NCC[S]>>[CH2]CCC[CH2]
6: [C]NCC[C]>>[CH2]CCC[CH2]
7: [C]CC(=O)O>>O=C=O
8: [CH]C([CH])O>>O
9: [O]C([CH])CO[P]>>[CH2]CCC[CH2]
10: [C]C([C])O>>O=C(O)[CH2]
11: [C]C(=[CH])CC=[CH]>>[C]C(=[CH])C=C[CH]
12: [C]C(O)C(C)(C)C[O]>>[CH2]CCC
13: [O]CC1O[CH][CH]C1[O]>>[CH2]CCC[CH2]
14: [N]C1O[CH]C([O])C1O>>[CH2]CCC[CH2]
15: O=C([NH])C(O)C([CH2])(C)C>>[CH2]CCCC
16: O=C(SC[CH2])C>>SC[CH2]
17: [C]N([CH])C1O[CH][CH]C1O>>[C]CCC[CH2]
18: O=C(S[CH2])C>>O=C(O)C[CH2]
19: [P]OC1C(O)[CH]OC1[CH2]>>[CH2]CCC[CH2]
20: [C]=CN(C=[CH])C([O])[CH]>>[C]=C[N+](=C[CH])C([O])[CH]
21: [C]C(O)C(=O)N[CH2]>>[CH2]CCC[CH2]

MMP Level 3
1: O=C(NC[CH2])CC[NH]>>[CH2]CCCCC[CH2]
2: [C]CC(=O)O>>O=C=O
3: O=C(S[CH2])C>>O=C(O)CCC[CH2]
4: [C]NCCSC(=O)[CH2]>>[CH2]CCCCC[CH2]
5: [C]SCCNC(=O)[CH2]>>[CH2]CCCCC[CH2]
6: O=C([CH])NCCC(=O)[NH]>>[CH2]CCCCC[CH2]
7: O=C([S])CC(=O)O>>O=C=O
8: [N]C1O[CH]C([O])C1O>>O
9: [O]C1[CH][CH]OC1COP([O])(=O)O>>[CH2]CCCCC[CH2]
10: O=C([NH])C(O)C([CH2])(C)C>>O=C(O)C[CH2]
11: O=C(N)C1=C[N]C=CC1>>O=C(N)C=1C=[N+]C=CC1
12: O=C([NH])C(O)C(C)(C)CO[P]>>[CH2]CCCC
13: [N]C1OC(CO[P])C(O[P])C1O>>[CH2]CCCCC[CH2]
14: [C]N([CH])C1OC([CH2])C(O[P])C1O>>[C]CCCCC[CH2]
15: [O]CC(C)(C)C(O)C(=O)N[CH2]>>[CH2]CCCCC
16: O=C(SCC[NH])C>>[NH]CCS
17: [N]C1=[C]N=CN1C2OC([CH2])C([O])C2O>>O=C(O)CCCC[CH2]
18: O=C(SC[CH2])C>>O=C(O)CC[CH2]
19: [N]C1OC(C[O])C(OP(=O)(O)O)C1O>>[CH2]CCCCC[CH2]
20: [C]C1=CN(C=CC1)C2O[CH][CH]C2O>>[C]c1ccc[n+](c1)C2O[CH][CH]C2O
21: O=C(NC[CH2])C(O)C([CH2])(C)C>>[CH2]CCCCCC


//
REACTION MMP (RPAIR)
1: R:M00001, P:M00009	[O=C(N)C1=CN(C=CC1)C2OC(COP(=O)(O)OP(=O)(O)OCC3OC(n4cnc5c(ncnc54)N)C(OP(=O)(O)O)C3O)C(O)C2O>>O=C(N)c1ccc[n+](c1)C2OC(COP(=O)(O)OP(=O)(O)OCC3OC(n4cnc5c(ncnc54)N)C(OP(=O)(O)O)C3O)C(O)C2O, O=C(N)C1=CN(C=CC1)C2OC(COP(=O)(O)OP(=O)(O)OCC3OC(n4cnc5c(ncnc54)N)C(OP(=O)(O)O)C3O)C(O)C2O>>O=C(N)c1ccc[n+](c1)C2OC(COP(=O)(O)OP(=O)(O)OCC3OC(n4cnc5c(ncnc54)N)C(OP(=O)(O)O)C3O)C(O)C2O]
2: R:M00003, P:M00006	[O=C(SCCNC(=O)CCNC(=O)C(O)C(C)(C)COP(=O)(O)OP(=O)(O)OCC1OC(n2cnc3c(ncnc32)N)C(O)C1OP(=O)(O)O)C>>O=C(NCCS)CCNC(=O)C(O)C(C)(C)COP(=O)(O)OP(=O)(O)OCC1OC(n2cnc3c(ncnc32)N)C(O)C1OP(=O)(O)O]
3: R:M00003, P:M00008	[O=C(SCCNC(=O)CCNC(=O)C(O)C(C)(C)COP(=O)(O)OP(=O)(O)OCC1OC(n2cnc3c(ncnc32)N)C(O)C1OP(=O)(O)O)C>>O=C(O)CCCCCCCCCCCCCCC, O=C(SCCNC(=O)CCNC(=O)C(O)C(C)(C)COP(=O)(O)OP(=O)(O)OCC1OC(n2cnc3c(ncnc32)N)C(O)C1OP(=O)(O)O)C>>O=C(O)CCCCCCCCCCCCCCC]
4: R:M00004, P:M00005	[O=C(O)CC(=O)SCCNC(=O)CCNC(=O)C(O)C(C)(C)COP(=O)(O)OP(=O)(O)OCC1OC(n2cnc3c(ncnc32)N)C(O)C1OP(=O)(O)O>>O]
5: R:M00004, P:M00007	[O=C(O)CC(=O)SCCNC(=O)CCNC(=O)C(O)C(C)(C)COP(=O)(O)OP(=O)(O)OCC1OC(n2cnc3c(ncnc32)N)C(O)C1OP(=O)(O)O>>O=C=O, O=C(O)CC(=O)SCCNC(=O)CCNC(=O)C(O)C(C)(C)COP(=O)(O)OP(=O)(O)OCC1OC(n2cnc3c(ncnc32)N)C(O)C1OP(=O)(O)O>>O=C=O]
6: R:M00004, P:M00008	[O=C(O)CC(=O)SCCNC(=O)CCNC(=O)C(O)C(C)(C)COP(=O)(O)OP(=O)(O)OCC1OC(n2cnc3c(ncnc32)N)C(O)C1OP(=O)(O)O>>O=C(O)CCCCCCCCCCCCCCC, O=C(O)CC(=O)SCCNC(=O)CCNC(=O)C(O)C(C)(C)COP(=O)(O)OP(=O)(O)OCC1OC(n2cnc3c(ncnc32)N)C(O)C1OP(=O)(O)O>>O=C(O)CCCCCCCCCCCCCCC, O=C(O)CC(=O)SCCNC(=O)CCNC(=O)C(O)C(C)(C)COP(=O)(O)OP(=O)(O)OCC1OC(n2cnc3c(ncnc32)N)C(O)C1OP(=O)(O)O>>O=C(O)CCCCCCCCCCCCCCC, O=C(O)CC(=O)SCCNC(=O)CCNC(=O)C(O)C(C)(C)COP(=O)(O)OP(=O)(O)OCC1OC(n2cnc3c(ncnc32)N)C(O)C1OP(=O)(O)O>>O=C(O)CCCCCCCCCCCCCCC, O=C(O)CC(=O)SCCNC(=O)CCNC(=O)C(O)C(C)(C)COP(=O)(O)OP(=O)(O)OCC1OC(n2cnc3c(ncnc32)N)C(O)C1OP(=O)(O)O>>O=C(O)CCCCCCCCCCCCCCC, O=C(O)CC(=O)SCCNC(=O)CCNC(=O)C(O)C(C)(C)COP(=O)(O)OP(=O)(O)OCC1OC(n2cnc3c(ncnc32)N)C(O)C1OP(=O)(O)O>>O=C(O)CCCCCCCCCCCCCCC, O=C(O)CC(=O)SCCNC(=O)CCNC(=O)C(O)C(C)(C)COP(=O)(O)OP(=O)(O)OCC1OC(n2cnc3c(ncnc32)N)C(O)C1OP(=O)(O)O>>O=C(O)CCCCCCCCCCCCCCC, O=C(O)CC(=O)SCCNC(=O)CCNC(=O)C(O)C(C)(C)COP(=O)(O)OP(=O)(O)OCC1OC(n2cnc3c(ncnc32)N)C(O)C1OP(=O)(O)O>>O=C(O)CCCCCCCCCCCCCCC, O=C(O)CC(=O)SCCNC(=O)CCNC(=O)C(O)C(C)(C)COP(=O)(O)OP(=O)(O)OCC1OC(n2cnc3c(ncnc32)N)C(O)C1OP(=O)(O)O>>O=C(O)CCCCCCCCCCCCCCC, O=C(O)CC(=O)SCCNC(=O)CCNC(=O)C(O)C(C)(C)COP(=O)(O)OP(=O)(O)OCC1OC(n2cnc3c(ncnc32)N)C(O)C1OP(=O)(O)O>>O=C(O)CCCCCCCCCCCCCCC, O=C(O)CC(=O)SCCNC(=O)CCNC(=O)C(O)C(C)(C)COP(=O)(O)OP(=O)(O)OCC1OC(n2cnc3c(ncnc32)N)C(O)C1OP(=O)(O)O>>O=C(O)CCCCCCCCCCCCCCC, O=C(O)CC(=O)SCCNC(=O)CCNC(=O)C(O)C(C)(C)COP(=O)(O)OP(=O)(O)OCC1OC(n2cnc3c(ncnc32)N)C(O)C1OP(=O)(O)O>>O=C(O)CCCCCCCCCCCCCCC, O=C(O)CC(=O)SCCNC(=O)CCNC(=O)C(O)C(C)(C)COP(=O)(O)OP(=O)(O)OCC1OC(n2cnc3c(ncnc32)N)C(O)C1OP(=O)(O)O>>O=C(O)CCCCCCCCCCCCCCC]


//
SELECTED AAM MAPPING
[H+:154].[O:1]=[C:2]([OH:3])[CH2:119][C:120](=[O:121])[S:122][CH2:4][CH2:5][NH:123][C:6](=[O:124])[CH2:7][CH2:8][NH:125][C:9](=[O:126])[CH:10]([OH:11])[C:12]([CH3:127])([CH3:13])[CH2:128][O:129][P:130](=[O:131])([OH:132])[O:133][P:134](=[O:135])([OH:136])[O:137][CH2:14][CH:15]1[O:138][CH:16]([N:139]:2:[CH:140]:[N:141]:[C:142]:3:[C:143](:[N:144]:[CH:145]:[N:146]:[C:147]32)[NH2:148])[CH:17]([OH:18])[CH:19]1[O:149][P:150](=[O:151])([OH:152])[OH:153].[O:71]=[C:72]([NH2:73])[C:74]1=[CH:75][N:76]([CH:77]=[CH:78][CH2:79]1)[CH:80]2[O:81][CH:82]([CH2:83][O:84][P:85](=[O:86])([OH:87])[O:88][P:89](=[O:90])([OH:91])[O:92][CH2:93][CH:94]3[O:95][CH:96]([N:97]:4:[CH:98]:[N:99]:[C:100]:5:[C:101](:[N:102]:[CH:103]:[N:104]:[C:105]54)[NH2:106])[CH:107]([O:108][P:109](=[O:110])([OH:111])[OH:112])[CH:113]3[OH:114])[CH:115]([OH:116])[CH:117]2[OH:118].[O:20]=[C:21]([S:22][CH2:23][CH2:24][NH:25][C:26](=[O:27])[CH2:28][CH2:29][NH:30][C:31](=[O:32])[CH:33]([OH:34])[C:35]([CH3:36])([CH3:37])[CH2:38][O:39][P:40](=[O:41])([OH:42])[O:43][P:44](=[O:45])([OH:46])[O:47][CH2:48][CH:49]1[O:50][CH:51]([N:52]:2:[CH:53]:[N:54]:[C:55]:3:[C:56](:[N:57]:[CH:58]:[N:59]:[C:60]32)[NH2:61])[CH:62]([OH:63])[CH:64]1[O:65][P:66](=[O:67])([OH:68])[OH:69])[CH3:70]>>[O:1]=[C:2]=[O:3].[O:20]=[C:21]([OH:11])[CH2:70][CH2:16][CH2:17][CH2:19][CH2:15][CH2:14][CH2:4][CH2:5][CH2:8][CH2:7][CH2:6][CH2:9][CH2:10][CH2:12][CH3:13].[O:71]=[C:72]([NH2:73])[C:74]:1:[CH:79]:[CH:78]:[CH:77]:[N+:76](:[CH:75]1)[CH:80]2[O:81][CH:82]([CH2:83][O:84][P:85](=[O:86])([OH:87])[O:88][P:89](=[O:90])([OH:91])[O:92][CH2:93][CH:94]3[O:95][CH:96]([N:97]:4:[CH:98]:[N:99]:[C:100]:5:[C:101](:[N:102]:[CH:103]:[N:104]:[C:105]54)[NH2:106])[CH:107]([O:108][P:109](=[O:110])([OH:111])[OH:112])[CH:113]3[OH:114])[CH:115]([OH:116])[CH:117]2[OH:118].[O:27]=[C:26]([NH:25][CH2:24][CH2:23][SH:22])[CH2:28][CH2:29][NH:30][C:31](=[O:32])[CH:33]([OH:34])[C:35]([CH3:36])([CH3:37])[CH2:38][O:39][P:40](=[O:41])([OH:42])[O:43][P:44](=[O:45])([OH:46])[O:47][CH2:48][CH:49]1[O:50][CH:51]([N:52]:2:[CH:53]:[N:54]:[C:55]:3:[C:56](:[N:57]:[CH:58]:[N:59]:[C:60]32)[NH2:61])[CH:62]([OH:63])[CH:64]1[O:65][P:66](=[O:67])([OH:68])[OH:69].[OH2:18]


//
REACTANT INPUT ATOM INDEX<->AAM ID
{1=114, 2=113, 3=112, 4=111, 5=110, 6=109, 7=107, 8=106, 9=108, 10=115, 11=152, 12=150, 13=117, 14=116, 15=118, 16=119, 17=120, 18=121, 19=122, 20=123, 21=124, 22=125, 23=126, 24=127, 25=128, 26=129, 27=148, 28=142, 29=131, 30=130, 31=132, 32=133, 33=134, 34=135, 35=140, 36=139, 37=138, 38=137, 39=136, 40=141, 41=143, 42=144, 43=145, 44=146, 45=147, 46=149, 47=151, 48=153, 49=154, 50=105, 51=56, 52=55, 53=57, 54=58, 55=59, 56=60, 57=61, 58=62, 59=63, 60=64, 61=65, 62=66, 63=67, 64=68, 65=70, 66=71, 67=72, 68=73, 69=74, 70=75, 71=76, 72=77, 73=78, 74=79, 75=80, 76=81, 77=82, 78=83, 79=84, 80=99, 81=97, 82=86, 83=85, 84=87, 85=88, 86=89, 87=90, 88=95, 89=94, 90=93, 91=92, 92=91, 93=96, 94=98, 95=100, 96=101, 97=102, 98=103, 99=104, 100=69, 101=21, 102=20, 103=22, 104=23, 105=24, 106=25, 107=26, 108=27, 109=28, 110=29, 111=30, 112=31, 113=32, 114=33, 115=34, 116=49, 117=47, 118=36, 119=35, 120=37, 121=38, 122=39, 123=40, 124=45, 125=44, 126=43, 127=42, 128=41, 129=46, 130=48, 131=50, 132=51, 133=52, 134=53, 135=54, 136=18, 137=16, 138=17, 139=15, 140=14, 141=13, 142=11, 143=12, 144=10, 145=9, 146=8, 147=7, 148=5, 149=6, 150=4, 151=2, 152=1, 153=3, 154=19}
PRODUCT INPUT ATOM INDEX<->AAM ID
{1=118, 2=15, 3=14, 4=16, 5=17, 6=18, 7=19, 8=20, 9=21, 10=22, 11=23, 12=24, 13=25, 14=26, 15=27, 16=28, 17=43, 18=41, 19=30, 20=29, 21=31, 22=32, 23=33, 24=34, 25=39, 26=38, 27=37, 28=36, 29=35, 30=40, 31=42, 32=44, 33=45, 34=46, 35=47, 36=48, 37=12, 38=10, 39=11, 40=9, 41=8, 42=7, 43=2, 44=1, 45=3, 46=4, 47=5, 48=6, 49=13, 50=116, 51=115, 52=117, 53=114, 54=113, 55=112, 56=111, 57=110, 58=109, 59=108, 60=107, 61=106, 62=105, 63=104, 64=103, 65=102, 66=101, 67=100, 68=98, 69=97, 70=99, 71=54, 72=53, 73=52, 74=57, 75=56, 76=55, 77=58, 78=95, 79=93, 80=60, 81=59, 82=61, 83=62, 84=63, 85=64, 86=65, 87=66, 88=67, 89=68, 90=69, 91=70, 92=71, 93=72, 94=91, 95=85, 96=74, 97=73, 98=75, 99=76, 100=77, 101=78, 102=83, 103=82, 104=81, 105=80, 106=79, 107=84, 108=86, 109=87, 110=88, 111=89, 112=90, 113=92, 114=94, 115=96, 116=50, 117=49, 118=51}

