
//
FINGERPRINTS BC

FORMED_CLEAVED
[C-N:1.0, C-S:1.0, O-P:1.0]

//
FINGERPRINTS RC
[O=P(O)(O)OC([CH])[CH]:1.0, OC1[CH]OC([CH2])C1O>>O=P(O)(O)OC1C(O)[CH]OC1[CH2]:1.0, S([CH2])[CH2]:1.0, [CH2][S+]([CH2])C:2.0, [CH2][S+]([CH2])C>>S([CH2])[CH2]:1.0, [CH2][S+]([CH2])C>>[C]N([CH])C:1.0, [CH3]:2.0, [CH]C([CH])O:1.0, [CH]C([CH])O>>O=P(O)(O)OC([CH])[CH]:1.0, [CH]CSC[CH2]:1.0, [CH]C[S+](C)C[CH2]:1.0, [CH]C[S+](C)C[CH2]>>[CH]CSC[CH2]:1.0, [CH]C[S+](C)C[CH2]>>[C]C1=[C][N+]=CN1C:1.0, [CH]O:1.0, [CH]O>>[P]O[CH]:1.0, [C]N([CH])C:1.0, [C]N([CH])[CH]:1.0, [C]N([CH])[CH]>>[C][N+]([CH])=[CH]:1.0, [C]Nc1c([C])ncn1C2O[CH][CH]C2O>>[C]Nc1c([C])n(c[n+]1C2O[CH][CH]C2O)C:1.0, [C][N+]([CH])=[CH]:1.0, [N+]:1.0, [N]:1.0, [N]C:1.0, [OH]:1.0, [O]:1.0, [O]C([CH])C[S+](C)CC[CH]>>[O]C([CH])CSCC[CH]:1.0, [O]C([CH])N1C=N[C]=C1[NH]:1.0, [O]C([CH])N1C=N[C]=C1[NH]>>[O]C([CH])[N+]1=C[N][C]=C1[NH]:1.0, [O]C([CH])[N+]1=C[N][C]=C1[NH]:1.0, [P]O[CH]:1.0, [S+]:1.0, [S+]C:1.0, [S+]C>>[N]C:1.0, [S]:1.0]

//
Reaction Centre Formed/Cleaved

ID=Reaction Center at Level: 0 (5)
[[CH3]:2.0, [N]:1.0, [O]:1.0, [P]:1.0, [S+]:1.0]


ID=Reaction Center at Level: 1 (6)
[[CH2][S+]([CH2])C:1.0, [C]N([CH])C:1.0, [N]C:1.0, [O]P(=O)(O)O:1.0, [P]O[CH]:1.0, [S+]C:1.0]


ID=Reaction Center at Level: 2 (6)
[O=P(O)(O)OC([CH])[CH]:1.0, O=P(O)(O)O[CH]:1.0, [CH2][S+]([CH2])C:1.0, [CH]C[S+](C)C[CH2]:1.0, [C]C1=[C][N+]=CN1C:1.0, [C]N([CH])C:1.0]


Reaction Centre Order Changed

Reaction Centre Stereo Changes


//
TRANSFORMATIONS
MMP Level 1
1: [CH2][S+]([CH2])C>>S([CH2])[CH2]
2: [C]N([CH])[CH]>>[C][N+]([CH])=[CH]
3: [S+]C>>[N]C
4: [CH]O>>[P]O[CH]

MMP Level 2
1: [CH]C[S+](C)C[CH2]>>[CH]CSC[CH2]
2: [O]C([CH])N1C=N[C]=C1[NH]>>[O]C([CH])[N+]1=C[N][C]=C1[NH]
3: [CH2][S+]([CH2])C>>[C]N([CH])C
4: [CH]C([CH])O>>O=P(O)(O)OC([CH])[CH]

MMP Level 3
1: [O]C([CH])C[S+](C)CC[CH]>>[O]C([CH])CSCC[CH]
2: [C]Nc1c([C])ncn1C2O[CH][CH]C2O>>[C]Nc1c([C])n(c[n+]1C2O[CH][CH]C2O)C
3: [CH]C[S+](C)C[CH2]>>[C]C1=[C][N+]=CN1C
4: OC1[CH]OC([CH2])C1O>>O=P(O)(O)OC1C(O)[CH]OC1[CH2]


//
REACTION MMP (RPAIR)
1: R:M00001, P:M00003	[O=C(O)C(N)CC[S+](C)CC1OC(n2cnc3c(ncnc32)N)C(O)C1O>>O=C(O)C(N)CCSCC1OC(n2cnc3c(ncnc32)N)C(O)C1O]
2: R:M00001, P:M00004	[O=C(O)C(N)CC[S+](C)CC1OC(n2cnc3c(ncnc32)N)C(O)C1O>>O=c1nc(N)[nH]c2c1n(c[n+]2C3OC(COP(=O)(O)OP(=O)(O)OP(=O)(O)OCC4OC(n5cnc6c(ncnc65)N)C(O)C4OP(=O)(O)OCC7OC(n8ccc(nc8=O)N)C(O)C7OP(=O)(O)OCC9OC(n%10ccc(nc%10=O)N)C(O)C9OP(=O)(O)OCC%11OC(n%12ccc(nc%12=O)N)C(O)C%11OP(=O)(O)O)C(O)C3O)C]
3: R:M00002, P:M00004	[O=c1nc(N)[nH]c2c1ncn2C3OC(COP(=O)(O)OP(=O)(O)OP(=O)(O)OCC4OC(n5cnc6c(ncnc65)N)C(O)C4OP(=O)(O)OCC7OC(n8ccc(nc8=O)N)C(O)C7OP(=O)(O)OCC9OC(n%10ccc(nc%10=O)N)C(O)C9OP(=O)(O)OCC%11OC(n%12ccc(nc%12=O)N)C(O)C%11O)C(O)C3O>>O=c1nc(N)[nH]c2c1n(c[n+]2C3OC(COP(=O)(O)OP(=O)(O)OP(=O)(O)OCC4OC(n5cnc6c(ncnc65)N)C(O)C4OP(=O)(O)OCC7OC(n8ccc(nc8=O)N)C(O)C7OP(=O)(O)OCC9OC(n%10ccc(nc%10=O)N)C(O)C9OP(=O)(O)OCC%11OC(n%12ccc(nc%12=O)N)C(O)C%11OP(=O)(O)O)C(O)C3O)C, O=c1nc(N)[nH]c2c1ncn2C3OC(COP(=O)(O)OP(=O)(O)OP(=O)(O)OCC4OC(n5cnc6c(ncnc65)N)C(O)C4OP(=O)(O)OCC7OC(n8ccc(nc8=O)N)C(O)C7OP(=O)(O)OCC9OC(n%10ccc(nc%10=O)N)C(O)C9OP(=O)(O)OCC%11OC(n%12ccc(nc%12=O)N)C(O)C%11O)C(O)C3O>>O=c1nc(N)[nH]c2c1n(c[n+]2C3OC(COP(=O)(O)OP(=O)(O)OP(=O)(O)OCC4OC(n5cnc6c(ncnc65)N)C(O)C4OP(=O)(O)OCC7OC(n8ccc(nc8=O)N)C(O)C7OP(=O)(O)OCC9OC(n%10ccc(nc%10=O)N)C(O)C9OP(=O)(O)OCC%11OC(n%12ccc(nc%12=O)N)C(O)C%11OP(=O)(O)O)C(O)C3O)C]


//
SELECTED AAM MAPPING
[O:111]=[C:112]([OH:113])[CH:114]([NH2:115])[CH2:116][CH2:117][S+:118]([CH3:119])[CH2:120][CH:121]1[O:122][CH:123]([N:124]:2:[CH:125]:[N:126]:[C:127]:3:[C:128](:[N:129]:[CH:130]:[N:131]:[C:132]32)[NH2:133])[CH:134]([OH:135])[CH:136]1[OH:137].[O:1]=[C:2]1[N:3]=[C:4]([NH2:5])[NH:6][C:7]:2:[C:8]1:[N:9]:[CH:10]:[N:11]2[CH:12]3[O:13][CH:14]([CH2:15][O:16][P:17](=[O:18])([OH:19])[O:20][P:21](=[O:22])([OH:23])[O:24][P:25](=[O:26])([OH:27])[O:28][CH2:29][CH:30]4[O:31][CH:32]([N:33]:5:[CH:34]:[N:35]:[C:36]:6:[C:37](:[N:38]:[CH:39]:[N:40]:[C:41]65)[NH2:42])[CH:43]([OH:44])[CH:45]4[O:46][P:47](=[O:48])([OH:49])[O:50][CH2:51][CH:52]7[O:53][CH:54]([N:55]8[CH:56]=[CH:57][C:58](=[N:59][C:60]8=[O:61])[NH2:62])[CH:63]([OH:64])[CH:65]7[O:66][P:67](=[O:68])([OH:69])[O:70][CH2:71][CH:72]9[O:73][CH:74]([N:75]%10[CH:76]=[CH:77][C:78](=[N:79][C:80]%10=[O:81])[NH2:82])[CH:83]([OH:84])[CH:85]9[O:86][P:87](=[O:88])([OH:89])[O:90][CH2:91][CH:92]%11[O:93][CH:94]([N:95]%12[CH:96]=[CH:97][C:98](=[N:99][C:100]%12=[O:101])[NH2:102])[CH:103]([OH:104])[CH:105]%11[OH:106])[CH:107]([OH:108])[CH:109]3[OH:110]>>[O:111]=[C:112]([OH:113])[CH:114]([NH2:115])[CH2:116][CH2:117][S:118][CH2:120][CH:121]1[O:122][CH:123]([N:124]:2:[CH:125]:[N:126]:[C:127]:3:[C:128](:[N:129]:[CH:130]:[N:131]:[C:132]32)[NH2:133])[CH:134]([OH:135])[CH:136]1[OH:137].[O:1]=[C:2]1[N:3]=[C:4]([NH2:5])[NH:6][C:7]:2:[C:8]1:[N:9](:[CH:10]:[N+:11]2[CH:12]3[O:13][CH:14]([CH2:15][O:16][P:17](=[O:18])([OH:19])[O:20][P:21](=[O:22])([OH:23])[O:24][P:25](=[O:26])([OH:27])[O:28][CH2:29][CH:30]4[O:31][CH:32]([N:33]:5:[CH:34]:[N:35]:[C:36]:6:[C:37](:[N:38]:[CH:39]:[N:40]:[C:41]65)[NH2:42])[CH:43]([OH:44])[CH:45]4[O:46][P:47](=[O:48])([OH:49])[O:50][CH2:51][CH:52]7[O:53][CH:54]([N:55]8[CH:56]=[CH:57][C:58](=[N:59][C:60]8=[O:61])[NH2:62])[CH:63]([OH:64])[CH:65]7[O:66][P:67](=[O:68])([OH:69])[O:70][CH2:71][CH:72]9[O:73][CH:74]([N:75]%10[CH:76]=[CH:77][C:78](=[N:79][C:80]%10=[O:81])[NH2:82])[CH:83]([OH:84])[CH:85]9[O:86][P:87](=[O:88])([OH:89])[O:90][CH2:91][CH:92]%11[O:93][CH:94]([N:95]%12[CH:96]=[CH:97][C:98](=[N:99][C:100]%12=[O:101])[NH2:102])[CH:103]([OH:104])[CH:105]%11[O:106][P:138](=[O:139])([OH:140])[OH:141])[CH:107]([OH:108])[CH:109]3[OH:110])[CH3:119]


//
REACTANT INPUT ATOM INDEX<->AAM ID
{1=119, 2=118, 3=117, 4=116, 5=114, 6=112, 7=111, 8=113, 9=115, 10=120, 11=121, 12=136, 13=134, 14=123, 15=122, 16=124, 17=125, 18=126, 19=127, 20=132, 21=131, 22=130, 23=129, 24=128, 25=133, 26=135, 27=137, 28=97, 29=96, 30=95, 31=100, 32=101, 33=99, 34=98, 35=102, 36=94, 37=103, 38=105, 39=92, 40=93, 41=91, 42=90, 43=87, 44=88, 45=89, 46=86, 47=85, 48=72, 49=73, 50=74, 51=83, 52=84, 53=75, 54=76, 55=77, 56=78, 57=79, 58=80, 59=81, 60=82, 61=71, 62=70, 63=67, 64=68, 65=69, 66=66, 67=65, 68=52, 69=53, 70=54, 71=63, 72=64, 73=55, 74=56, 75=57, 76=58, 77=59, 78=60, 79=61, 80=62, 81=51, 82=50, 83=47, 84=48, 85=49, 86=46, 87=45, 88=30, 89=31, 90=32, 91=43, 92=44, 93=33, 94=34, 95=35, 96=36, 97=41, 98=40, 99=39, 100=38, 101=37, 102=42, 103=29, 104=28, 105=25, 106=26, 107=27, 108=24, 109=21, 110=22, 111=23, 112=20, 113=17, 114=18, 115=19, 116=16, 117=15, 118=14, 119=107, 120=109, 121=12, 122=13, 123=11, 124=10, 125=9, 126=8, 127=7, 128=6, 129=4, 130=3, 131=2, 132=1, 133=5, 134=110, 135=108, 136=106, 137=104}
PRODUCT INPUT ATOM INDEX<->AAM ID
{1=134, 2=135, 3=136, 4=131, 5=132, 6=133, 7=137, 8=130, 9=129, 10=128, 11=127, 12=138, 13=140, 14=125, 15=126, 16=124, 17=123, 18=122, 19=121, 20=119, 21=117, 22=116, 23=118, 24=120, 25=141, 26=139, 27=115, 28=9, 29=10, 30=11, 31=7, 32=8, 33=2, 34=1, 35=3, 36=4, 37=6, 38=5, 39=12, 40=113, 41=111, 42=14, 43=13, 44=15, 45=16, 46=17, 47=18, 48=19, 49=20, 50=21, 51=22, 52=23, 53=24, 54=25, 55=26, 56=27, 57=28, 58=29, 59=30, 60=45, 61=43, 62=32, 63=31, 64=33, 65=34, 66=35, 67=36, 68=41, 69=40, 70=39, 71=38, 72=37, 73=42, 74=44, 75=46, 76=47, 77=48, 78=49, 79=50, 80=51, 81=52, 82=65, 83=63, 84=54, 85=53, 86=55, 87=56, 88=57, 89=58, 90=59, 91=60, 92=61, 93=62, 94=64, 95=66, 96=67, 97=68, 98=69, 99=70, 100=71, 101=72, 102=85, 103=83, 104=74, 105=73, 106=75, 107=76, 108=77, 109=78, 110=79, 111=80, 112=81, 113=82, 114=84, 115=86, 116=87, 117=88, 118=89, 119=90, 120=91, 121=92, 122=105, 123=103, 124=94, 125=93, 126=95, 127=96, 128=97, 129=98, 130=99, 131=100, 132=101, 133=102, 134=104, 135=106, 136=107, 137=108, 138=109, 139=110, 140=112, 141=114}

