
//
FINGERPRINTS BC

FORMED_CLEAVED
[C-S:1.0]

//
FINGERPRINTS RC
[O=C(SCC[NH])C[CH2]>>[NH]CCS:1.0, O=C(SC[CH2])[CH2]:1.0, O=C(SC[CH2])[CH2]>>SC[CH2]:1.0, O=C(S[CH2])C[CH2]:1.0, O=C([S])[CH2]:1.0, SC[CH2]:1.0, S[CH2]:1.0, [C]:1.0, [C]S[CH2]:1.0, [C]S[CH2]>>S[CH2]:1.0, [SH]:1.0, [S]:1.0]

//
Reaction Centre Formed/Cleaved

ID=Reaction Center at Level: 0 (2)
[[C]:1.0, [S]:1.0]


ID=Reaction Center at Level: 1 (2)
[O=C([S])[CH2]:1.0, [C]S[CH2]:1.0]


ID=Reaction Center at Level: 2 (2)
[O=C(SC[CH2])[CH2]:1.0, O=C(S[CH2])C[CH2]:1.0]


Reaction Centre Order Changed

Reaction Centre Stereo Changes


//
TRANSFORMATIONS
MMP Level 1
1: [C]S[CH2]>>S[CH2]

MMP Level 2
1: O=C(SC[CH2])[CH2]>>SC[CH2]

MMP Level 3
1: O=C(SCC[NH])C[CH2]>>[NH]CCS


//
REACTION MMP (RPAIR)
1: R:M00001, P:M00003	[O=C(SCCNC(=O)CCNC(=O)C(O)C(C)(C)COP(=O)(O)OP(=O)(O)OCC1OC(n2cnc3c(ncnc32)N)C(O)C1OP(=O)(O)O)CCCCCCCCCCCCCCCCC>>O=C(NCCS)CCNC(=O)C(O)C(C)(C)COP(=O)(O)OP(=O)(O)OCC1OC(n2cnc3c(ncnc32)N)C(O)C1OP(=O)(O)O]


//
SELECTED AAM MAPPING
[O:49]=[C:50]([S:1][CH2:2][CH2:3][NH:4][C:5](=[O:6])[CH2:7][CH2:8][NH:9][C:10](=[O:11])[CH:12]([OH:13])[C:14]([CH3:15])([CH3:16])[CH2:17][O:18][P:19](=[O:20])([OH:21])[O:22][P:23](=[O:24])([OH:25])[O:26][CH2:27][CH:28]1[O:29][CH:30]([N:31]:2:[CH:32]:[N:33]:[C:34]:3:[C:35](:[N:36]:[CH:37]:[N:38]:[C:39]32)[NH2:40])[CH:41]([OH:42])[CH:43]1[O:44][P:45](=[O:46])([OH:47])[OH:48])[CH2:51][CH2:52][CH2:53][CH2:54][CH2:55][CH2:56][CH2:57][CH2:58][CH2:59][CH2:60][CH2:61][CH2:62][CH2:63][CH2:64][CH2:65][CH2:66][CH3:67].[OH:68][C:69]:1:[CH:70]:[CH:71]:[C:72](:[CH:73]:[CH:74]1)[CH:75]([OH:76])[CH2:77][NH2:78]>>[O:6]=[C:5]([NH:4][CH2:3][CH2:2][SH:1])[CH2:7][CH2:8][NH:9][C:10](=[O:11])[CH:12]([OH:13])[C:14]([CH3:15])([CH3:16])[CH2:17][O:18][P:19](=[O:20])([OH:21])[O:22][P:23](=[O:24])([OH:25])[O:26][CH2:27][CH:28]1[O:29][CH:30]([N:31]:2:[CH:32]:[N:33]:[C:34]:3:[C:35](:[N:36]:[CH:37]:[N:38]:[C:39]32)[NH2:40])[CH:41]([OH:42])[CH:43]1[O:44][P:45](=[O:46])([OH:47])[OH:48]


//
REACTANT INPUT ATOM INDEX<->AAM ID
{1=67, 2=66, 3=65, 4=64, 5=63, 6=62, 7=61, 8=60, 9=59, 10=58, 11=57, 12=56, 13=55, 14=54, 15=53, 16=52, 17=51, 18=2, 19=1, 20=3, 21=4, 22=5, 23=6, 24=7, 25=8, 26=9, 27=10, 28=11, 29=12, 30=13, 31=14, 32=16, 33=17, 34=18, 35=19, 36=20, 37=21, 38=22, 39=23, 40=24, 41=25, 42=26, 43=27, 44=28, 45=29, 46=30, 47=45, 48=43, 49=32, 50=31, 51=33, 52=34, 53=35, 54=36, 55=41, 56=40, 57=39, 58=38, 59=37, 60=42, 61=44, 62=46, 63=47, 64=48, 65=49, 66=50, 67=15, 68=71, 69=70, 70=69, 71=74, 72=73, 73=72, 74=75, 75=77, 76=78, 77=76, 78=68}
PRODUCT INPUT ATOM INDEX<->AAM ID
{1=15, 2=14, 3=16, 4=17, 5=18, 6=19, 7=20, 8=21, 9=22, 10=23, 11=24, 12=25, 13=26, 14=27, 15=28, 16=43, 17=41, 18=30, 19=29, 20=31, 21=32, 22=33, 23=34, 24=39, 25=38, 26=37, 27=36, 28=35, 29=40, 30=42, 31=44, 32=45, 33=46, 34=47, 35=48, 36=12, 37=10, 38=11, 39=9, 40=8, 41=7, 42=2, 43=1, 44=3, 45=4, 46=5, 47=6, 48=13}

