
//
FINGERPRINTS BC

FORMED_CLEAVED
[C-O:1.0]

//
FINGERPRINTS RC
[[CH]C(O)=C(O)C(=[CH])O>>[CH]C(O)=C(OC)C(=[CH])O:1.0, [C]C(=[C])O:1.0, [C]C(=[C])O>>[C]C(=[C])OC:1.0, [C]C(=[C])OC:1.0, [C]O:1.0, [C]O>>[C]OC:1.0, [C]OC:1.0, [OH]:1.0, [O]:1.0]

//
Reaction Centre Formed/Cleaved

ID=Reaction Center at Level: 0 (2)
[[CH3]:1.0, [O]:1.0]


ID=Reaction Center at Level: 1 (2)
[[C]OC:1.0, [O]C:1.0]


ID=Reaction Center at Level: 2 (2)
[[C]C(=[C])OC:1.0, [C]OC:1.0]


Reaction Centre Order Changed

Reaction Centre Stereo Changes


//
TRANSFORMATIONS
MMP Level 1
1: [C]O>>[C]OC

MMP Level 2
1: [C]C(=[C])O>>[C]C(=[C])OC

MMP Level 3
1: [CH]C(O)=C(O)C(=[CH])O>>[CH]C(O)=C(OC)C(=[CH])O


//
REACTION MMP (RPAIR)
1: R:M00002, P:M00003	[O=C(OC1Cc2cc(O)cc(O)c2OC1c3ccc(OC)c(O)c3)c4cc(O)c(O)c(O)c4>>O=C(OC1Cc2cc(O)cc(O)c2OC1c3ccc(OC)c(O)c3)c4cc(O)c(OC)c(O)c4]


//
SELECTED AAM MAPPING
[O:34]=[C:35]([OH:36])[CH:37]([NH2:38])[CH2:39][CH2:40][S:41][CH2:42][CH:43]1[O:44][CH:45]([N:46]:2:[CH:47]:[N:48]:[C:49]:3:[C:50](:[N:51]:[CH:52]:[N:53]:[C:54]32)[NH2:55])[CH:56]([OH:57])[CH:58]1[OH:59].[O:1]=[C:2]([O:3][CH:4]1[CH2:5][C:6]:2:[CH:7]:[C:8]([OH:9]):[CH:10]:[C:11]([OH:12]):[C:13]2[O:14][CH:15]1[C:16]:3:[CH:17]:[CH:18]:[C:19]([O:20][CH3:21]):[C:22]([OH:23]):[CH:24]3)[C:25]:4:[CH:33]:[C:31]([OH:32]):[C:29]([OH:30]):[C:27]([OH:28]):[CH:26]4>>[O:34]=[C:35]([OH:36])[CH:37]([NH2:38])[CH2:39][CH2:40][S:41][CH2:42][CH:43]1[O:44][CH:45]([N:46]:2:[CH:47]:[N:48]:[C:49]:3:[C:50](:[N:51]:[CH:52]:[N:53]:[C:54]32)[NH2:55])[CH:56]([OH:57])[CH:58]1[OH:59].[O:1]=[C:2]([O:3][CH:4]1[CH2:5][C:6]:2:[CH:7]:[C:8]([OH:9]):[CH:10]:[C:11]([OH:12]):[C:13]2[O:14][CH:15]1[C:16]:3:[CH:17]:[CH:18]:[C:19]([O:20][CH3:21]):[C:22]([OH:23]):[CH:24]3)[C:25]:4:[CH:33]:[C:31]([OH:32]):[C:29]([O:30][CH3:60]):[C:27]([OH:28]):[CH:26]4


//
REACTANT INPUT ATOM INDEX<->AAM ID
{1=52, 2=53, 3=54, 4=49, 5=50, 6=51, 7=55, 8=48, 9=47, 10=46, 11=45, 12=56, 13=58, 14=43, 15=44, 16=42, 17=41, 18=40, 19=39, 20=37, 21=35, 22=34, 23=36, 24=38, 25=59, 26=57, 27=21, 28=20, 29=19, 30=22, 31=24, 32=16, 33=17, 34=18, 35=15, 36=4, 37=5, 38=6, 39=7, 40=8, 41=10, 42=11, 43=13, 44=14, 45=12, 46=9, 47=3, 48=2, 49=1, 50=25, 51=33, 52=31, 53=29, 54=27, 55=26, 56=28, 57=30, 58=32, 59=23}
PRODUCT INPUT ATOM INDEX<->AAM ID
{1=53, 2=54, 3=55, 4=50, 5=51, 6=52, 7=56, 8=49, 9=48, 10=47, 11=46, 12=57, 13=59, 14=44, 15=45, 16=43, 17=42, 18=41, 19=40, 20=38, 21=36, 22=35, 23=37, 24=39, 25=60, 26=58, 27=21, 28=20, 29=19, 30=22, 31=24, 32=16, 33=17, 34=18, 35=15, 36=4, 37=5, 38=6, 39=7, 40=8, 41=10, 42=11, 43=13, 44=14, 45=12, 46=9, 47=3, 48=2, 49=1, 50=25, 51=34, 52=32, 53=29, 54=27, 55=26, 56=28, 57=30, 58=31, 59=33, 60=23}

