,min,max,average
WP_106682632.1,-4.6,-4.2,-4.36
WP_012419633.1,-4.9,-4.4,-4.61
WP_015778901.1,-4.7,-4.3,-4.46
WP_011195555.1,-5.2,-4.8,-4.9399999999999995
WP_012294638.1,-4.7,-4.2,-4.32
WP_036126156.1,-4.2,-3.6,-3.8
WP_077274948.1,-4.5,-3.7,-4.07
WP_085426500.1,-5.0,-4.4,-4.69
WP_041701842.1,-3.8,-2.3,-3.0
WP_011640360.1,-4.8,-4.2,-4.47
WP_011015254.1,-4.7,-4.4,-4.5
