,min,max,average
I3BN39,-6.6,-6.0,-6.22
A0A078LMN5,-7.1,-6.8,-7.0
A6WLE9,-6.5,-6.1,-6.22
B4RUL1,-7.2,-6.6,-6.76
Q3IHM8,-6.0,-4.5,-5.1
Q15RG1,-5.6,-1.7,-2.8333333333333335
E8LIC0,-7.0,-6.8,-6.890000000000001
Q3J7P0,-6.6,-5.4,-5.83
D3RNP0,-6.4,-5.7,-6.04
L0E1U3,-6.2,-5.4,-5.63
C8NA81,5.0,9.0,7.1499999999999995
G3ISL7,24.9,27.4,26.15
Q606Y5,-6.9,-6.4,-6.54
A0A1D3PCI9,-7.3,-6.4,-6.720000000000001
C7C8V4,-6.7,-5.4,-5.67
A0A1D3PCJ5,-7.1,-6.8,-6.91
G4RES5,-7.0,-6.7,-6.84
Q3J205,-4.4,-1.3,-2.6
Q0BX37,-6.1,-5.7,-5.83
Q5LSN6,-7.5,-6.7,-7.07
Q2GAJ2,-6.3,-5.8,-5.97
K9CLW2,-6.2,-5.8,-6.0
Q3SM51,6.9,10.8,8.58
Q814M3,0.7,3.3,1.7333333333333334
A0A1D3PDD4,-4.3,-0.5,-2.29
A0A0D8BWP6,-4.5,-1.1,-2.925
A0A1D3PCK2,-7.4,-6.5,-6.72
Q03V79,-6.8,-6.4,-6.57
A5N8M0,-4.2,-1.8,-3.19
E2NPN0,-6.4,-5.3,-5.79
E3H7X6,-4.3,-0.5,-1.8714285714285714
E3HDJ8,-6.4,-6.0,-6.2
A1A3D2,-6.9,-6.0,-6.29
A5IIQ2,-6.6,-6.2,-6.39
Q5LHS7,-3.6,-0.2,-1.9000000000000001
A6LC32,-6.1,-5.7,-5.91
M0HJP0,-6.2,-5.8,-5.98
M0GQW6,-6.9,-6.5,-6.67
M4YMP0,-6.7,-6.2,-6.44
R9T6W8,-3.4,-0.3,-1.81
M9SGV8,-6.8,-6.3,-6.49
