,min,max,average
I3BN39,-7.5,-7.2,-7.25
A0A078LMN5,-7.0,-6.6,-6.79
A6WLE9,-6.5,-6.0,-6.16
B4RUL1,-6.8,-6.4,-6.56
Q3IHM8,-5.5,-1.9,-3.811111111111111
Q15RG1,-3.8,-1.5,-2.433333333333333
E8LIC0,-6.4,-5.9,-6.11
Q3J7P0,-6.3,-5.3,-5.64
D3RNP0,-6.0,-4.5,-5.26
L0E1U3,-5.9,-5.3,-5.5
C8NA81,7.2,10.6,8.9125
G3ISL7,37.5,41.5,38.88
Q606Y5,-7.6,-7.3,-7.42
A0A1D3PCI9,-7.2,-6.4,-6.67
C7C8V4,-7.3,-6.5,-6.85
A0A1D3PCJ5,-7.2,-6.7,-6.91
G4RES5,-7.0,-6.5,-6.62
Q3J205,-4.5,-0.8,-1.925
Q0BX37,-5.9,-5.4,-5.67
Q5LSN6,-7.5,-7.2,-7.31
Q2GAJ2,-6.8,-6.5,-6.64
K9CLW2,-8.0,-7.5,-7.67
Q3SM51,10.0,14.0,12.416666666666666
Q814M3,1.9,4.7,3.2666666666666666
A0A1D3PDD4,-4.0,-0.7,-2.4
A0A0D8BWP6,-4.1,-0.4,-1.625
A0A1D3PCK2,-6.5,-6.3,-6.45
Q03V79,-6.5,-6.0,-6.25
A5N8M0,-2.5,0.7,-1.2333333333333334
E2NPN0,-6.4,-5.6,-5.91
E3H7X6,-2.4,1.6,0.27142857142857146
E3HDJ8,-5.9,-5.5,-5.67
A1A3D2,-6.4,-6.1,-6.24
A5IIQ2,-6.1,-5.9,-6.0
Q5LHS7,-1.2,2.3,0.6666666666666666
A6LC32,-6.4,-6.2,-6.29
M0HJP0,-6.4,-6.2,-6.29
M0GQW6,-7.2,-6.5,-6.74
M4YMP0,-7.3,-6.7,-6.95
R9T6W8,-2.3,1.7,-0.8166666666666667
M9SGV8,-6.9,-6.1,-6.32
