
//
FINGERPRINTS BC

FORMED_CLEAVED
[C-O:1.0, C-S:1.0, O-P:2.0]

//
FINGERPRINTS RC
[O=C(O)C[CH2]:1.0, O=C(O)[CH2]:2.0, O=C(SCC[NH])C[CH2]>>[NH]CCS:1.0, O=C(SC[CH2])[CH2]:1.0, O=C(SC[CH2])[CH2]>>SC[CH2]:1.0, O=C(S[CH2])C[CH2]:1.0, O=C(S[CH2])C[CH2]>>O=C(O)C[CH2]:1.0, O=C([S])[CH2]:1.0, O=C([S])[CH2]>>O=C(O)[CH2]:1.0, O=P(O)(O)O:3.0, O=P(O)(O)O>>O=C(O)C[CH2]:1.0, O=P(O)(O)O>>O=C(O)[CH2]:1.0, O=P(O)(O)O>>O=P(O)(O)O[P]:1.0, O=P(O)(O)O>>[O]P(=O)(O)O:1.0, O=P(O)(O)O>>[O]P(=O)(O)OP(=O)(O)O:1.0, O=P(O)(O)O[P]:1.0, O=P(O)(O)O[P]>>O=P(O)(O)OP(=O)(O)O[P]:1.0, SC[CH2]:1.0, S[CH2]:1.0, [C]:2.0, [C]CCC(=O)SC[CH2]>>[C]CCC(=O)O:1.0, [C]O:1.0, [C]S[CH2]:1.0, [C]S[CH2]>>S[CH2]:1.0, [OH]:3.0, [O]:1.0, [O]P(=O)(O)O:2.0, [O]P(=O)(O)O>>[O]P(=O)(O)OP(=O)(O)O:1.0, [O]P(=O)(O)OP(=O)(O)O:1.0, [P]:2.0, [P]O:2.0, [P]O>>[C]O:1.0, [P]O>>[P]O[P]:1.0, [P]O[P]:1.0, [SH]:1.0, [S]:1.0]

//
Reaction Centre Formed/Cleaved

ID=Reaction Center at Level: 0 (5)
[[C]:2.0, [OH]:2.0, [O]:1.0, [P]:2.0, [S]:1.0]


ID=Reaction Center at Level: 1 (8)
[O=C(O)[CH2]:1.0, O=C([S])[CH2]:1.0, O=P(O)(O)O:1.0, [C]O:1.0, [C]S[CH2]:1.0, [O]P(=O)(O)O:1.0, [P]O:1.0, [P]O[P]:1.0]


ID=Reaction Center at Level: 2 (7)
[O=C(O)C[CH2]:1.0, O=C(O)[CH2]:1.0, O=C(SC[CH2])[CH2]:1.0, O=C(S[CH2])C[CH2]:1.0, O=P(O)(O)O:2.0, O=P(O)(O)O[P]:1.0, [O]P(=O)(O)OP(=O)(O)O:1.0]


Reaction Centre Order Changed

Reaction Centre Stereo Changes


//
TRANSFORMATIONS
MMP Level 1
1: [P]O>>[C]O
2: O=P(O)(O)O>>[O]P(=O)(O)O
3: [P]O>>[P]O[P]
4: [C]S[CH2]>>S[CH2]
5: O=C([S])[CH2]>>O=C(O)[CH2]

MMP Level 2
1: O=P(O)(O)O>>O=C(O)[CH2]
2: O=P(O)(O)O>>O=P(O)(O)O[P]
3: [O]P(=O)(O)O>>[O]P(=O)(O)OP(=O)(O)O
4: O=C(SC[CH2])[CH2]>>SC[CH2]
5: O=C(S[CH2])C[CH2]>>O=C(O)C[CH2]

MMP Level 3
1: O=P(O)(O)O>>O=C(O)C[CH2]
2: O=P(O)(O)O>>[O]P(=O)(O)OP(=O)(O)O
3: O=P(O)(O)O[P]>>O=P(O)(O)OP(=O)(O)O[P]
4: O=C(SCC[NH])C[CH2]>>[NH]CCS
5: [C]CCC(=O)SC[CH2]>>[C]CCC(=O)O


//
REACTION MMP (RPAIR)
1: R:M00001, P:M00004	[O=P(O)(O)OP(=O)(O)OCC1OC(n2cnc3c(ncnc32)N)C(O)C1O>>O=P(O)(O)OP(=O)(O)OP(=O)(O)OCC1OC(n2cnc3c(ncnc32)N)C(O)C1O]
2: R:M00002, P:M00004	[O=P(O)(O)O>>O=P(O)(O)OP(=O)(O)OP(=O)(O)OCC1OC(n2cnc3c(ncnc32)N)C(O)C1O]
3: R:M00002, P:M00005	[O=P(O)(O)O>>O=C(O)CCC(=O)O]
4: R:M00003, P:M00005	[O=C(O)CCC(=O)SCCNC(=O)CCNC(=O)C(O)C(C)(C)COP(=O)(O)OP(=O)(O)OCC1OC(n2cnc3c(ncnc32)N)C(O)C1OP(=O)(O)O>>O=C(O)CCC(=O)O]
5: R:M00003, P:M00006	[O=C(O)CCC(=O)SCCNC(=O)CCNC(=O)C(O)C(C)(C)COP(=O)(O)OP(=O)(O)OCC1OC(n2cnc3c(ncnc32)N)C(O)C1OP(=O)(O)O>>O=C(NCCS)CCNC(=O)C(O)C(C)(C)COP(=O)(O)OP(=O)(O)OCC1OC(n2cnc3c(ncnc32)N)C(O)C1OP(=O)(O)O]


//
SELECTED AAM MAPPING
[O:1]=[C:2]([OH:3])[CH2:4][CH2:5][C:6](=[O:7])[S:8][CH2:9][CH2:10][NH:11][C:12](=[O:13])[CH2:14][CH2:15][NH:16][C:17](=[O:18])[CH:19]([OH:20])[C:21]([CH3:22])([CH3:23])[CH2:24][O:25][P:26](=[O:27])([OH:28])[O:29][P:30](=[O:31])([OH:32])[O:33][CH2:34][CH:35]1[O:36][CH:37]([N:38]:2:[CH:39]:[N:40]:[C:41]:3:[C:42](:[N:43]:[CH:44]:[N:45]:[C:46]32)[NH2:47])[CH:48]([OH:49])[CH:50]1[O:51][P:52](=[O:53])([OH:54])[OH:55].[O:83]=[P:84]([OH:85])([OH:86])[OH:87].[O:56]=[P:57]([OH:58])([OH:59])[O:60][P:61](=[O:62])([OH:63])[O:64][CH2:65][CH:66]1[O:67][CH:68]([N:69]:2:[CH:70]:[N:71]:[C:72]:3:[C:73](:[N:74]:[CH:75]:[N:76]:[C:77]32)[NH2:78])[CH:79]([OH:80])[CH:81]1[OH:82]>>[O:1]=[C:2]([OH:3])[CH2:4][CH2:5][C:6](=[O:7])[OH:87].[O:13]=[C:12]([NH:11][CH2:10][CH2:9][SH:8])[CH2:14][CH2:15][NH:16][C:17](=[O:18])[CH:19]([OH:20])[C:21]([CH3:22])([CH3:23])[CH2:24][O:25][P:26](=[O:27])([OH:28])[O:29][P:30](=[O:31])([OH:32])[O:33][CH2:34][CH:35]1[O:36][CH:37]([N:38]:2:[CH:39]:[N:40]:[C:41]:3:[C:42](:[N:43]:[CH:44]:[N:45]:[C:46]32)[NH2:47])[CH:48]([OH:49])[CH:50]1[O:51][P:52](=[O:53])([OH:54])[OH:55].[O:83]=[P:84]([OH:85])([OH:86])[O:58][P:57](=[O:56])([OH:59])[O:60][P:61](=[O:62])([OH:63])[O:64][CH2:65][CH:66]1[O:67][CH:68]([N:69]:2:[CH:70]:[N:71]:[C:72]:3:[C:73](:[N:74]:[CH:75]:[N:76]:[C:77]32)[NH2:78])[CH:79]([OH:80])[CH:81]1[OH:82]


//
REACTANT INPUT ATOM INDEX<->AAM ID
{1=75, 2=76, 3=77, 4=72, 5=73, 6=74, 7=78, 8=71, 9=70, 10=69, 11=68, 12=79, 13=81, 14=66, 15=67, 16=65, 17=64, 18=61, 19=62, 20=63, 21=60, 22=57, 23=56, 24=58, 25=59, 26=82, 27=80, 28=85, 29=84, 30=83, 31=86, 32=87, 33=22, 34=21, 35=23, 36=24, 37=25, 38=26, 39=27, 40=28, 41=29, 42=30, 43=31, 44=32, 45=33, 46=34, 47=35, 48=50, 49=48, 50=37, 51=36, 52=38, 53=39, 54=40, 55=41, 56=46, 57=45, 58=44, 59=43, 60=42, 61=47, 62=49, 63=51, 64=52, 65=53, 66=54, 67=55, 68=19, 69=17, 70=18, 71=16, 72=15, 73=14, 74=12, 75=13, 76=11, 77=10, 78=9, 79=8, 80=6, 81=7, 82=5, 83=4, 84=2, 85=1, 86=3, 87=20}
PRODUCT INPUT ATOM INDEX<->AAM ID
{1=72, 2=73, 3=74, 4=69, 5=70, 6=71, 7=75, 8=68, 9=67, 10=66, 11=65, 12=76, 13=78, 14=63, 15=64, 16=62, 17=61, 18=58, 19=59, 20=60, 21=57, 22=54, 23=55, 24=56, 25=53, 26=50, 27=49, 28=51, 29=52, 30=79, 31=77, 32=84, 33=83, 34=81, 35=80, 36=82, 37=85, 38=86, 39=87, 40=15, 41=14, 42=16, 43=17, 44=18, 45=19, 46=20, 47=21, 48=22, 49=23, 50=24, 51=25, 52=26, 53=27, 54=28, 55=43, 56=41, 57=30, 58=29, 59=31, 60=32, 61=33, 62=34, 63=39, 64=38, 65=37, 66=36, 67=35, 68=40, 69=42, 70=44, 71=45, 72=46, 73=47, 74=48, 75=12, 76=10, 77=11, 78=9, 79=8, 80=7, 81=2, 82=1, 83=3, 84=4, 85=5, 86=6, 87=13}

