
//
FINGERPRINTS BC

FORMED_CLEAVED
[C%N:2.0, C-O:1.0]

ORDER_CHANGED
[C%N*C%N:1.0]

STEREO_CHANGED
[C(R/S):2.0]

//
FINGERPRINTS RC
[[CH2]:2.0, [CH]:2.0, [CH]C(=[CH])N1C[N][CH]C1:1.0, [CH]C(=[CH])N1C[N][CH]C1>>[C]CNC([CH])=[CH]:1.0, [CH]C([CH])O:1.0, [CH]C[CH]:1.0, [CH]C[CH]>>[CH]C([CH])O:1.0, [C]:1.0, [C]C(=[C])N1C[N]CC1[CH2]:1.0, [C]C(=[C])N1C[N]CC1[CH2]>>[C]C(=[C])N=C([CH2])[CH2]:1.0, [C]C(=[C])N=C([CH2])[CH2]:1.0, [C]C1=[C]NCC2N1CN([C])C2>>[C]NCC1=NC([C])=[C]NC1:1.0, [C]CNC([CH])=[CH]:1.0, [C]N([CH2])[CH2]:1.0, [C]N([CH2])[CH2]>>[C]N[CH2]:1.0, [C]N([CH])C1OC([CH2])C(O)C1>>[C]N([CH])C1OC([CH2])C(O)C1O:1.0, [C]N([CH])[CH2]:1.0, [C]N([CH])[CH2]>>[C]N=[C]:1.0, [C]N1CN(C(=C[CH])C=[CH])CC1[CH2]>>[N]=C([CH2])CNC(=C[CH])C=[CH]:1.0, [C]N1CN2C(=C([NH])NCC2C1)C([N])=O>>[N]C(=O)C=1N=C(CNC1[NH])C[NH]:1.0, [C]N1C[N]CC1C[NH]:1.0, [C]N1C[N]CC1C[NH]>>[C]N=C(C[NH])C[NH]:1.0, [C]N1[CH]CN([C])C1:1.0, [C]N=C(C[NH])C[NH]:1.0, [C]N=[C]:1.0, [C]N[CH2]:1.0, [NH]:1.0, [N]:3.0, [N]=C([CH2])[CH2]:1.0, [N]C([CH2])[CH2]:1.0, [N]C([CH2])[CH2]>>[N]=C([CH2])[CH2]:1.0, [N]C1O[CH]C(O)C1:1.0, [N]C1O[CH]C(O)C1>>[N]C1O[CH]C(O)C1O:1.0, [N]C1O[CH]C(O)C1O:1.0, [N]C[N]:1.0]

//
Reaction Centre Formed/Cleaved

ID=Reaction Center at Level: 0 (4)
[[CH2]:2.0, [CH]:1.0, [N]:2.0, [OH]:1.0]


ID=Reaction Center at Level: 1 (5)
[[CH]C([CH])O:1.0, [CH]O:1.0, [C]N([CH2])[CH2]:1.0, [C]N([CH])[CH2]:1.0, [N]C[N]:2.0]


ID=Reaction Center at Level: 2 (5)
[[CH]C(=[CH])N1C[N][CH]C1:1.0, [CH]C([CH])O:1.0, [C]C(=[C])N1C[N]CC1[CH2]:1.0, [C]N1[CH]CN([C])C1:2.0, [N]C1O[CH]C(O)C1O:1.0]


Reaction Centre Order Changed

ID=Reaction Center at Level: 0 (3)
[[CH]:1.0, [C]:1.0, [N]:2.0]


ID=Reaction Center at Level: 1 (4)
[[C]N([CH])[CH2]:1.0, [C]N=[C]:1.0, [N]=C([CH2])[CH2]:1.0, [N]C([CH2])[CH2]:1.0]


ID=Reaction Center at Level: 2 (4)
[[C]C(=[C])N1C[N]CC1[CH2]:1.0, [C]C(=[C])N=C([CH2])[CH2]:1.0, [C]N1C[N]CC1C[NH]:1.0, [C]N=C(C[NH])C[NH]:1.0]


Reaction Centre Stereo Changes

ID=Reaction Center at Level: 0 (3)
[[CH2]:1.0, [CH]:2.0, [C]:1.0]


ID=Reaction Center at Level: 1 (4)
[[CH]C([CH])O:1.0, [CH]C[CH]:1.0, [N]=C([CH2])[CH2]:1.0, [N]C([CH2])[CH2]:1.0]


ID=Reaction Center at Level: 2 (4)
[[C]N1C[N]CC1C[NH]:1.0, [C]N=C(C[NH])C[NH]:1.0, [N]C1O[CH]C(O)C1:1.0, [N]C1O[CH]C(O)C1O:1.0]



//
TRANSFORMATIONS
MMP Level 1
1: [CH]C[CH]>>[CH]C([CH])O
2: [N]C([CH2])[CH2]>>[N]=C([CH2])[CH2]
3: [C]N([CH2])[CH2]>>[C]N[CH2]
4: [C]N([CH])[CH2]>>[C]N=[C]

MMP Level 2
1: [N]C1O[CH]C(O)C1>>[N]C1O[CH]C(O)C1O
2: [C]N1C[N]CC1C[NH]>>[C]N=C(C[NH])C[NH]
3: [CH]C(=[CH])N1C[N][CH]C1>>[C]CNC([CH])=[CH]
4: [C]C(=[C])N1C[N]CC1[CH2]>>[C]C(=[C])N=C([CH2])[CH2]

MMP Level 3
1: [C]N([CH])C1OC([CH2])C(O)C1>>[C]N([CH])C1OC([CH2])C(O)C1O
2: [C]C1=[C]NCC2N1CN([C])C2>>[C]NCC1=NC([C])=[C]NC1
3: [C]N1CN(C(=C[CH])C=[CH])CC1[CH2]>>[N]=C([CH2])CNC(=C[CH])C=[CH]
4: [C]N1CN2C(=C([NH])NCC2C1)C([N])=O>>[N]C(=O)C=1N=C(CNC1[NH])C[NH]


//
REACTION MMP (RPAIR)
1: R:M00001, P:M00003	[O=c1nc(N)[nH]c2NCC3N(c12)CN(c4ccc(cc4)C(=O)NC(C(=O)O)CCC(=O)O)C3>>O=c1nc(N)[nH]c2NCC(=Nc12)CNc3ccc(cc3)C(=O)NC(C(=O)O)CCC(=O)O, O=c1nc(N)[nH]c2NCC3N(c12)CN(c4ccc(cc4)C(=O)NC(C(=O)O)CCC(=O)O)C3>>O=c1nc(N)[nH]c2NCC(=Nc12)CNc3ccc(cc3)C(=O)NC(C(=O)O)CCC(=O)O, O=c1nc(N)[nH]c2NCC3N(c12)CN(c4ccc(cc4)C(=O)NC(C(=O)O)CCC(=O)O)C3>>O=c1nc(N)[nH]c2NCC(=Nc12)CNc3ccc(cc3)C(=O)NC(C(=O)O)CCC(=O)O]
2: R:M00002, P:M00004	[O=c1nc(N)ccn1C2OC(COP(=O)(O)O)C(O)C2>>O=c1nc(N)ccn1C2OC(COP(=O)(O)O)C(O)C2O]


//
SELECTED AAM MAPPING
[O:30]=[C:29]([OH:31])[CH2:28][CH2:27][CH:23]([NH:22][C:20](=[O:21])[C:17]:1:[CH:16]:[CH:15]:[C:14](:[CH:19]:[CH:18]1)[N:13]2[CH2:53][N:11]3[C:12]=4[C:2](=[O:1])[N:3]=[C:4]([NH2:5])[NH:6][C:7]4[NH:8][CH2:9][CH:10]3[CH2:32]2)[C:24](=[O:25])[OH:26].[O:33]=[C:34]1[N:35]=[C:36]([NH2:37])[CH:38]=[CH:39][N:40]1[CH:41]2[O:42][CH:43]([CH2:44][O:45][P:46](=[O:47])([OH:48])[OH:49])[CH:50]([OH:51])[CH2:52]2>>[O:30]=[C:29]([OH:31])[CH2:28][CH2:27][CH:23]([NH:22][C:20](=[O:21])[C:17]:1:[CH:16]:[CH:15]:[C:14](:[CH:19]:[CH:18]1)[NH:13][CH2:32][C:10]2=[N:11][C:12]=3[C:2](=[O:1])[N:3]=[C:4]([NH2:5])[NH:6][C:7]3[NH:8][CH2:9]2)[C:24](=[O:25])[OH:26].[O:33]=[C:34]1[N:35]=[C:36]([NH2:37])[CH:38]=[CH:39][N:40]1[CH:41]2[O:42][CH:43]([CH2:44][O:45][P:46](=[O:47])([OH:48])[OH:49])[CH:50]([OH:51])[CH:52]2[OH:54]


//
REACTANT INPUT ATOM INDEX<->AAM ID
{1=9, 2=10, 3=33, 4=14, 5=13, 6=11, 7=12, 8=7, 9=8, 10=6, 11=4, 12=3, 13=2, 14=1, 15=5, 16=15, 17=16, 18=17, 19=18, 20=19, 21=20, 22=21, 23=22, 24=23, 25=24, 26=28, 27=29, 28=30, 29=31, 30=32, 31=25, 32=26, 33=27, 34=53, 35=51, 36=44, 37=43, 38=42, 39=41, 40=40, 41=39, 42=37, 43=36, 44=35, 45=34, 46=38, 47=45, 48=46, 49=47, 50=48, 51=49, 52=50, 53=52}
PRODUCT INPUT ATOM INDEX<->AAM ID
{1=9, 2=10, 3=11, 4=12, 5=7, 6=8, 7=6, 8=4, 9=3, 10=2, 11=1, 12=5, 13=13, 14=14, 15=15, 16=16, 17=17, 18=18, 19=19, 20=20, 21=21, 22=22, 23=23, 24=24, 25=28, 26=29, 27=30, 28=31, 29=32, 30=25, 31=26, 32=27, 33=38, 34=39, 35=40, 36=34, 37=33, 38=35, 39=36, 40=37, 41=41, 42=52, 43=50, 44=43, 45=42, 46=44, 47=45, 48=46, 49=47, 50=48, 51=49, 52=51, 53=53}

