
//
FINGERPRINTS BC

FORMED_CLEAVED
[C-C:1.0, C-O:1.0, O-P:2.0]

//
FINGERPRINTS RC
[O=C(O)[CH2]:1.0, O=C(S[CH2])C>>O=C(O)CC(=O)S[CH2]:1.0, O=C([S])C:1.0, O=C([S])C>>O=C([S])CC(=O)O:1.0, O=C([S])CC(=O)O:1.0, O=P(O)(O)O:3.0, O=P(O)(O)OP(=O)(O)O[P]>>O=P(O)(O)O[P]:1.0, O=P(O)(O)O[P]:1.0, O=P(O)(O)O[P]>>O=P(O)(O)O:1.0, [CH2]:1.0, [CH3]:1.0, [C]:2.0, [C]C:1.0, [C]C>>[C]C[C]:1.0, [C]CC(=O)O:1.0, [C]C[C]:1.0, [C][O-]:1.0, [C][O-]>>[P]O:1.0, [O-]:1.0, [O-]C(=O)O:3.0, [O-]C(=O)O>>O=C(O)[CH2]:1.0, [O-]C(=O)O>>O=C([S])CC(=O)O:1.0, [O-]C(=O)O>>O=P(O)(O)O:2.0, [O-]C(=O)O>>[C]CC(=O)O:1.0, [OH]:2.0, [O]:1.0, [O]P(=O)(O)O:2.0, [O]P(=O)(O)O>>O=P(O)(O)O:1.0, [O]P(=O)(O)OP(=O)(O)O:1.0, [O]P(=O)(O)OP(=O)(O)O>>O=P(O)(O)O:1.0, [O]P(=O)(O)OP(=O)(O)O>>[O]P(=O)(O)O:1.0, [P]:2.0, [P]O:2.0, [P]O[P]:1.0, [P]O[P]>>[P]O:1.0]

//
Reaction Centre Formed/Cleaved

ID=Reaction Center at Level: 0 (6)
[[CH2]:1.0, [C]:2.0, [O-]:1.0, [OH]:1.0, [O]:1.0, [P]:2.0]


ID=Reaction Center at Level: 1 (8)
[O=C(O)[CH2]:1.0, O=P(O)(O)O:1.0, [C]C[C]:1.0, [C][O-]:1.0, [O-]C(=O)O:1.0, [O]P(=O)(O)O:1.0, [P]O:1.0, [P]O[P]:1.0]


ID=Reaction Center at Level: 2 (6)
[O=C([S])CC(=O)O:1.0, O=P(O)(O)O:2.0, O=P(O)(O)O[P]:1.0, [C]CC(=O)O:1.0, [O-]C(=O)O:2.0, [O]P(=O)(O)OP(=O)(O)O:1.0]


Reaction Centre Order Changed

Reaction Centre Stereo Changes


//
TRANSFORMATIONS
MMP Level 1
1: [C]C>>[C]C[C]
2: [P]O[P]>>[P]O
3: [O]P(=O)(O)O>>O=P(O)(O)O
4: [C][O-]>>[P]O
5: [O-]C(=O)O>>O=C(O)[CH2]

MMP Level 2
1: O=C([S])C>>O=C([S])CC(=O)O
2: [O]P(=O)(O)OP(=O)(O)O>>[O]P(=O)(O)O
3: O=P(O)(O)O[P]>>O=P(O)(O)O
4: [O-]C(=O)O>>O=P(O)(O)O
5: [O-]C(=O)O>>[C]CC(=O)O

MMP Level 3
1: O=C(S[CH2])C>>O=C(O)CC(=O)S[CH2]
2: O=P(O)(O)OP(=O)(O)O[P]>>O=P(O)(O)O[P]
3: [O]P(=O)(O)OP(=O)(O)O>>O=P(O)(O)O
4: [O-]C(=O)O>>O=P(O)(O)O
5: [O-]C(=O)O>>O=C([S])CC(=O)O


//
REACTION MMP (RPAIR)
1: R:M00001, P:M00004	[O=P(O)(O)OP(=O)(O)OP(=O)(O)OCC1OC(n2cnc3c(ncnc32)N)C(O)C1O>>O=P(O)(O)OP(=O)(O)OCC1OC(n2cnc3c(ncnc32)N)C(O)C1O]
2: R:M00001, P:M00006	[O=P(O)(O)OP(=O)(O)OP(=O)(O)OCC1OC(n2cnc3c(ncnc32)N)C(O)C1O>>O=P(O)(O)O]
3: R:M00002, P:M00005	[O=C(SCCNC(=O)CCNC(=O)C(O)C(C)(C)COP(=O)(O)OP(=O)(O)OCC1OC(n2cnc3c(ncnc32)N)C(O)C1OP(=O)(O)O)C>>O=C(O)CC(=O)SCCNC(=O)CCNC(=O)C(O)C(C)(C)COP(=O)(O)OP(=O)(O)OCC1OC(n2cnc3c(ncnc32)N)C(O)C1OP(=O)(O)O]
4: R:M00003, P:M00005	[[O-]C(=O)O>>O=C(O)CC(=O)SCCNC(=O)CCNC(=O)C(O)C(C)(C)COP(=O)(O)OP(=O)(O)OCC1OC(n2cnc3c(ncnc32)N)C(O)C1OP(=O)(O)O]
5: R:M00003, P:M00006	[[O-]C(=O)O>>O=P(O)(O)O]


//
SELECTED AAM MAPPING
[O:83]=[C:84]([O-:85])[OH:86].[O:1]=[C:2]([S:3][CH2:4][CH2:5][NH:6][C:7](=[O:8])[CH2:9][CH2:10][NH:11][C:12](=[O:13])[CH:14]([OH:15])[C:16]([CH3:17])([CH3:18])[CH2:19][O:20][P:21](=[O:22])([OH:23])[O:24][P:25](=[O:26])([OH:27])[O:28][CH2:29][CH:30]1[O:31][CH:32]([N:33]:2:[CH:34]:[N:35]:[C:36]:3:[C:37](:[N:38]:[CH:39]:[N:40]:[C:41]32)[NH2:42])[CH:43]([OH:44])[CH:45]1[O:46][P:47](=[O:48])([OH:49])[OH:50])[CH3:51].[O:52]=[P:53]([OH:54])([OH:55])[O:56][P:57](=[O:58])([OH:59])[O:60][P:61](=[O:62])([OH:63])[O:64][CH2:65][CH:66]1[O:67][CH:68]([N:69]:2:[CH:70]:[N:71]:[C:72]:3:[C:73](:[N:74]:[CH:75]:[N:76]:[C:77]32)[NH2:78])[CH:79]([OH:80])[CH:81]1[OH:82]>>[O:83]=[C:84]([OH:86])[CH2:51][C:2](=[O:1])[S:3][CH2:4][CH2:5][NH:6][C:7](=[O:8])[CH2:9][CH2:10][NH:11][C:12](=[O:13])[CH:14]([OH:15])[C:16]([CH3:17])([CH3:18])[CH2:19][O:20][P:21](=[O:22])([OH:23])[O:24][P:25](=[O:26])([OH:27])[O:28][CH2:29][CH:30]1[O:31][CH:32]([N:33]:2:[CH:34]:[N:35]:[C:36]:3:[C:37](:[N:38]:[CH:39]:[N:40]:[C:41]32)[NH2:42])[CH:43]([OH:44])[CH:45]1[O:46][P:47](=[O:48])([OH:49])[OH:50].[O:52]=[P:53]([OH:54])([OH:55])[OH:85].[O:58]=[P:57]([OH:56])([OH:59])[O:60][P:61](=[O:62])([OH:63])[O:64][CH2:65][CH:66]1[O:67][CH:68]([N:69]:2:[CH:70]:[N:71]:[C:72]:3:[C:73](:[N:74]:[CH:75]:[N:76]:[C:77]32)[NH2:78])[CH:79]([OH:80])[CH:81]1[OH:82]


//
REACTANT INPUT ATOM INDEX<->AAM ID
{1=75, 2=76, 3=77, 4=72, 5=73, 6=74, 7=78, 8=71, 9=70, 10=69, 11=68, 12=79, 13=81, 14=66, 15=67, 16=65, 17=64, 18=61, 19=62, 20=63, 21=60, 22=57, 23=58, 24=59, 25=56, 26=53, 27=52, 28=54, 29=55, 30=82, 31=80, 32=51, 33=2, 34=1, 35=3, 36=4, 37=5, 38=6, 39=7, 40=8, 41=9, 42=10, 43=11, 44=12, 45=13, 46=14, 47=16, 48=17, 49=18, 50=19, 51=20, 52=21, 53=22, 54=23, 55=24, 56=25, 57=26, 58=27, 59=28, 60=29, 61=30, 62=45, 63=43, 64=32, 65=31, 66=33, 67=34, 68=35, 69=36, 70=41, 71=40, 72=39, 73=38, 74=37, 75=42, 76=44, 77=46, 78=47, 79=48, 80=49, 81=50, 82=15, 83=84, 84=83, 85=86, 86=85}
PRODUCT INPUT ATOM INDEX<->AAM ID
{1=74, 2=75, 3=76, 4=71, 5=72, 6=73, 7=77, 8=70, 9=69, 10=68, 11=67, 12=78, 13=80, 14=65, 15=66, 16=64, 17=63, 18=60, 19=61, 20=62, 21=59, 22=56, 23=55, 24=57, 25=58, 26=81, 27=79, 28=21, 29=20, 30=22, 31=23, 32=24, 33=25, 34=26, 35=27, 36=28, 37=29, 38=30, 39=31, 40=32, 41=33, 42=34, 43=49, 44=47, 45=36, 46=35, 47=37, 48=38, 49=39, 50=40, 51=45, 52=44, 53=43, 54=42, 55=41, 56=46, 57=48, 58=50, 59=51, 60=52, 61=53, 62=54, 63=18, 64=16, 65=17, 66=15, 67=14, 68=13, 69=11, 70=12, 71=10, 72=9, 73=8, 74=7, 75=5, 76=6, 77=4, 78=2, 79=1, 80=3, 81=19, 82=84, 83=83, 84=82, 85=85, 86=86}

