
//
FINGERPRINTS BC

FORMED_CLEAVED
[C-O:2.0]

//
FINGERPRINTS RC
[[CH]:2.0, [CH]O:1.0, [CH]O>>[CH]O[CH]:1.0, [CH]O[CH]:1.0, [C]C([CH])O:1.0, [C]C([CH])O>>[C]C([CH])OC([O])[CH2]:1.0, [C]C([CH])OC([O])[CH2]:1.0, [C]C([NH])C(O)C([CH])=[CH]>>[C]CC(O[CH])OC(C([CH])=[CH])C([C])[NH]:1.0, [C]CC(O[CH])OP(=O)(O)O[P]>>O=P(O)(O)O[P]:1.0, [C]CC(O[CH])O[CH]:1.0, [C]CC(O[P])O[CH]:1.0, [C]CC(O[P])O[CH]>>[C]CC(O[CH])O[CH]:1.0, [OH]:2.0, [O]:2.0, [O]C(OP([O])(=O)O)[CH2]:1.0, [O]C(OP([O])(=O)O)[CH2]>>[O]P(=O)(O)O:1.0, [O]C([O])[CH2]:2.0, [O]C([O])[CH2]>>[O]C([O])[CH2]:1.0, [O]P(=O)(O)O:1.0, [O]P(=O)(O)OC1OC([CH]C(N)(C)C1)C>>[C]C([CH])OC1OC([CH]C(N)(C)C1)C:1.0, [P]O:1.0, [P]O[CH]:1.0, [P]O[CH]>>[P]O:1.0]

//
Reaction Centre Formed/Cleaved

ID=Reaction Center at Level: 0 (2)
[[CH]:2.0, [O]:2.0]


ID=Reaction Center at Level: 1 (3)
[[CH]O[CH]:1.0, [O]C([O])[CH2]:2.0, [P]O[CH]:1.0]


ID=Reaction Center at Level: 2 (4)
[[C]C([CH])OC([O])[CH2]:1.0, [C]CC(O[CH])O[CH]:1.0, [C]CC(O[P])O[CH]:1.0, [O]C(OP([O])(=O)O)[CH2]:1.0]


Reaction Centre Order Changed

Reaction Centre Stereo Changes


//
TRANSFORMATIONS
MMP Level 1
1: [CH]O>>[CH]O[CH]
2: [P]O[CH]>>[P]O
3: [O]C([O])[CH2]>>[O]C([O])[CH2]

MMP Level 2
1: [C]C([CH])O>>[C]C([CH])OC([O])[CH2]
2: [O]C(OP([O])(=O)O)[CH2]>>[O]P(=O)(O)O
3: [C]CC(O[P])O[CH]>>[C]CC(O[CH])O[CH]

MMP Level 3
1: [C]C([NH])C(O)C([CH])=[CH]>>[C]CC(O[CH])OC(C([CH])=[CH])C([C])[NH]
2: [C]CC(O[CH])OP(=O)(O)O[P]>>O=P(O)(O)O[P]
3: [O]P(=O)(O)OC1OC([CH]C(N)(C)C1)C>>[C]C([CH])OC1OC([CH]C(N)(C)C1)C


//
REACTION MMP (RPAIR)
1: R:M00001, P:M00003	[O=c1[nH]c(=O)n(cc1C)C2OC(COP(=O)(O)OP(=O)(O)OC3OC(C)C(O)C(N)(C)C3)C(O)C2>>O=c1[nH]c(=O)n(cc1C)C2OC(COP(=O)(O)OP(=O)(O)O)C(O)C2]
2: R:M00001, P:M00004	[O=c1[nH]c(=O)n(cc1C)C2OC(COP(=O)(O)OP(=O)(O)OC3OC(C)C(O)C(N)(C)C3)C(O)C2>>O=C1NC2C(=O)NC(C(=O)NC(c3cc(O)cc(O)c3-c4cc2ccc4O)C(=O)O)C(OC5OC(C)C(O)C(N)(C)C5)c6ccc(Oc7cc8cc(Oc9ccc(cc9Cl)C(O)C(NC(=O)C(NC)CC(C)C)C(=O)NC(C(=O)NC18)CC(=O)N)c7OC%10OC(CO)C(O)C(O)C%10O)c(Cl)c6]
3: R:M00002, P:M00004	[O=C1NC2C(=O)NC(C(=O)NC(c3cc(O)cc(O)c3-c4cc2ccc4O)C(=O)O)C(O)c5ccc(Oc6cc7cc(Oc8ccc(cc8Cl)C(O)C(NC(=O)C(NC)CC(C)C)C(=O)NC(C(=O)NC17)CC(=O)N)c6OC9OC(CO)C(O)C(O)C9O)c(Cl)c5>>O=C1NC2C(=O)NC(C(=O)NC(c3cc(O)cc(O)c3-c4cc2ccc4O)C(=O)O)C(OC5OC(C)C(O)C(N)(C)C5)c6ccc(Oc7cc8cc(Oc9ccc(cc9Cl)C(O)C(NC(=O)C(NC)CC(C)C)C(=O)NC(C(=O)NC18)CC(=O)N)c7OC%10OC(CO)C(O)C(O)C%10O)c(Cl)c6]


//
SELECTED AAM MAPPING
[O:1]=[C:2]([OH:3])[CH:4]1[NH:5][C:6](=[O:7])[CH:8]2[NH:9][C:10](=[O:11])[CH:12]([NH:13][C:14](=[O:15])[CH:16]3[NH:17][C:18](=[O:19])[CH:20]([NH:21][C:22](=[O:23])[CH:24]([NH:25][C:26](=[O:27])[CH:28]([NH:29][CH3:30])[CH2:31][CH:32]([CH3:34])[CH3:33])[CH:35]([OH:36])[C:37]:4:[CH:38]:[CH:39]:[C:40]([O:41][C:42]:5:[CH:43]:[C:44]3:[CH:45]:[C:46]([O:47][C:48]:6:[CH:49]:[CH:50]:[C:51](:[CH:52]:[C:53]6[Cl:54])[CH:55]2[OH:56]):[C:57]5[O:58][CH:59]7[O:60][CH:61]([CH2:62][OH:63])[CH:64]([OH:65])[CH:66]([OH:67])[CH:68]7[OH:69]):[C:70]([Cl:71]):[CH:72]4)[CH2:73][C:74](=[O:75])[NH2:76])[C:77]:8:[CH:78]:[CH:79]:[C:80]([OH:81]):[C:82](:[CH:83]8)[C:84]:9:[C:85]([OH:86]):[CH:87]:[C:88]([OH:89]):[CH:90]:[C:91]91.[O:92]=[C:93]1[NH:94][C:95](=[O:96])[N:97]([CH:98]=[C:99]1[CH3:100])[CH:101]2[O:102][CH:103]([CH2:104][O:105][P:106](=[O:107])([OH:108])[O:109][P:110](=[O:111])([OH:112])[O:113][CH:114]3[O:115][CH:116]([CH3:117])[CH:118]([OH:119])[C:120]([NH2:121])([CH3:122])[CH2:123]3)[CH:124]([OH:125])[CH2:126]2>>[O:1]=[C:2]([OH:3])[CH:4]1[NH:5][C:6](=[O:7])[CH:8]2[NH:9][C:10](=[O:11])[CH:12]([NH:13][C:14](=[O:15])[CH:16]3[NH:17][C:18](=[O:19])[CH:20]([NH:21][C:22](=[O:23])[CH:24]([NH:25][C:26](=[O:27])[CH:28]([NH:29][CH3:30])[CH2:31][CH:32]([CH3:34])[CH3:33])[CH:35]([OH:36])[C:37]:4:[CH:38]:[CH:39]:[C:40]([O:41][C:42]:5:[CH:43]:[C:44]3:[CH:45]:[C:46]([O:47][C:48]:6:[CH:49]:[CH:50]:[C:51](:[CH:52]:[C:53]6[Cl:54])[CH:55]2[O:56][CH:114]7[O:115][CH:116]([CH3:117])[CH:118]([OH:119])[C:120]([NH2:121])([CH3:122])[CH2:123]7):[C:57]5[O:58][CH:59]8[O:60][CH:61]([CH2:62][OH:63])[CH:64]([OH:65])[CH:66]([OH:67])[CH:68]8[OH:69]):[C:70]([Cl:71]):[CH:72]4)[CH2:73][C:74](=[O:75])[NH2:76])[C:77]:9:[CH:78]:[CH:79]:[C:80]([OH:81]):[C:82](:[CH:83]9)[C:84]:%10:[C:85]([OH:86]):[CH:87]:[C:88]([OH:89]):[CH:90]:[C:91]%101.[O:92]=[C:93]1[NH:94][C:95](=[O:96])[N:97]([CH:98]=[C:99]1[CH3:100])[CH:101]2[O:102][CH:103]([CH2:104][O:105][P:106](=[O:107])([OH:108])[O:109][P:110](=[O:111])([OH:112])[OH:113])[CH:124]([OH:125])[CH2:126]2


//
REACTANT INPUT ATOM INDEX<->AAM ID
{1=117, 2=116, 3=118, 4=120, 5=123, 6=114, 7=115, 8=113, 9=110, 10=111, 11=112, 12=109, 13=106, 14=107, 15=108, 16=105, 17=104, 18=103, 19=124, 20=126, 21=101, 22=102, 23=97, 24=98, 25=99, 26=93, 27=92, 28=94, 29=95, 30=96, 31=100, 32=125, 33=122, 34=121, 35=119, 36=33, 37=32, 38=34, 39=31, 40=28, 41=26, 42=27, 43=25, 44=24, 45=35, 46=37, 47=72, 48=70, 49=40, 50=39, 51=38, 52=41, 53=42, 54=43, 55=44, 56=45, 57=46, 58=57, 59=58, 60=59, 61=68, 62=66, 63=64, 64=61, 65=60, 66=62, 67=63, 68=65, 69=67, 70=69, 71=47, 72=48, 73=53, 74=52, 75=51, 76=50, 77=49, 78=55, 79=8, 80=6, 81=7, 82=5, 83=4, 84=91, 85=90, 86=88, 87=87, 88=85, 89=84, 90=82, 91=80, 92=79, 93=78, 94=77, 95=83, 96=12, 97=10, 98=11, 99=9, 100=13, 101=14, 102=15, 103=16, 104=17, 105=18, 106=19, 107=20, 108=21, 109=22, 110=23, 111=73, 112=74, 113=75, 114=76, 115=81, 116=86, 117=89, 118=2, 119=1, 120=3, 121=56, 122=54, 123=71, 124=36, 125=29, 126=30}
PRODUCT INPUT ATOM INDEX<->AAM ID
{1=110, 2=109, 3=108, 4=107, 5=105, 6=106, 7=104, 8=103, 9=102, 10=111, 11=126, 12=124, 13=113, 14=112, 15=114, 16=115, 17=116, 18=117, 19=118, 20=119, 21=120, 22=121, 23=122, 24=123, 25=125, 26=60, 27=59, 28=61, 29=63, 30=66, 31=57, 32=58, 33=56, 34=55, 35=8, 36=6, 37=7, 38=5, 39=4, 40=101, 41=100, 42=98, 43=97, 44=95, 45=94, 46=92, 47=90, 48=89, 49=88, 50=87, 51=93, 52=12, 53=10, 54=11, 55=9, 56=13, 57=14, 58=15, 59=16, 60=44, 61=45, 62=46, 63=67, 64=42, 65=43, 66=41, 67=40, 68=80, 69=82, 70=37, 71=38, 72=39, 73=35, 74=24, 75=22, 76=23, 77=21, 78=20, 79=18, 80=19, 81=17, 82=83, 83=84, 84=85, 85=86, 86=25, 87=26, 88=27, 89=28, 90=31, 91=32, 92=34, 93=33, 94=29, 95=30, 96=36, 97=81, 98=68, 99=69, 100=78, 101=76, 102=74, 103=71, 104=70, 105=72, 106=73, 107=75, 108=77, 109=79, 110=47, 111=48, 112=53, 113=52, 114=51, 115=50, 116=49, 117=54, 118=91, 119=96, 120=99, 121=2, 122=1, 123=3, 124=65, 125=64, 126=62}

