
//
FINGERPRINTS BC

FORMED_CLEAVED
[C-O:1.0, C-S:1.0, O-P:2.0]

//
FINGERPRINTS RC
[O=C(O)C(=C[CH])C=[CH]>>O=C(SC[CH2])C(=C[CH])C=[CH]:1.0, O=C(O)C([CH])=[CH]:1.0, O=C(O)C([CH])=[CH]>>O=C(S[CH2])C([CH])=[CH]:1.0, O=C(O)C([CH])=[CH]>>O=P(O)(O)O[P]:1.0, O=C(S[CH2])C([CH])=[CH]:1.0, O=P(O)(O)O[P]:1.0, O=P(O)(O[P])OP(=O)(O)O[CH2]>>O=P(O)(O)O[CH2]:1.0, O=P(O)(O[P])O[P]:1.0, O=P(O)(O[P])O[P]>>O=P(O)(O)O[P]:1.0, SC[CH2]:1.0, SC[CH2]>>[C]C(=O)SC[CH2]:1.0, S[CH2]:1.0, S[CH2]>>[C]S[CH2]:1.0, [C]:2.0, [C]C(=O)O:2.0, [C]C(=O)O>>[C]C(=O)[S]:1.0, [C]C(=O)O>>[O]P(=O)(O)O:1.0, [C]C(=O)SC[CH2]:1.0, [C]C(=O)[S]:1.0, [C]O:1.0, [C]O>>[P]O:1.0, [C]S[CH2]:1.0, [NH]CCS>>O=C(SCC[NH])C([CH])=[CH]:1.0, [OH]:3.0, [O]:1.0, [O]P(=O)(O)O:3.0, [O]P(=O)(O)OP(=O)(O)OP(=O)(O)O>>O=P(O)(O)OP(=O)(O)O:1.0, [O]P(=O)(O)OP([O])(=O)O:1.0, [O]P(=O)(O)OP([O])(=O)O>>[O]P(=O)(O)O:1.0, [O]P([O])(=O)O:1.0, [O]P([O])(=O)O>>[O]P(=O)(O)O:1.0, [P]:2.0, [P]O:2.0, [P]O[P]:1.0, [P]O[P]>>[P]O:1.0, [SH]:1.0, [S]:1.0]

//
Reaction Centre Formed/Cleaved

ID=Reaction Center at Level: 0 (5)
[[C]:2.0, [OH]:2.0, [O]:1.0, [P]:2.0, [S]:1.0]


ID=Reaction Center at Level: 1 (8)
[[C]C(=O)O:1.0, [C]C(=O)[S]:1.0, [C]O:1.0, [C]S[CH2]:1.0, [O]P(=O)(O)O:1.0, [O]P([O])(=O)O:1.0, [P]O:1.0, [P]O[P]:1.0]


ID=Reaction Center at Level: 2 (8)
[O=C(O)C([CH])=[CH]:1.0, O=C(S[CH2])C([CH])=[CH]:1.0, O=P(O)(O)O[P]:1.0, O=P(O)(O[P])O[P]:1.0, [C]C(=O)O:1.0, [C]C(=O)SC[CH2]:1.0, [O]P(=O)(O)O:1.0, [O]P(=O)(O)OP([O])(=O)O:1.0]


Reaction Centre Order Changed

Reaction Centre Stereo Changes


//
TRANSFORMATIONS
MMP Level 1
1: [C]C(=O)O>>[C]C(=O)[S]
2: [O]P([O])(=O)O>>[O]P(=O)(O)O
3: [P]O[P]>>[P]O
4: [C]O>>[P]O
5: S[CH2]>>[C]S[CH2]

MMP Level 2
1: O=C(O)C([CH])=[CH]>>O=C(S[CH2])C([CH])=[CH]
2: O=P(O)(O[P])O[P]>>O=P(O)(O)O[P]
3: [O]P(=O)(O)OP([O])(=O)O>>[O]P(=O)(O)O
4: [C]C(=O)O>>[O]P(=O)(O)O
5: SC[CH2]>>[C]C(=O)SC[CH2]

MMP Level 3
1: O=C(O)C(=C[CH])C=[CH]>>O=C(SC[CH2])C(=C[CH])C=[CH]
2: [O]P(=O)(O)OP(=O)(O)OP(=O)(O)O>>O=P(O)(O)OP(=O)(O)O
3: O=P(O)(O[P])OP(=O)(O)O[CH2]>>O=P(O)(O)O[CH2]
4: O=C(O)C([CH])=[CH]>>O=P(O)(O)O[P]
5: [NH]CCS>>O=C(SCC[NH])C([CH])=[CH]


//
REACTION MMP (RPAIR)
1: R:M00001, P:M00004	[O=C(O)c1ccc(Cl)cc1>>O=C(SCCNC(=O)CCNC(=O)C(O)C(C)(C)COP(=O)(O)OP(=O)(O)OCC1OC(n2cnc3c(ncnc32)N)C(O)C1OP(=O)(O)O)c4ccc(Cl)cc4]
2: R:M00001, P:M00006	[O=C(O)c1ccc(Cl)cc1>>O=P(O)(O)OP(=O)(O)O]
3: R:M00002, P:M00004	[O=C(NCCS)CCNC(=O)C(O)C(C)(C)COP(=O)(O)OP(=O)(O)OCC1OC(n2cnc3c(ncnc32)N)C(O)C1OP(=O)(O)O>>O=C(SCCNC(=O)CCNC(=O)C(O)C(C)(C)COP(=O)(O)OP(=O)(O)OCC1OC(n2cnc3c(ncnc32)N)C(O)C1OP(=O)(O)O)c4ccc(Cl)cc4]
4: R:M00003, P:M00005	[O=P(O)(O)OP(=O)(O)OP(=O)(O)OCC1OC(n2cnc3c(ncnc32)N)C(O)C1O>>O=P(O)(O)OCC1OC(n2cnc3c(ncnc32)N)C(O)C1O]
5: R:M00003, P:M00006	[O=P(O)(O)OP(=O)(O)OP(=O)(O)OCC1OC(n2cnc3c(ncnc32)N)C(O)C1O>>O=P(O)(O)OP(=O)(O)O]


//
SELECTED AAM MAPPING
[O:80]=[C:81]([OH:82])[C:83]:1:[CH:89]:[CH:88]:[C:86]([Cl:87]):[CH:85]:[CH:84]1.[O:1]=[C:2]([NH:3][CH2:4][CH2:5][SH:6])[CH2:7][CH2:8][NH:9][C:10](=[O:11])[CH:12]([OH:13])[C:14]([CH3:15])([CH3:16])[CH2:17][O:18][P:19](=[O:20])([OH:21])[O:22][P:23](=[O:24])([OH:25])[O:26][CH2:27][CH:28]1[O:29][CH:30]([N:31]:2:[CH:32]:[N:33]:[C:34]:3:[C:35](:[N:36]:[CH:37]:[N:38]:[C:39]32)[NH2:40])[CH:41]([OH:42])[CH:43]1[O:44][P:45](=[O:46])([OH:47])[OH:48].[O:49]=[P:50]([OH:51])([OH:52])[O:53][P:54](=[O:55])([OH:56])[O:57][P:58](=[O:59])([OH:60])[O:61][CH2:62][CH:63]1[O:64][CH:65]([N:66]:2:[CH:67]:[N:68]:[C:69]:3:[C:70](:[N:71]:[CH:72]:[N:73]:[C:74]32)[NH2:75])[CH:76]([OH:77])[CH:78]1[OH:79]>>[O:80]=[C:81]([S:6][CH2:5][CH2:4][NH:3][C:2](=[O:1])[CH2:7][CH2:8][NH:9][C:10](=[O:11])[CH:12]([OH:13])[C:14]([CH3:15])([CH3:16])[CH2:17][O:18][P:19](=[O:20])([OH:21])[O:22][P:23](=[O:24])([OH:25])[O:26][CH2:27][CH:28]1[O:29][CH:30]([N:31]:2:[CH:32]:[N:33]:[C:34]:3:[C:35](:[N:36]:[CH:37]:[N:38]:[C:39]32)[NH2:40])[CH:41]([OH:42])[CH:43]1[O:44][P:45](=[O:46])([OH:48])[OH:47])[C:83]:4:[CH:89]:[CH:88]:[C:86]([Cl:87]):[CH:85]:[CH:84]4.[O:59]=[P:58]([OH:57])([OH:60])[O:61][CH2:62][CH:63]1[O:64][CH:65]([N:66]:2:[CH:67]:[N:68]:[C:69]:3:[C:70](:[N:71]:[CH:72]:[N:73]:[C:74]32)[NH2:75])[CH:76]([OH:77])[CH:78]1[OH:79].[O:49]=[P:50]([OH:51])([OH:52])[O:53][P:54](=[O:55])([OH:56])[OH:82]


//
REACTANT INPUT ATOM INDEX<->AAM ID
{1=84, 2=85, 3=86, 4=88, 5=89, 6=83, 7=81, 8=80, 9=82, 10=87, 11=15, 12=14, 13=16, 14=17, 15=18, 16=19, 17=20, 18=21, 19=22, 20=23, 21=24, 22=25, 23=26, 24=27, 25=28, 26=43, 27=41, 28=30, 29=29, 30=31, 31=32, 32=33, 33=34, 34=39, 35=38, 36=37, 37=36, 38=35, 39=40, 40=42, 41=44, 42=45, 43=46, 44=47, 45=48, 46=12, 47=10, 48=11, 49=9, 50=8, 51=7, 52=2, 53=1, 54=3, 55=4, 56=5, 57=6, 58=13, 59=72, 60=73, 61=74, 62=69, 63=70, 64=71, 65=75, 66=68, 67=67, 68=66, 69=65, 70=76, 71=78, 72=63, 73=64, 74=62, 75=61, 76=58, 77=59, 78=60, 79=57, 80=54, 81=55, 82=56, 83=53, 84=50, 85=49, 86=51, 87=52, 88=79, 89=77}
PRODUCT INPUT ATOM INDEX<->AAM ID
{1=17, 2=16, 3=18, 4=19, 5=20, 6=21, 7=22, 8=23, 9=24, 10=25, 11=26, 12=27, 13=28, 14=29, 15=30, 16=45, 17=43, 18=32, 19=31, 20=33, 21=34, 22=35, 23=36, 24=41, 25=40, 26=39, 27=38, 28=37, 29=42, 30=44, 31=46, 32=47, 33=48, 34=49, 35=50, 36=14, 37=12, 38=13, 39=11, 40=10, 41=9, 42=7, 43=8, 44=6, 45=5, 46=4, 47=3, 48=2, 49=1, 50=51, 51=52, 52=53, 53=54, 54=56, 55=57, 56=55, 57=15, 58=73, 59=74, 60=75, 61=70, 62=71, 63=72, 64=76, 65=69, 66=68, 67=67, 68=66, 69=77, 70=79, 71=64, 72=65, 73=63, 74=62, 75=59, 76=58, 77=60, 78=61, 79=80, 80=78, 81=83, 82=82, 83=81, 84=84, 85=85, 86=86, 87=87, 88=88, 89=89}

