
//
FINGERPRINTS BC

FORMED_CLEAVED
[C-C:1.0, C-O:1.0, O-P:2.0]

STEREO_CHANGED
[C(R/S):1.0]

//
FINGERPRINTS RC
[O=C(S[CH2])CC>>O=C(O)C(C(=O)S[CH2])C:1.0, O=C([CH])O:1.0, O=C([S])C(C(=O)O)C:1.0, O=C([S])CC:1.0, O=C([S])CC>>O=C([S])C(C(=O)O)C:1.0, O=P(O)(O)O:3.0, O=P(O)(O)OP(=O)(O)O[P]>>O=P(O)(O)O[P]:1.0, O=P(O)(O)O[P]:1.0, O=P(O)(O)O[P]>>O=P(O)(O)O:1.0, [CH2]:1.0, [CH]:1.0, [C]:2.0, [C]C(C(=O)O)C:1.0, [C]C([C])C:1.0, [C]CC:1.0, [C]CC>>[C]C([C])C:1.0, [C][O-]:1.0, [C][O-]>>[P]O:1.0, [O-]:1.0, [O-]C(=O)O:3.0, [O-]C(=O)O>>O=C([CH])O:1.0, [O-]C(=O)O>>O=C([S])C(C(=O)O)C:1.0, [O-]C(=O)O>>O=P(O)(O)O:2.0, [O-]C(=O)O>>[C]C(C(=O)O)C:1.0, [OH]:2.0, [O]:1.0, [O]P(=O)(O)O:2.0, [O]P(=O)(O)O>>O=P(O)(O)O:1.0, [O]P(=O)(O)OP(=O)(O)O:1.0, [O]P(=O)(O)OP(=O)(O)O>>O=P(O)(O)O:1.0, [O]P(=O)(O)OP(=O)(O)O>>[O]P(=O)(O)O:1.0, [P]:2.0, [P]O:2.0, [P]O[P]:1.0, [P]O[P]>>[P]O:1.0]

//
Reaction Centre Formed/Cleaved

ID=Reaction Center at Level: 0 (6)
[[CH]:1.0, [C]:2.0, [O-]:1.0, [OH]:1.0, [O]:1.0, [P]:2.0]


ID=Reaction Center at Level: 1 (8)
[O=C([CH])O:1.0, O=P(O)(O)O:1.0, [C]C([C])C:1.0, [C][O-]:1.0, [O-]C(=O)O:1.0, [O]P(=O)(O)O:1.0, [P]O:1.0, [P]O[P]:1.0]


ID=Reaction Center at Level: 2 (6)
[O=C([S])C(C(=O)O)C:1.0, O=P(O)(O)O:2.0, O=P(O)(O)O[P]:1.0, [C]C(C(=O)O)C:1.0, [O-]C(=O)O:2.0, [O]P(=O)(O)OP(=O)(O)O:1.0]


Reaction Centre Order Changed

Reaction Centre Stereo Changes

ID=Reaction Center at Level: 0 (2)
[[CH2]:1.0, [CH]:1.0]


ID=Reaction Center at Level: 1 (2)
[[C]C([C])C:1.0, [C]CC:1.0]


ID=Reaction Center at Level: 2 (2)
[O=C([S])C(C(=O)O)C:1.0, O=C([S])CC:1.0]



//
TRANSFORMATIONS
MMP Level 1
1: [C][O-]>>[P]O
2: [C]CC>>[C]C([C])C
3: [P]O[P]>>[P]O
4: [O]P(=O)(O)O>>O=P(O)(O)O
5: [O-]C(=O)O>>O=C([CH])O

MMP Level 2
1: [O-]C(=O)O>>O=P(O)(O)O
2: O=C([S])CC>>O=C([S])C(C(=O)O)C
3: [O]P(=O)(O)OP(=O)(O)O>>[O]P(=O)(O)O
4: O=P(O)(O)O[P]>>O=P(O)(O)O
5: [O-]C(=O)O>>[C]C(C(=O)O)C

MMP Level 3
1: [O-]C(=O)O>>O=P(O)(O)O
2: O=C(S[CH2])CC>>O=C(O)C(C(=O)S[CH2])C
3: O=P(O)(O)OP(=O)(O)O[P]>>O=P(O)(O)O[P]
4: [O]P(=O)(O)OP(=O)(O)O>>O=P(O)(O)O
5: [O-]C(=O)O>>O=C([S])C(C(=O)O)C


//
REACTION MMP (RPAIR)
1: R:M00001, P:M00004	[O=P(O)(O)OP(=O)(O)OP(=O)(O)OCC1OC(n2cnc3c(ncnc32)N)C(O)C1O>>O=P(O)(O)OP(=O)(O)OCC1OC(n2cnc3c(ncnc32)N)C(O)C1O]
2: R:M00001, P:M00005	[O=P(O)(O)OP(=O)(O)OP(=O)(O)OCC1OC(n2cnc3c(ncnc32)N)C(O)C1O>>O=P(O)(O)O]
3: R:M00002, P:M00006	[O=C(SCCNC(=O)CCNC(=O)C(O)C(C)(C)COP(=O)(O)OP(=O)(O)OCC1OC(n2cnc3c(ncnc32)N)C(O)C1OP(=O)(O)O)CC>>O=C(O)C(C(=O)SCCNC(=O)CCNC(=O)C(O)C(C)(C)COP(=O)(O)OP(=O)(O)OCC1OC(n2cnc3c(ncnc32)N)C(O)C1OP(=O)(O)O)C]
4: R:M00003, P:M00005	[[O-]C(=O)O>>O=P(O)(O)O]
5: R:M00003, P:M00006	[[O-]C(=O)O>>O=C(O)C(C(=O)SCCNC(=O)CCNC(=O)C(O)C(C)(C)COP(=O)(O)OP(=O)(O)OCC1OC(n2cnc3c(ncnc32)N)C(O)C1OP(=O)(O)O)C]


//
SELECTED AAM MAPPING
[O:84]=[C:85]([O-:86])[OH:87].[O:1]=[C:2]([S:3][CH2:4][CH2:5][NH:6][C:7](=[O:8])[CH2:9][CH2:10][NH:11][C:12](=[O:13])[CH:14]([OH:15])[C:16]([CH3:17])([CH3:18])[CH2:19][O:20][P:21](=[O:22])([OH:23])[O:24][P:25](=[O:26])([OH:27])[O:28][CH2:29][CH:30]1[O:31][CH:32]([N:33]:2:[CH:34]:[N:35]:[C:36]:3:[C:37](:[N:38]:[CH:39]:[N:40]:[C:41]32)[NH2:42])[CH:43]([OH:44])[CH:45]1[O:46][P:47](=[O:48])([OH:49])[OH:50])[CH2:51][CH3:52].[O:53]=[P:54]([OH:55])([OH:56])[O:57][P:58](=[O:59])([OH:60])[O:61][P:62](=[O:63])([OH:64])[O:65][CH2:66][CH:67]1[O:68][CH:69]([N:70]:2:[CH:71]:[N:72]:[C:73]:3:[C:74](:[N:75]:[CH:76]:[N:77]:[C:78]32)[NH2:79])[CH:80]([OH:81])[CH:82]1[OH:83]>>[O:84]=[C:85]([OH:87])[CH:51]([C:2](=[O:1])[S:3][CH2:4][CH2:5][NH:6][C:7](=[O:8])[CH2:9][CH2:10][NH:11][C:12](=[O:13])[CH:14]([OH:15])[C:16]([CH3:17])([CH3:18])[CH2:19][O:20][P:21](=[O:22])([OH:23])[O:24][P:25](=[O:26])([OH:27])[O:28][CH2:29][CH:30]1[O:31][CH:32]([N:33]:2:[CH:34]:[N:35]:[C:36]:3:[C:37](:[N:38]:[CH:39]:[N:40]:[C:41]32)[NH2:42])[CH:43]([OH:44])[CH:45]1[O:46][P:47](=[O:48])([OH:49])[OH:50])[CH3:52].[O:53]=[P:54]([OH:55])([OH:56])[OH:86].[O:59]=[P:58]([OH:57])([OH:60])[O:61][P:62](=[O:63])([OH:64])[O:65][CH2:66][CH:67]1[O:68][CH:69]([N:70]:2:[CH:71]:[N:72]:[C:73]:3:[C:74](:[N:75]:[CH:76]:[N:77]:[C:78]32)[NH2:79])[CH:80]([OH:81])[CH:82]1[OH:83]


//
REACTANT INPUT ATOM INDEX<->AAM ID
{1=76, 2=77, 3=78, 4=73, 5=74, 6=75, 7=79, 8=72, 9=71, 10=70, 11=69, 12=80, 13=82, 14=67, 15=68, 16=66, 17=65, 18=62, 19=63, 20=64, 21=61, 22=58, 23=59, 24=60, 25=57, 26=54, 27=53, 28=55, 29=56, 30=83, 31=81, 32=52, 33=51, 34=2, 35=1, 36=3, 37=4, 38=5, 39=6, 40=7, 41=8, 42=9, 43=10, 44=11, 45=12, 46=13, 47=14, 48=16, 49=17, 50=18, 51=19, 52=20, 53=21, 54=22, 55=23, 56=24, 57=25, 58=26, 59=27, 60=28, 61=29, 62=30, 63=45, 64=43, 65=32, 66=31, 67=33, 68=34, 69=35, 70=36, 71=41, 72=40, 73=39, 74=38, 75=37, 76=42, 77=44, 78=46, 79=47, 80=48, 81=49, 82=50, 83=15, 84=85, 85=84, 86=87, 87=86}
PRODUCT INPUT ATOM INDEX<->AAM ID
{1=75, 2=76, 3=77, 4=72, 5=73, 6=74, 7=78, 8=71, 9=70, 10=69, 11=68, 12=79, 13=81, 14=66, 15=67, 16=65, 17=64, 18=61, 19=62, 20=63, 21=60, 22=57, 23=56, 24=58, 25=59, 26=82, 27=80, 28=85, 29=84, 30=83, 31=86, 32=87, 33=55, 34=4, 35=2, 36=1, 37=3, 38=5, 39=6, 40=7, 41=8, 42=9, 43=10, 44=11, 45=12, 46=13, 47=14, 48=15, 49=16, 50=17, 51=18, 52=20, 53=21, 54=22, 55=23, 56=24, 57=25, 58=26, 59=27, 60=28, 61=29, 62=30, 63=31, 64=32, 65=33, 66=34, 67=49, 68=47, 69=36, 70=35, 71=37, 72=38, 73=39, 74=40, 75=45, 76=44, 77=43, 78=42, 79=41, 80=46, 81=48, 82=50, 83=51, 84=52, 85=53, 86=54, 87=19}

