
//
FINGERPRINTS BC

ORDER_CHANGED
[C-O*C=O:1.0, O-O*O=O:1.0]

STEREO_CHANGED
[C(R/S):7.0]

//
FINGERPRINTS RC
[O=C(C)C1CCC([CH])C1(C)C[CH2]>>O=C(C)C1CCC([CH])C1(C)C[CH2]:1.0, O=C(C)C1CCC2C([CH2])[CH]CCC12C>>O=C(C)C1CCC2C([CH2])[CH]CCC12C:1.0, O=C(C)C1CC[CH]C1([CH2])C:2.0, O=C(C)C1CC[CH]C1([CH2])C>>O=C(C)C1CC[CH]C1([CH2])C:1.0, O=C([CH2])[CH2]:2.0, O=O:4.0, O=O>>OO:6.0, OC([CH2])[CH2]:2.0, OC([CH2])[CH2]>>O=C([CH2])[CH2]:2.0, OO:4.0, [CH]:9.0, [CH]=C1[C]CCC(O)C1>>O=C1CC(=[CH])[C]CC1:1.0, [CH]C([CH2])C(C(=[CH])[CH2])(C)C[CH2]:2.0, [CH]C([CH2])C(C(=[CH])[CH2])(C)C[CH2]>>[CH]C([CH2])C(C(=[CH])[CH2])(C)C[CH2]:1.0, [CH]C([CH2])C1CC[CH]C1([CH2])C:2.0, [CH]C([CH2])C1CC[CH]C1([CH2])C>>[CH]C([CH2])C1CC[CH]C1([CH2])C:1.0, [CH]C([CH])([CH2])C:2.0, [CH]C([CH])([CH2])C>>[CH]C([CH])([CH2])C:1.0, [CH]C([CH])[CH2]:2.0, [CH]C([CH])[CH2]>>[CH]C([CH])[CH2]:1.0, [CH]C1CC=C2C[CH]CCC2(C)C1C[CH2]>>[CH]C1CC=C2C[C]CCC2(C)C1C[CH2]:1.0, [CH]O:1.0, [CH]O>>[C]=O:1.0, [C]:5.0, [C]1=CCC2C(CCC3([CH]CCC23)C)C1([CH2])C>>[C]1=CCC2C(CCC3([CH]CCC23)C)C1([CH2])C:1.0, [C]1CCC2C(CC=C([CH2])C2(C)C[CH2])C1[CH2]>>[C]1CCC2C(CC=C([CH2])C2(C)C[CH2])C1[CH2]:1.0, [C]=O:1.0, [C]C([CH2])(C)C(C[CH2])C([CH])[CH2]:2.0, [C]C([CH2])(C)C(C[CH2])C([CH])[CH2]>>[C]C([CH2])(C)C(C[CH2])C([CH])[CH2]:1.0, [C]C([CH2])C(C[CH])C([C])[CH2]:2.0, [C]C([CH2])C(C[CH])C([C])[CH2]>>[C]C([CH2])C(C[CH])C([C])[CH2]:1.0, [C]C([CH])([CH2])C:2.0, [C]C([CH])([CH2])C>>[C]C([CH])([CH2])C:1.0, [C]C([CH])[CH2]:4.0, [C]C([CH])[CH2]>>[C]C([CH])[CH2]:2.0, [C]C([C])[CH2]:2.0, [C]C([C])[CH2]>>[C]C([C])[CH2]:1.0, [C]C1CCC([CH])C1(C)C[CH2]:2.0, [C]C1CCC([CH])C1(C)C[CH2]>>[C]C1CCC([CH])C1(C)C[CH2]:1.0, [C]C1CCC2(C)C([C])CCC2C1C[CH]>>[C]C1CCC2(C)C([C])CCC2C1C[CH]:1.0, [C]CC(=O)C[CH2]:1.0, [C]CC(O)C[CH2]:1.0, [C]CC(O)C[CH2]>>[C]CC(=O)C[CH2]:2.0, [OH]:3.0, [O]:3.0]

//
Reaction Centre Formed/Cleaved

Reaction Centre Order Changed

ID=Reaction Center at Level: 0 (4)
[[CH]:1.0, [C]:1.0, [OH]:3.0, [O]:3.0]


ID=Reaction Center at Level: 1 (6)
[O=C([CH2])[CH2]:1.0, O=O:2.0, OC([CH2])[CH2]:1.0, OO:2.0, [CH]O:1.0, [C]=O:1.0]


ID=Reaction Center at Level: 2 (6)
[O=C([CH2])[CH2]:1.0, O=O:2.0, OC([CH2])[CH2]:1.0, OO:2.0, [C]CC(=O)C[CH2]:1.0, [C]CC(O)C[CH2]:1.0]


Reaction Centre Stereo Changes

ID=Reaction Center at Level: 0 (2)
[[CH]:9.0, [C]:5.0]


ID=Reaction Center at Level: 1 (7)
[O=C([CH2])[CH2]:1.0, OC([CH2])[CH2]:1.0, [CH]C([CH])([CH2])C:2.0, [CH]C([CH])[CH2]:2.0, [C]C([CH])([CH2])C:2.0, [C]C([CH])[CH2]:4.0, [C]C([C])[CH2]:2.0]


ID=Reaction Center at Level: 2 (8)
[O=C(C)C1CC[CH]C1([CH2])C:2.0, [CH]C([CH2])C(C(=[CH])[CH2])(C)C[CH2]:2.0, [CH]C([CH2])C1CC[CH]C1([CH2])C:2.0, [C]C([CH2])(C)C(C[CH2])C([CH])[CH2]:2.0, [C]C([CH2])C(C[CH])C([C])[CH2]:2.0, [C]C1CCC([CH])C1(C)C[CH2]:2.0, [C]CC(=O)C[CH2]:1.0, [C]CC(O)C[CH2]:1.0]



//
TRANSFORMATIONS
MMP Level 1
1: O=O>>OO
2: [C]C([CH])([CH2])C>>[C]C([CH])([CH2])C
3: OC([CH2])[CH2]>>O=C([CH2])[CH2]
4: [CH]C([CH])[CH2]>>[CH]C([CH])[CH2]
5: [C]C([CH])[CH2]>>[C]C([CH])[CH2]
6: [C]C([C])[CH2]>>[C]C([C])[CH2]
7: [C]C([CH])[CH2]>>[C]C([CH])[CH2]
8: [CH]O>>[C]=O
9: [CH]C([CH])([CH2])C>>[CH]C([CH])([CH2])C

MMP Level 2
1: O=O>>OO
2: [CH]C([CH2])C(C(=[CH])[CH2])(C)C[CH2]>>[CH]C([CH2])C(C(=[CH])[CH2])(C)C[CH2]
3: [C]CC(O)C[CH2]>>[C]CC(=O)C[CH2]
4: [C]C([CH2])C(C[CH])C([C])[CH2]>>[C]C([CH2])C(C[CH])C([C])[CH2]
5: [C]C([CH2])(C)C(C[CH2])C([CH])[CH2]>>[C]C([CH2])(C)C(C[CH2])C([CH])[CH2]
6: O=C(C)C1CC[CH]C1([CH2])C>>O=C(C)C1CC[CH]C1([CH2])C
7: [CH]C([CH2])C1CC[CH]C1([CH2])C>>[CH]C([CH2])C1CC[CH]C1([CH2])C
8: OC([CH2])[CH2]>>O=C([CH2])[CH2]
9: [C]C1CCC([CH])C1(C)C[CH2]>>[C]C1CCC([CH])C1(C)C[CH2]

MMP Level 3
1: O=O>>OO
2: [CH]C1CC=C2C[CH]CCC2(C)C1C[CH2]>>[CH]C1CC=C2C[C]CCC2(C)C1C[CH2]
3: [CH]=C1[C]CCC(O)C1>>O=C1CC(=[CH])[C]CC1
4: [C]1=CCC2C(CCC3([CH]CCC23)C)C1([CH2])C>>[C]1=CCC2C(CCC3([CH]CCC23)C)C1([CH2])C
5: [C]1CCC2C(CC=C([CH2])C2(C)C[CH2])C1[CH2]>>[C]1CCC2C(CC=C([CH2])C2(C)C[CH2])C1[CH2]
6: O=C(C)C1CCC([CH])C1(C)C[CH2]>>O=C(C)C1CCC([CH])C1(C)C[CH2]
7: [C]C1CCC2(C)C([C])CCC2C1C[CH]>>[C]C1CCC2(C)C([C])CCC2C1C[CH]
8: [C]CC(O)C[CH2]>>[C]CC(=O)C[CH2]
9: O=C(C)C1CCC2C([CH2])[CH]CCC12C>>O=C(C)C1CCC2C([CH2])[CH]CCC12C


//
REACTION MMP (RPAIR)
1: R:M00001, P:M00003	[O=C(C)C1CCC2C3CC=C4CC(O)CCC4(C)C3CCC12C>>O=C1CC2=CCC3C(CCC4(C)C(C(=O)C)CCC34)C2(C)CC1, O=C(C)C1CCC2C3CC=C4CC(O)CCC4(C)C3CCC12C>>O=C1CC2=CCC3C(CCC4(C)C(C(=O)C)CCC34)C2(C)CC1, O=C(C)C1CCC2C3CC=C4CC(O)CCC4(C)C3CCC12C>>O=C1CC2=CCC3C(CCC4(C)C(C(=O)C)CCC34)C2(C)CC1, O=C(C)C1CCC2C3CC=C4CC(O)CCC4(C)C3CCC12C>>O=C1CC2=CCC3C(CCC4(C)C(C(=O)C)CCC34)C2(C)CC1, O=C(C)C1CCC2C3CC=C4CC(O)CCC4(C)C3CCC12C>>O=C1CC2=CCC3C(CCC4(C)C(C(=O)C)CCC34)C2(C)CC1, O=C(C)C1CCC2C3CC=C4CC(O)CCC4(C)C3CCC12C>>O=C1CC2=CCC3C(CCC4(C)C(C(=O)C)CCC34)C2(C)CC1, O=C(C)C1CCC2C3CC=C4CC(O)CCC4(C)C3CCC12C>>O=C1CC2=CCC3C(CCC4(C)C(C(=O)C)CCC34)C2(C)CC1, O=C(C)C1CCC2C3CC=C4CC(O)CCC4(C)C3CCC12C>>O=C1CC2=CCC3C(CCC4(C)C(C(=O)C)CCC34)C2(C)CC1]
2: R:M00002, P:M00004	[O=O>>OO]


//
SELECTED AAM MAPPING
[O:24]=[O:25].[O:1]=[C:2]([CH3:3])[CH:4]1[CH2:5][CH2:6][CH:7]2[CH:8]3[CH2:9][CH:10]=[C:11]4[CH2:12][CH:13]([OH:14])[CH2:15][CH2:16][C:17]4([CH3:18])[CH:19]3[CH2:20][CH2:21][C:22]12[CH3:23]>>[O:14]=[C:13]1[CH2:12][C:11]2=[CH:10][CH2:9][CH:8]3[CH:19]([CH2:20][CH2:21][C:22]4([CH3:23])[CH:4]([C:2](=[O:1])[CH3:3])[CH2:5][CH2:6][CH:7]34)[C:17]2([CH3:18])[CH2:16][CH2:15]1.[OH:24][OH:25]


//
REACTANT INPUT ATOM INDEX<->AAM ID
{1=3, 2=2, 3=1, 4=4, 5=5, 6=6, 7=7, 8=22, 9=21, 10=20, 11=19, 12=8, 13=9, 14=10, 15=11, 16=17, 17=16, 18=15, 19=13, 20=12, 21=14, 22=18, 23=23, 24=24, 25=25}
PRODUCT INPUT ATOM INDEX<->AAM ID
{1=16, 2=14, 3=15, 4=13, 5=17, 6=18, 7=19, 8=11, 9=10, 10=9, 11=8, 12=7, 13=6, 14=5, 15=4, 16=20, 17=22, 18=23, 19=2, 20=1, 21=3, 22=21, 23=12, 24=24, 25=25}

