
//
FINGERPRINTS BC

FORMED_CLEAVED
[C-O:2.0]

STEREO_CHANGED
[C(R/S):3.0]

//
FINGERPRINTS RC
[O:3.0, O>>[CH]C([CH])O:1.0, O>>[CH]O:1.0, O>>[O]C([CH2])C(O)C([CH])O:1.0, [CH]:8.0, [CH]C(O)C(O)C([CH])O:1.0, [CH]C([CH])O:4.0, [CH]C([CH])O>>[CH]C([CH])O:1.0, [CH]C([CH])OC1OC([CH2])[CH]C(O)C1O>>[CH]C([CH])OC1OC([CH2])[CH]C(O)C1O:2.0, [CH]O:2.0, [CH]OC(O[CH])C([CH])O:4.0, [CH]OC(O[CH])C([CH])O>>[CH]OC(O[CH])C([CH])O:2.0, [CH]O[CH]:1.0, [CH]O[CH]>>[CH]O:1.0, [OH]:2.0, [O]:1.0, [O]C([CH2])C(O)C([CH])O:1.0, [O]C([CH2])C(OC(O[CH])C([CH])O)C([CH])O>>[CH]OC(O)C([CH])O:1.0, [O]C([CH2])C(O[CH])C([CH])O:1.0, [O]C([CH2])C(O[CH])C([CH])O>>[O]C([CH2])C(O)C([CH])O:1.0, [O]C([CH])C(O)C([CH])O:1.0, [O]C([CH])C(O)C([CH])O>>[CH]C(O)C(O)C([CH])O:1.0, [O]C([CH])O:1.0, [O]C([CH])OC([CH])[CH]:1.0, [O]C([CH])OC([CH])[CH]>>[O]C([CH])O:1.0, [O]C([CH])OC1C(O)C(O)[CH]OC1CO>>OCC1O[CH]C(O)C(O)C1O:1.0, [O]C([CH])[CH]:1.0, [O]C([CH])[CH]>>[CH]C([CH])O:1.0, [O]C([O])[CH]:4.0, [O]C([O])[CH]>>[O]C([O])[CH]:2.0, [O]C1OC([CH2])C(O[CH])C(O)C1O>>[O]C1OC([CH2])C(O)C(O)C1O:1.0]

//
Reaction Centre Formed/Cleaved

ID=Reaction Center at Level: 0 (4)
[O:1.0, [CH]:2.0, [OH]:1.0, [O]:1.0]


ID=Reaction Center at Level: 1 (5)
[O:1.0, [CH]C([CH])O:1.0, [CH]O:1.0, [CH]O[CH]:1.0, [O]C([CH])[CH]:1.0]


ID=Reaction Center at Level: 2 (5)
[O:1.0, [CH]C([CH])O:1.0, [O]C([CH2])C(O)C([CH])O:1.0, [O]C([CH2])C(O[CH])C([CH])O:1.0, [O]C([CH])OC([CH])[CH]:1.0]


Reaction Centre Order Changed

Reaction Centre Stereo Changes

ID=Reaction Center at Level: 0 (1)
[[CH]:6.0]


ID=Reaction Center at Level: 1 (2)
[[CH]C([CH])O:2.0, [O]C([O])[CH]:4.0]


ID=Reaction Center at Level: 2 (3)
[[CH]C(O)C(O)C([CH])O:1.0, [CH]OC(O[CH])C([CH])O:4.0, [O]C([CH])C(O)C([CH])O:1.0]



//
TRANSFORMATIONS
MMP Level 1
1: [O]C([O])[CH]>>[O]C([O])[CH]
2: [O]C([O])[CH]>>[O]C([O])[CH]
3: [CH]O[CH]>>[CH]O
4: [O]C([CH])[CH]>>[CH]C([CH])O
5: O>>[CH]O
6: [CH]C([CH])O>>[CH]C([CH])O

MMP Level 2
1: [CH]OC(O[CH])C([CH])O>>[CH]OC(O[CH])C([CH])O
2: [CH]OC(O[CH])C([CH])O>>[CH]OC(O[CH])C([CH])O
3: [O]C([CH])OC([CH])[CH]>>[O]C([CH])O
4: [O]C([CH2])C(O[CH])C([CH])O>>[O]C([CH2])C(O)C([CH])O
5: O>>[CH]C([CH])O
6: [O]C([CH])C(O)C([CH])O>>[CH]C(O)C(O)C([CH])O

MMP Level 3
1: [CH]C([CH])OC1OC([CH2])[CH]C(O)C1O>>[CH]C([CH])OC1OC([CH2])[CH]C(O)C1O
2: [CH]C([CH])OC1OC([CH2])[CH]C(O)C1O>>[CH]C([CH])OC1OC([CH2])[CH]C(O)C1O
3: [O]C([CH2])C(OC(O[CH])C([CH])O)C([CH])O>>[CH]OC(O)C([CH])O
4: [O]C([CH])OC1C(O)C(O)[CH]OC1CO>>OCC1O[CH]C(O)C(O)C1O
5: O>>[O]C([CH2])C(O)C([CH])O
6: [O]C1OC([CH2])C(O[CH])C(O)C1O>>[O]C1OC([CH2])C(O)C(O)C1O


//
REACTION MMP (RPAIR)
1: R:M00001, P:M00003	[OCC1OC(OC2C(O)C(O)C(OC2CO)OC3C(O)C(O)C(OC3CO)OC4C(O)C(O)C(OC4CO)OC5C(O)C(O)C(OC5CO)OC6C(O)C(O)C(O)OC6CO)C(O)C(O)C1O>>OCC1OC(OC2C(O)C(O)C(O)OC2CO)C(O)C(O)C1O, OCC1OC(OC2C(O)C(O)C(OC2CO)OC3C(O)C(O)C(OC3CO)OC4C(O)C(O)C(OC4CO)OC5C(O)C(O)C(OC5CO)OC6C(O)C(O)C(O)OC6CO)C(O)C(O)C1O>>OCC1OC(OC2C(O)C(O)C(O)OC2CO)C(O)C(O)C1O, OCC1OC(OC2C(O)C(O)C(OC2CO)OC3C(O)C(O)C(OC3CO)OC4C(O)C(O)C(OC4CO)OC5C(O)C(O)C(OC5CO)OC6C(O)C(O)C(O)OC6CO)C(O)C(O)C1O>>OCC1OC(OC2C(O)C(O)C(O)OC2CO)C(O)C(O)C1O]
2: R:M00001, P:M00004	[OCC1OC(OC2C(O)C(O)C(OC2CO)OC3C(O)C(O)C(OC3CO)OC4C(O)C(O)C(OC4CO)OC5C(O)C(O)C(OC5CO)OC6C(O)C(O)C(O)OC6CO)C(O)C(O)C1O>>OCC1OC(OC2C(O)C(O)C(OC2CO)OC3C(O)C(O)C(OC3CO)OC4C(O)C(O)C(O)OC4CO)C(O)C(O)C1O, OCC1OC(OC2C(O)C(O)C(OC2CO)OC3C(O)C(O)C(OC3CO)OC4C(O)C(O)C(OC4CO)OC5C(O)C(O)C(OC5CO)OC6C(O)C(O)C(O)OC6CO)C(O)C(O)C1O>>OCC1OC(OC2C(O)C(O)C(OC2CO)OC3C(O)C(O)C(OC3CO)OC4C(O)C(O)C(O)OC4CO)C(O)C(O)C1O]
3: R:M00002, P:M00003	[O>>OCC1OC(OC2C(O)C(O)C(O)OC2CO)C(O)C(O)C1O]


//
SELECTED AAM MAPPING
[OH2:68].[OH:1][CH2:2][CH:3]1[O:4][CH:5]([O:6][CH:7]2[CH:8]([OH:9])[CH:10]([OH:11])[CH:12]([O:13][CH:14]2[CH2:15][OH:16])[O:17][CH:18]3[CH:19]([OH:20])[CH:21]([OH:22])[CH:23]([O:24][CH:25]3[CH2:26][OH:27])[O:28][CH:29]4[CH:30]([OH:31])[CH:32]([OH:33])[CH:34]([O:35][CH:36]4[CH2:37][OH:38])[O:39][CH:40]5[CH:41]([OH:42])[CH:43]([OH:44])[CH:45]([O:46][CH:47]5[CH2:48][OH:49])[O:50][CH:51]6[CH:52]([OH:53])[CH:54]([OH:55])[CH:56]([OH:57])[O:58][CH:59]6[CH2:60][OH:61])[CH:62]([OH:63])[CH:64]([OH:65])[CH:66]1[OH:67]>>[OH:49][CH2:48][CH:47]1[O:46][CH:45]([O:50][CH:51]2[CH:52]([OH:53])[CH:54]([OH:55])[CH:56]([OH:57])[O:58][CH:59]2[CH2:60][OH:61])[CH:43]([OH:44])[CH:41]([OH:42])[CH:40]1[OH:68].[OH:1][CH2:2][CH:3]1[O:4][CH:5]([O:6][CH:7]2[CH:8]([OH:9])[CH:10]([OH:11])[CH:12]([O:13][CH:14]2[CH2:15][OH:16])[O:17][CH:18]3[CH:19]([OH:20])[CH:21]([OH:22])[CH:23]([O:24][CH:25]3[CH2:26][OH:27])[O:28][CH:29]4[CH:30]([OH:31])[CH:32]([OH:33])[CH:34]([OH:39])[O:35][CH:36]4[CH2:37][OH:38])[CH:62]([OH:63])[CH:64]([OH:65])[CH:66]1[OH:67]


//
REACTANT INPUT ATOM INDEX<->AAM ID
{1=2, 2=3, 3=66, 4=64, 5=62, 6=5, 7=4, 8=6, 9=7, 10=14, 11=13, 12=12, 13=10, 14=8, 15=9, 16=11, 17=17, 18=18, 19=25, 20=24, 21=23, 22=21, 23=19, 24=20, 25=22, 26=28, 27=29, 28=36, 29=35, 30=34, 31=32, 32=30, 33=31, 34=33, 35=39, 36=40, 37=47, 38=46, 39=45, 40=43, 41=41, 42=42, 43=44, 44=50, 45=51, 46=59, 47=58, 48=56, 49=54, 50=52, 51=53, 52=55, 53=57, 54=60, 55=61, 56=48, 57=49, 58=37, 59=38, 60=26, 61=27, 62=15, 63=16, 64=63, 65=65, 66=67, 67=1, 68=68}
PRODUCT INPUT ATOM INDEX<->AAM ID
{1=47, 2=48, 3=67, 4=65, 5=63, 6=50, 7=49, 8=51, 9=52, 10=60, 11=59, 12=57, 13=55, 14=53, 15=54, 16=56, 17=58, 18=61, 19=62, 20=64, 21=66, 22=68, 23=46, 24=2, 25=3, 26=44, 27=42, 28=40, 29=5, 30=4, 31=6, 32=7, 33=14, 34=13, 35=12, 36=10, 37=8, 38=9, 39=11, 40=17, 41=18, 42=25, 43=24, 44=23, 45=21, 46=19, 47=20, 48=22, 49=28, 50=29, 51=37, 52=36, 53=34, 54=32, 55=30, 56=31, 57=33, 58=35, 59=38, 60=39, 61=26, 62=27, 63=15, 64=16, 65=41, 66=43, 67=45, 68=1}

