
//
FINGERPRINTS BC

FORMED_CLEAVED
[C-C:7.0, C-O:7.0, O-O:6.0]

ORDER_CHANGED
[C-C*C=C:14.0]

STEREO_CHANGED
[C(E/Z):2.0]

//
FINGERPRINTS RC
[O=P(O)(O)O[P]>>[O]P(=O)(O)OOP(=O)(O)O[P]:5.0, [CH2]:35.0, [CH2]C(=C)C:14.0, [CH2]C(=C)C>>[CH]=C(C)C:2.0, [CH2]C(=C)C>>[CH]=C([CH2])C:6.0, [CH2]C(=C)C>>[CH]CCC(=[CH])C:6.0, [CH2]C(=CC[CH2])C:8.0, [CH2]C(=CC[CH2])C>>[CH2]C(=CC[CH2])C:1.0, [CH2]C=C(C)C:1.0, [CH2]C=C(C)C>>[C]=CCCC(=C[CH2])C:1.0, [CH2]C=C(C)C[CH2]:8.0, [CH2]C=C(C)C[CH2]>>[CH2]C=C(C)C[CH2]:1.0, [CH2]CC(=C)C:7.0, [CH2]CC(=C)C>>[CH2]C=C(C)C:2.0, [CH2]CC(=C)C>>[CH2]C=C(C)C[CH2]:6.0, [CH2]CC(=C)C>>[C]=CCCC(=C[CH2])C:6.0, [CH2]CC=C(C)C:1.0, [CH3]:2.0, [CH]:9.0, [CH]=C(C)C:3.0, [CH]=C(C)C>>[CH]CCC(=[CH])C:1.0, [CH]=C([CH2])C:8.0, [CH]=C([CH2])C>>[CH]=C([CH2])C:1.0, [CH]CCC(=CC[CH2])C>>[CH]CCC(=CC[CH2])C:1.0, [CH]CCC(=[CH])C:7.0, [CH]C[CH2]:7.0, [C]:16.0, [C]=C:7.0, [C]=C>>[C]C:1.0, [C]=C>>[C]C[CH2]:6.0, [C]=C[CH2]:9.0, [C]=C[CH2]>>[C]=C[CH2]:1.0, [C]C:2.0, [C]C>>[C]C[CH2]:1.0, [C]CCC=C(C)C[CH2]>>[C]CCC=C(C)C[CH2]:1.0, [C]CCC=[C]:7.0, [C]CCOP(=O)(O)O[P]>>[O]P(=O)(O)OOP(=O)(O)O[P]:7.0, [C]CCO[P]:7.0, [C]CCO[P]>>[C]CCC=[C]:7.0, [C]C[CH2]:14.0, [C]C[CH2]>>[C]=C[CH2]:7.0, [OH]:5.0, [O]:19.0, [O]CCC(=C)C:7.0, [O]CCC(=C)C>>[CH2]C(=CC[CH2])C:6.0, [O]CCC(=C)C>>[CH2]CC=C(C)C:2.0, [O]CCC(=C)C>>[CH]CCC(=CC[CH2])C:6.0, [O]C[CH2]:7.0, [O]C[CH2]>>[CH]C[CH2]:7.0, [O]O[P]:12.0, [O]P(=O)(O)O:5.0, [O]P(=O)(O)O>>[O]P(=O)(O)OO[P]:5.0, [O]P(=O)(O)OCCC(=C)C>>[CH]=C(C)CCC=C(C)C:1.0, [O]P(=O)(O)OCCC(=C)C>>[CH]=C(C)CCC=C([CH2])C:6.0, [O]P(=O)(O)OC[CH2]:7.0, [O]P(=O)(O)OC[CH2]>>[O]P(=O)(O)OO[P]:7.0, [O]P(=O)(O)OO[P]:12.0, [P]O:5.0, [P]O>>[O]O[P]:5.0, [P]OCCC(=C)C>>[C]CCC=C(C)C:1.0, [P]OCCC(=C)C>>[C]CCC=C(C)C[CH2]:6.0, [P]O[CH2]:7.0, [P]O[CH2]>>[O]O[P]:7.0]

//
Reaction Centre Formed/Cleaved

ID=Reaction Center at Level: 0 (2)
[[CH2]:21.0, [O]:19.0]


ID=Reaction Center at Level: 1 (5)
[[CH]C[CH2]:7.0, [C]C[CH2]:7.0, [O]C[CH2]:7.0, [O]O[P]:12.0, [P]O[CH2]:7.0]


ID=Reaction Center at Level: 2 (5)
[[CH]CCC(=[CH])C:7.0, [C]CCC=[C]:7.0, [C]CCO[P]:7.0, [O]P(=O)(O)OC[CH2]:7.0, [O]P(=O)(O)OO[P]:12.0]


Reaction Centre Order Changed

ID=Reaction Center at Level: 0 (4)
[[CH2]:20.0, [CH3]:1.0, [CH]:7.0, [C]:14.0]


ID=Reaction Center at Level: 1 (7)
[[CH2]C(=C)C:7.0, [CH]=C(C)C:1.0, [CH]=C([CH2])C:6.0, [C]=C:7.0, [C]=C[CH2]:7.0, [C]C:1.0, [C]C[CH2]:13.0]


ID=Reaction Center at Level: 2 (9)
[[CH2]C(=C)C:7.0, [CH2]C(=CC[CH2])C:6.0, [CH2]C=C(C)C:1.0, [CH2]C=C(C)C[CH2]:6.0, [CH2]CC(=C)C:7.0, [CH2]CC=C(C)C:1.0, [CH]=C(C)C:1.0, [CH]CCC(=[CH])C:6.0, [O]CCC(=C)C:7.0]


Reaction Centre Stereo Changes

ID=Reaction Center at Level: 0 (2)
[[CH]:2.0, [C]:2.0]


ID=Reaction Center at Level: 1 (2)
[[CH]=C([CH2])C:2.0, [C]=C[CH2]:2.0]


ID=Reaction Center at Level: 2 (2)
[[CH2]C(=CC[CH2])C:2.0, [CH2]C=C(C)C[CH2]:2.0]



//
TRANSFORMATIONS
MMP Level 1
1: [P]O[CH2]>>[O]O[P]
2: [P]O[CH2]>>[O]O[P]
3: [O]C[CH2]>>[CH]C[CH2]
4: [C]C[CH2]>>[C]=C[CH2]
5: [C]C[CH2]>>[C]=C[CH2]
6: [CH2]C(=C)C>>[CH]=C(C)C
7: [C]C[CH2]>>[C]=C[CH2]
8: [O]C[CH2]>>[CH]C[CH2]
9: [P]O[CH2]>>[O]O[P]
10: [C]=C>>[C]C[CH2]
11: [CH2]C(=C)C>>[CH]=C([CH2])C
12: [C]=C>>[C]C[CH2]
13: [CH2]C(=C)C>>[CH]=C([CH2])C
14: [C]=C>>[C]C[CH2]
15: [P]O>>[O]O[P]
16: [C]C[CH2]>>[C]=C[CH2]
17: [CH2]C(=C)C>>[CH]=C([CH2])C
18: [O]C[CH2]>>[CH]C[CH2]
19: [C]C[CH2]>>[C]=C[CH2]
20: [CH2]C(=C)C>>[CH]=C([CH2])C
21: [P]O>>[O]O[P]
22: [P]O>>[O]O[P]
23: [O]C[CH2]>>[CH]C[CH2]
24: [C]=C>>[C]C[CH2]
25: [C]=C[CH2]>>[C]=C[CH2]
26: [C]=C>>[C]C[CH2]
27: [C]=C>>[C]C[CH2]
28: [O]C[CH2]>>[CH]C[CH2]
29: [C]C[CH2]>>[C]=C[CH2]
30: [P]O[CH2]>>[O]O[P]
31: [P]O[CH2]>>[O]O[P]
32: [C]C>>[C]C[CH2]
33: [P]O>>[O]O[P]
34: [CH2]C(=C)C>>[CH]=C([CH2])C
35: [CH]=C([CH2])C>>[CH]=C([CH2])C
36: [O]C[CH2]>>[CH]C[CH2]
37: [O]C[CH2]>>[CH]C[CH2]
38: [C]C[CH2]>>[C]=C[CH2]
39: [CH2]C(=C)C>>[CH]=C([CH2])C
40: [C]=C>>[C]C

MMP Level 2
1: [O]P(=O)(O)OC[CH2]>>[O]P(=O)(O)OO[P]
2: [O]P(=O)(O)OC[CH2]>>[O]P(=O)(O)OO[P]
3: [C]CCO[P]>>[C]CCC=[C]
4: [O]CCC(=C)C>>[CH2]C(=CC[CH2])C
5: [O]CCC(=C)C>>[CH2]CC=C(C)C
6: [CH2]CC(=C)C>>[CH2]C=C(C)C
7: [O]CCC(=C)C>>[CH2]C(=CC[CH2])C
8: [C]CCO[P]>>[C]CCC=[C]
9: [O]P(=O)(O)OC[CH2]>>[O]P(=O)(O)OO[P]
10: [CH2]C(=C)C>>[CH]CCC(=[CH])C
11: [CH2]CC(=C)C>>[CH2]C=C(C)C[CH2]
12: [CH2]C(=C)C>>[CH]CCC(=[CH])C
13: [CH2]CC(=C)C>>[CH2]C=C(C)C[CH2]
14: [CH2]C(=C)C>>[CH]CCC(=[CH])C
15: [O]P(=O)(O)O>>[O]P(=O)(O)OO[P]
16: [O]CCC(=C)C>>[CH2]C(=CC[CH2])C
17: [CH2]CC(=C)C>>[CH2]C=C(C)C[CH2]
18: [C]CCO[P]>>[C]CCC=[C]
19: [O]CCC(=C)C>>[CH2]C(=CC[CH2])C
20: [CH2]CC(=C)C>>[CH2]C=C(C)C[CH2]
21: [O]P(=O)(O)O>>[O]P(=O)(O)OO[P]
22: [O]P(=O)(O)O>>[O]P(=O)(O)OO[P]
23: [C]CCO[P]>>[C]CCC=[C]
24: [CH2]C(=C)C>>[CH]CCC(=[CH])C
25: [CH2]C(=CC[CH2])C>>[CH2]C(=CC[CH2])C
26: [CH2]C(=C)C>>[CH]CCC(=[CH])C
27: [CH2]C(=C)C>>[CH]CCC(=[CH])C
28: [C]CCO[P]>>[C]CCC=[C]
29: [O]CCC(=C)C>>[CH2]C(=CC[CH2])C
30: [O]P(=O)(O)OC[CH2]>>[O]P(=O)(O)OO[P]
31: [O]P(=O)(O)OC[CH2]>>[O]P(=O)(O)OO[P]
32: [CH]=C(C)C>>[CH]CCC(=[CH])C
33: [O]P(=O)(O)O>>[O]P(=O)(O)OO[P]
34: [CH2]CC(=C)C>>[CH2]C=C(C)C[CH2]
35: [CH2]C=C(C)C[CH2]>>[CH2]C=C(C)C[CH2]
36: [C]CCO[P]>>[C]CCC=[C]
37: [C]CCO[P]>>[C]CCC=[C]
38: [O]CCC(=C)C>>[CH2]C(=CC[CH2])C
39: [CH2]CC(=C)C>>[CH2]C=C(C)C[CH2]
40: [CH2]C(=C)C>>[CH]=C(C)C

MMP Level 3
1: [C]CCOP(=O)(O)O[P]>>[O]P(=O)(O)OOP(=O)(O)O[P]
2: [C]CCOP(=O)(O)O[P]>>[O]P(=O)(O)OOP(=O)(O)O[P]
3: [O]P(=O)(O)OCCC(=C)C>>[CH]=C(C)CCC=C([CH2])C
4: [P]OCCC(=C)C>>[C]CCC=C(C)C[CH2]
5: [P]OCCC(=C)C>>[C]CCC=C(C)C
6: [O]CCC(=C)C>>[CH2]CC=C(C)C
7: [P]OCCC(=C)C>>[C]CCC=C(C)C[CH2]
8: [O]P(=O)(O)OCCC(=C)C>>[CH]=C(C)CCC=C(C)C
9: [C]CCOP(=O)(O)O[P]>>[O]P(=O)(O)OOP(=O)(O)O[P]
10: [CH2]CC(=C)C>>[C]=CCCC(=C[CH2])C
11: [O]CCC(=C)C>>[CH]CCC(=CC[CH2])C
12: [CH2]CC(=C)C>>[C]=CCCC(=C[CH2])C
13: [O]CCC(=C)C>>[CH]CCC(=CC[CH2])C
14: [CH2]CC(=C)C>>[C]=CCCC(=C[CH2])C
15: O=P(O)(O)O[P]>>[O]P(=O)(O)OOP(=O)(O)O[P]
16: [P]OCCC(=C)C>>[C]CCC=C(C)C[CH2]
17: [O]CCC(=C)C>>[CH]CCC(=CC[CH2])C
18: [O]P(=O)(O)OCCC(=C)C>>[CH]=C(C)CCC=C([CH2])C
19: [P]OCCC(=C)C>>[C]CCC=C(C)C[CH2]
20: [O]CCC(=C)C>>[CH]CCC(=CC[CH2])C
21: O=P(O)(O)O[P]>>[O]P(=O)(O)OOP(=O)(O)O[P]
22: O=P(O)(O)O[P]>>[O]P(=O)(O)OOP(=O)(O)O[P]
23: [O]P(=O)(O)OCCC(=C)C>>[CH]=C(C)CCC=C([CH2])C
24: [CH2]CC(=C)C>>[C]=CCCC(=C[CH2])C
25: [C]CCC=C(C)C[CH2]>>[C]CCC=C(C)C[CH2]
26: [CH2]CC(=C)C>>[C]=CCCC(=C[CH2])C
27: [CH2]CC(=C)C>>[C]=CCCC(=C[CH2])C
28: [O]P(=O)(O)OCCC(=C)C>>[CH]=C(C)CCC=C([CH2])C
29: [P]OCCC(=C)C>>[C]CCC=C(C)C[CH2]
30: [C]CCOP(=O)(O)O[P]>>[O]P(=O)(O)OOP(=O)(O)O[P]
31: [C]CCOP(=O)(O)O[P]>>[O]P(=O)(O)OOP(=O)(O)O[P]
32: [CH2]C=C(C)C>>[C]=CCCC(=C[CH2])C
33: O=P(O)(O)O[P]>>[O]P(=O)(O)OOP(=O)(O)O[P]
34: [O]CCC(=C)C>>[CH]CCC(=CC[CH2])C
35: [CH]CCC(=CC[CH2])C>>[CH]CCC(=CC[CH2])C
36: [O]P(=O)(O)OCCC(=C)C>>[CH]=C(C)CCC=C([CH2])C
37: [O]P(=O)(O)OCCC(=C)C>>[CH]=C(C)CCC=C([CH2])C
38: [P]OCCC(=C)C>>[C]CCC=C(C)C[CH2]
39: [O]CCC(=C)C>>[CH]CCC(=CC[CH2])C
40: [CH2]CC(=C)C>>[CH2]C=C(C)C


//
REACTION MMP (RPAIR)
1: R:M00001, P:M00004	[O=P(O)(O)OP(=O)(O)OCC=C(C)CCC=C(C)CCC=C(C)C>>O=P(O)(O)OP(=O)(O)OCC=C(C)CCC=C(C)CCC=C(C)CCC=C(C)CCC=C(C)CCC=C(C)CCC=C(C)CCC=C(C)CCC=C(C)CCC=C(C)C, O=P(O)(O)OP(=O)(O)OCC=C(C)CCC=C(C)CCC=C(C)C>>O=P(O)(O)OP(=O)(O)OCC=C(C)CCC=C(C)CCC=C(C)CCC=C(C)CCC=C(C)CCC=C(C)CCC=C(C)CCC=C(C)CCC=C(C)CCC=C(C)C, O=P(O)(O)OP(=O)(O)OCC=C(C)CCC=C(C)CCC=C(C)C>>O=P(O)(O)OP(=O)(O)OCC=C(C)CCC=C(C)CCC=C(C)CCC=C(C)CCC=C(C)CCC=C(C)CCC=C(C)CCC=C(C)CCC=C(C)CCC=C(C)C]
2: R:M00002, P:M00003	[O=P(O)(O)OP(=O)(O)OCCC(=C)C>>O=P(O)(O)OP(=O)(O)OOP(=O)(O)OP(=O)(O)OOP(=O)(O)OP(=O)(O)OOP(=O)(O)OP(=O)(O)OOP(=O)(O)OP(=O)(O)OOP(=O)(O)OP(=O)(O)OOP(=O)(O)OP(=O)(O)O, O=P(O)(O)OP(=O)(O)OCCC(=C)C>>O=P(O)(O)OP(=O)(O)OOP(=O)(O)OP(=O)(O)OOP(=O)(O)OP(=O)(O)OOP(=O)(O)OP(=O)(O)OOP(=O)(O)OP(=O)(O)OOP(=O)(O)OP(=O)(O)OOP(=O)(O)OP(=O)(O)O, O=P(O)(O)OP(=O)(O)OCCC(=C)C>>O=P(O)(O)OP(=O)(O)OOP(=O)(O)OP(=O)(O)OOP(=O)(O)OP(=O)(O)OOP(=O)(O)OP(=O)(O)OOP(=O)(O)OP(=O)(O)OOP(=O)(O)OP(=O)(O)OOP(=O)(O)OP(=O)(O)O, O=P(O)(O)OP(=O)(O)OCCC(=C)C>>O=P(O)(O)OP(=O)(O)OOP(=O)(O)OP(=O)(O)OOP(=O)(O)OP(=O)(O)OOP(=O)(O)OP(=O)(O)OOP(=O)(O)OP(=O)(O)OOP(=O)(O)OP(=O)(O)OOP(=O)(O)OP(=O)(O)O, O=P(O)(O)OP(=O)(O)OCCC(=C)C>>O=P(O)(O)OP(=O)(O)OOP(=O)(O)OP(=O)(O)OOP(=O)(O)OP(=O)(O)OOP(=O)(O)OP(=O)(O)OOP(=O)(O)OP(=O)(O)OOP(=O)(O)OP(=O)(O)OOP(=O)(O)OP(=O)(O)O, O=P(O)(O)OP(=O)(O)OCCC(=C)C>>O=P(O)(O)OP(=O)(O)OOP(=O)(O)OP(=O)(O)OOP(=O)(O)OP(=O)(O)OOP(=O)(O)OP(=O)(O)OOP(=O)(O)OP(=O)(O)OOP(=O)(O)OP(=O)(O)OOP(=O)(O)OP(=O)(O)O, O=P(O)(O)OP(=O)(O)OCCC(=C)C>>O=P(O)(O)OP(=O)(O)OOP(=O)(O)OP(=O)(O)OOP(=O)(O)OP(=O)(O)OOP(=O)(O)OP(=O)(O)OOP(=O)(O)OP(=O)(O)OOP(=O)(O)OP(=O)(O)OOP(=O)(O)OP(=O)(O)O, O=P(O)(O)OP(=O)(O)OCCC(=C)C>>O=P(O)(O)OP(=O)(O)OOP(=O)(O)OP(=O)(O)OOP(=O)(O)OP(=O)(O)OOP(=O)(O)OP(=O)(O)OOP(=O)(O)OP(=O)(O)OOP(=O)(O)OP(=O)(O)OOP(=O)(O)OP(=O)(O)O, O=P(O)(O)OP(=O)(O)OCCC(=C)C>>O=P(O)(O)OP(=O)(O)OOP(=O)(O)OP(=O)(O)OOP(=O)(O)OP(=O)(O)OOP(=O)(O)OP(=O)(O)OOP(=O)(O)OP(=O)(O)OOP(=O)(O)OP(=O)(O)OOP(=O)(O)OP(=O)(O)O]
3: R:M00002, P:M00004	[O=P(O)(O)OP(=O)(O)OCCC(=C)C>>O=P(O)(O)OP(=O)(O)OCC=C(C)CCC=C(C)CCC=C(C)CCC=C(C)CCC=C(C)CCC=C(C)CCC=C(C)CCC=C(C)CCC=C(C)CCC=C(C)C, O=P(O)(O)OP(=O)(O)OCCC(=C)C>>O=P(O)(O)OP(=O)(O)OCC=C(C)CCC=C(C)CCC=C(C)CCC=C(C)CCC=C(C)CCC=C(C)CCC=C(C)CCC=C(C)CCC=C(C)CCC=C(C)C, O=P(O)(O)OP(=O)(O)OCCC(=C)C>>O=P(O)(O)OP(=O)(O)OCC=C(C)CCC=C(C)CCC=C(C)CCC=C(C)CCC=C(C)CCC=C(C)CCC=C(C)CCC=C(C)CCC=C(C)CCC=C(C)C, O=P(O)(O)OP(=O)(O)OCCC(=C)C>>O=P(O)(O)OP(=O)(O)OCC=C(C)CCC=C(C)CCC=C(C)CCC=C(C)CCC=C(C)CCC=C(C)CCC=C(C)CCC=C(C)CCC=C(C)CCC=C(C)C, O=P(O)(O)OP(=O)(O)OCCC(=C)C>>O=P(O)(O)OP(=O)(O)OCC=C(C)CCC=C(C)CCC=C(C)CCC=C(C)CCC=C(C)CCC=C(C)CCC=C(C)CCC=C(C)CCC=C(C)CCC=C(C)C, O=P(O)(O)OP(=O)(O)OCCC(=C)C>>O=P(O)(O)OP(=O)(O)OCC=C(C)CCC=C(C)CCC=C(C)CCC=C(C)CCC=C(C)CCC=C(C)CCC=C(C)CCC=C(C)CCC=C(C)CCC=C(C)C, O=P(O)(O)OP(=O)(O)OCCC(=C)C>>O=P(O)(O)OP(=O)(O)OCC=C(C)CCC=C(C)CCC=C(C)CCC=C(C)CCC=C(C)CCC=C(C)CCC=C(C)CCC=C(C)CCC=C(C)CCC=C(C)C, O=P(O)(O)OP(=O)(O)OCCC(=C)C>>O=P(O)(O)OP(=O)(O)OCC=C(C)CCC=C(C)CCC=C(C)CCC=C(C)CCC=C(C)CCC=C(C)CCC=C(C)CCC=C(C)CCC=C(C)CCC=C(C)C, O=P(O)(O)OP(=O)(O)OCCC(=C)C>>O=P(O)(O)OP(=O)(O)OCC=C(C)CCC=C(C)CCC=C(C)CCC=C(C)CCC=C(C)CCC=C(C)CCC=C(C)CCC=C(C)CCC=C(C)CCC=C(C)C, O=P(O)(O)OP(=O)(O)OCCC(=C)C>>O=P(O)(O)OP(=O)(O)OCC=C(C)CCC=C(C)CCC=C(C)CCC=C(C)CCC=C(C)CCC=C(C)CCC=C(C)CCC=C(C)CCC=C(C)CCC=C(C)C, O=P(O)(O)OP(=O)(O)OCCC(=C)C>>O=P(O)(O)OP(=O)(O)OCC=C(C)CCC=C(C)CCC=C(C)CCC=C(C)CCC=C(C)CCC=C(C)CCC=C(C)CCC=C(C)CCC=C(C)CCC=C(C)C, O=P(O)(O)OP(=O)(O)OCCC(=C)C>>O=P(O)(O)OP(=O)(O)OCC=C(C)CCC=C(C)CCC=C(C)CCC=C(C)CCC=C(C)CCC=C(C)CCC=C(C)CCC=C(C)CCC=C(C)CCC=C(C)C, O=P(O)(O)OP(=O)(O)OCCC(=C)C>>O=P(O)(O)OP(=O)(O)OCC=C(C)CCC=C(C)CCC=C(C)CCC=C(C)CCC=C(C)CCC=C(C)CCC=C(C)CCC=C(C)CCC=C(C)CCC=C(C)C, O=P(O)(O)OP(=O)(O)OCCC(=C)C>>O=P(O)(O)OP(=O)(O)OCC=C(C)CCC=C(C)CCC=C(C)CCC=C(C)CCC=C(C)CCC=C(C)CCC=C(C)CCC=C(C)CCC=C(C)CCC=C(C)C, O=P(O)(O)OP(=O)(O)OCCC(=C)C>>O=P(O)(O)OP(=O)(O)OCC=C(C)CCC=C(C)CCC=C(C)CCC=C(C)CCC=C(C)CCC=C(C)CCC=C(C)CCC=C(C)CCC=C(C)CCC=C(C)C, O=P(O)(O)OP(=O)(O)OCCC(=C)C>>O=P(O)(O)OP(=O)(O)OCC=C(C)CCC=C(C)CCC=C(C)CCC=C(C)CCC=C(C)CCC=C(C)CCC=C(C)CCC=C(C)CCC=C(C)CCC=C(C)C, O=P(O)(O)OP(=O)(O)OCCC(=C)C>>O=P(O)(O)OP(=O)(O)OCC=C(C)CCC=C(C)CCC=C(C)CCC=C(C)CCC=C(C)CCC=C(C)CCC=C(C)CCC=C(C)CCC=C(C)CCC=C(C)C, O=P(O)(O)OP(=O)(O)OCCC(=C)C>>O=P(O)(O)OP(=O)(O)OCC=C(C)CCC=C(C)CCC=C(C)CCC=C(C)CCC=C(C)CCC=C(C)CCC=C(C)CCC=C(C)CCC=C(C)CCC=C(C)C, O=P(O)(O)OP(=O)(O)OCCC(=C)C>>O=P(O)(O)OP(=O)(O)OCC=C(C)CCC=C(C)CCC=C(C)CCC=C(C)CCC=C(C)CCC=C(C)CCC=C(C)CCC=C(C)CCC=C(C)CCC=C(C)C, O=P(O)(O)OP(=O)(O)OCCC(=C)C>>O=P(O)(O)OP(=O)(O)OCC=C(C)CCC=C(C)CCC=C(C)CCC=C(C)CCC=C(C)CCC=C(C)CCC=C(C)CCC=C(C)CCC=C(C)CCC=C(C)C, O=P(O)(O)OP(=O)(O)OCCC(=C)C>>O=P(O)(O)OP(=O)(O)OCC=C(C)CCC=C(C)CCC=C(C)CCC=C(C)CCC=C(C)CCC=C(C)CCC=C(C)CCC=C(C)CCC=C(C)CCC=C(C)C, O=P(O)(O)OP(=O)(O)OCCC(=C)C>>O=P(O)(O)OP(=O)(O)OCC=C(C)CCC=C(C)CCC=C(C)CCC=C(C)CCC=C(C)CCC=C(C)CCC=C(C)CCC=C(C)CCC=C(C)CCC=C(C)C, O=P(O)(O)OP(=O)(O)OCCC(=C)C>>O=P(O)(O)OP(=O)(O)OCC=C(C)CCC=C(C)CCC=C(C)CCC=C(C)CCC=C(C)CCC=C(C)CCC=C(C)CCC=C(C)CCC=C(C)CCC=C(C)C, O=P(O)(O)OP(=O)(O)OCCC(=C)C>>O=P(O)(O)OP(=O)(O)OCC=C(C)CCC=C(C)CCC=C(C)CCC=C(C)CCC=C(C)CCC=C(C)CCC=C(C)CCC=C(C)CCC=C(C)CCC=C(C)C, O=P(O)(O)OP(=O)(O)OCCC(=C)C>>O=P(O)(O)OP(=O)(O)OCC=C(C)CCC=C(C)CCC=C(C)CCC=C(C)CCC=C(C)CCC=C(C)CCC=C(C)CCC=C(C)CCC=C(C)CCC=C(C)C, O=P(O)(O)OP(=O)(O)OCCC(=C)C>>O=P(O)(O)OP(=O)(O)OCC=C(C)CCC=C(C)CCC=C(C)CCC=C(C)CCC=C(C)CCC=C(C)CCC=C(C)CCC=C(C)CCC=C(C)CCC=C(C)C, O=P(O)(O)OP(=O)(O)OCCC(=C)C>>O=P(O)(O)OP(=O)(O)OCC=C(C)CCC=C(C)CCC=C(C)CCC=C(C)CCC=C(C)CCC=C(C)CCC=C(C)CCC=C(C)CCC=C(C)CCC=C(C)C, O=P(O)(O)OP(=O)(O)OCCC(=C)C>>O=P(O)(O)OP(=O)(O)OCC=C(C)CCC=C(C)CCC=C(C)CCC=C(C)CCC=C(C)CCC=C(C)CCC=C(C)CCC=C(C)CCC=C(C)CCC=C(C)C]


//
SELECTED AAM MAPPING
[O:1]=[P:2]([OH:3])([OH:4])[O:5][P:6](=[O:7])([OH:8])[O:9][CH2:10][CH:11]=[C:12]([CH3:13])[CH2:14][CH2:15][CH:16]=[C:17]([CH3:18])[CH2:19][CH2:20][CH:21]=[C:22]([CH3:23])[CH3:24].[O:95]=[P:96]([OH:97])([OH:98])[O:99][P:100](=[O:101])([OH:102])[O:103][CH2:104][CH2:105][C:106](=[CH2:107])[CH3:108].[O:109]=[P:110]([OH:111])([OH:112])[O:113][P:114](=[O:115])([OH:116])[O:117][CH2:118][CH2:119][C:120](=[CH2:121])[CH3:122].[O:67]=[P:68]([OH:69])([OH:70])[O:71][P:72](=[O:73])([OH:74])[O:75][CH2:76][CH2:77][C:78](=[CH2:79])[CH3:80].[O:81]=[P:82]([OH:83])([OH:84])[O:85][P:86](=[O:87])([OH:88])[O:89][CH2:90][CH2:91][C:92](=[CH2:93])[CH3:94].[O:39]=[P:40]([OH:42])([OH:41])[O:43][P:44](=[O:45])([OH:46])[O:47][CH2:48][CH2:49][C:50](=[CH2:51])[CH3:52].[O:53]=[P:54]([OH:55])([OH:56])[O:57][P:58](=[O:59])([OH:60])[O:61][CH2:62][CH2:63][C:64](=[CH2:65])[CH3:66].[O:25]=[P:26]([OH:27])([OH:28])[O:29][P:30](=[O:31])([OH:32])[O:33][CH2:34][CH2:35][C:36](=[CH2:37])[CH3:38]>>[O:25]=[P:26]([OH:27])([OH:28])[O:29][P:30](=[O:31])([OH:32])[O:33][O:42][P:40](=[O:39])([OH:41])[O:43][P:44](=[O:45])([OH:46])[O:47][O:117][P:114](=[O:115])([OH:116])[O:113][P:110](=[O:109])([OH:112])[O:111][O:103][P:100](=[O:101])([OH:102])[O:99][P:96](=[O:95])([OH:98])[O:97][O:89][P:86](=[O:87])([OH:88])[O:85][P:82](=[O:81])([OH:84])[O:83][O:75][P:72](=[O:73])([OH:74])[O:71][P:68](=[O:67])([OH:70])[O:69][O:61][P:58](=[O:59])([OH:60])[O:57][P:54](=[O:53])([OH:55])[OH:56].[O:1]=[P:2]([OH:3])([OH:4])[O:5][P:6](=[O:7])([OH:8])[O:9][CH2:10][CH:11]=[C:12]([CH3:13])[CH2:14][CH2:15][CH:16]=[C:17]([CH3:18])[CH2:19][CH2:20][CH:21]=[C:22]([CH3:24])[CH2:23][CH2:34][CH:35]=[C:36]([CH3:38])[CH2:37][CH2:48][CH:49]=[C:50]([CH3:52])[CH2:51][CH2:62][CH:63]=[C:64]([CH3:66])[CH2:65][CH2:76][CH:77]=[C:78]([CH3:80])[CH2:79][CH2:90][CH:91]=[C:92]([CH3:94])[CH2:93][CH2:104][CH:105]=[C:106]([CH3:108])[CH2:107][CH2:118][CH:119]=[C:120]([CH3:121])[CH3:122]


//
REACTANT INPUT ATOM INDEX<->AAM ID
{1=23, 2=22, 3=21, 4=20, 5=19, 6=17, 7=16, 8=15, 9=14, 10=12, 11=11, 12=10, 13=9, 14=6, 15=7, 16=8, 17=5, 18=2, 19=1, 20=3, 21=4, 22=13, 23=18, 24=24, 25=122, 26=120, 27=121, 28=119, 29=118, 30=117, 31=114, 32=115, 33=116, 34=113, 35=110, 36=109, 37=111, 38=112}
PRODUCT INPUT ATOM INDEX<->AAM ID
{1=62, 2=60, 3=61, 4=63, 5=59, 6=56, 7=57, 8=58, 9=55, 10=54, 11=51, 12=52, 13=53, 14=50, 15=47, 16=48, 17=49, 18=46, 19=45, 20=42, 21=43, 22=44, 23=41, 24=38, 25=39, 26=40, 27=37, 28=36, 29=33, 30=34, 31=35, 32=32, 33=29, 34=30, 35=31, 36=28, 37=27, 38=24, 39=25, 40=26, 41=23, 42=20, 43=21, 44=22, 45=19, 46=18, 47=15, 48=16, 49=17, 50=14, 51=11, 52=12, 53=13, 54=10, 55=9, 56=6, 57=7, 58=8, 59=5, 60=2, 61=1, 62=3, 63=4, 64=122, 65=120, 66=119, 67=118, 68=117, 69=115, 70=114, 71=113, 72=112, 73=110, 74=109, 75=108, 76=107, 77=105, 78=104, 79=103, 80=102, 81=100, 82=99, 83=98, 84=97, 85=95, 86=94, 87=93, 88=92, 89=90, 90=89, 91=88, 92=87, 93=85, 94=84, 95=83, 96=82, 97=80, 98=79, 99=78, 100=77, 101=75, 102=74, 103=73, 104=72, 105=69, 106=70, 107=71, 108=68, 109=65, 110=64, 111=66, 112=67, 113=76, 114=81, 115=86, 116=91, 117=96, 118=101, 119=106, 120=111, 121=116, 122=121}

