
//
FINGERPRINTS BC

FORMED_CLEAVED
[C-O:2.0]

STEREO_CHANGED
[C(R/S):2.0]

//
FINGERPRINTS RC
[OC1OC([CH2])[CH]C(O)C1N>>OC1OC([CH2])[CH]C(O)C1N:1.0, [CH]:6.0, [CH]C([CH])O:1.0, [CH]C([CH])OC1OC([CH2])[CH]C(O)C1N>>[CH]C([CH])OC1OC([CH2])[CH]C(O)C1N:1.0, [CH]O:1.0, [CH]OC(O)C([CH])N:2.0, [CH]OC(O)C([CH])N>>[CH]OC(O)C([CH])N:1.0, [CH]OC(O[CH])C([CH])N:2.0, [CH]OC(O[CH])C([CH])N>>[CH]OC(O[CH])C([CH])N:1.0, [CH]O[CH]:1.0, [CH]O[CH]>>[CH]O:1.0, [OH]:1.0, [O]:1.0, [O]C([CH2])C(O)C([CH])O:1.0, [O]C([CH2])C(OC(O[CH])C([CH])N)C([CH])O>>[CH]OC(O)C([CH])N:1.0, [O]C([CH2])C(O[CH])C([CH])O:1.0, [O]C([CH2])C(O[CH])C([CH])O>>[O]C([CH2])C(O)C([CH])O:1.0, [O]C([CH])O:3.0, [O]C([CH])O>>[O]C([CH])O:1.0, [O]C([CH])OC([CH])[CH]:1.0, [O]C([CH])OC([CH])[CH]>>[O]C([CH])O:1.0, [O]C([CH])OC1C(O)C(N)[CH]OC1CO>>OCC1O[CH]C(N)C(O)C1O:1.0, [O]C([CH])[CH]:1.0, [O]C([CH])[CH]>>[CH]C([CH])O:1.0, [O]C([O])[CH]:2.0, [O]C([O])[CH]>>[O]C([O])[CH]:1.0]

//
Reaction Centre Formed/Cleaved

ID=Reaction Center at Level: 0 (3)
[[CH]:2.0, [OH]:1.0, [O]:1.0]


ID=Reaction Center at Level: 1 (4)
[[CH]C([CH])O:1.0, [CH]O:1.0, [CH]O[CH]:1.0, [O]C([CH])[CH]:1.0]


ID=Reaction Center at Level: 2 (4)
[[CH]C([CH])O:1.0, [O]C([CH2])C(O)C([CH])O:1.0, [O]C([CH2])C(O[CH])C([CH])O:1.0, [O]C([CH])OC([CH])[CH]:1.0]


Reaction Centre Order Changed

Reaction Centre Stereo Changes

ID=Reaction Center at Level: 0 (1)
[[CH]:4.0]


ID=Reaction Center at Level: 1 (2)
[[O]C([CH])O:2.0, [O]C([O])[CH]:2.0]


ID=Reaction Center at Level: 2 (2)
[[CH]OC(O)C([CH])N:2.0, [CH]OC(O[CH])C([CH])N:2.0]



//
TRANSFORMATIONS
MMP Level 1
1: [O]C([CH])[CH]>>[CH]C([CH])O
2: [CH]O[CH]>>[CH]O
3: [O]C([CH])O>>[O]C([CH])O
4: [O]C([O])[CH]>>[O]C([O])[CH]

MMP Level 2
1: [O]C([CH2])C(O[CH])C([CH])O>>[O]C([CH2])C(O)C([CH])O
2: [O]C([CH])OC([CH])[CH]>>[O]C([CH])O
3: [CH]OC(O)C([CH])N>>[CH]OC(O)C([CH])N
4: [CH]OC(O[CH])C([CH])N>>[CH]OC(O[CH])C([CH])N

MMP Level 3
1: [O]C([CH])OC1C(O)C(N)[CH]OC1CO>>OCC1O[CH]C(N)C(O)C1O
2: [O]C([CH2])C(OC(O[CH])C([CH])N)C([CH])O>>[CH]OC(O)C([CH])N
3: OC1OC([CH2])[CH]C(O)C1N>>OC1OC([CH2])[CH]C(O)C1N
4: [CH]C([CH])OC1OC([CH2])[CH]C(O)C1N>>[CH]C([CH])OC1OC([CH2])[CH]C(O)C1N


//
REACTION MMP (RPAIR)
1: R:M00001, P:M00002	[OCC1OC(OC2C(O)C(N)C(OC2CO)OC3C(O)C(N)C(OC3CO)OC4C(O)C(N)C(O)OC4CO)C(N)C(O)C1O>>OCC1OC(O)C(N)C(O)C1O, OCC1OC(OC2C(O)C(N)C(OC2CO)OC3C(O)C(N)C(OC3CO)OC4C(O)C(N)C(O)OC4CO)C(N)C(O)C1O>>OCC1OC(O)C(N)C(O)C1O]
2: R:M00001, P:M00003	[OCC1OC(OC2C(O)C(N)C(OC2CO)OC3C(O)C(N)C(OC3CO)OC4C(O)C(N)C(O)OC4CO)C(N)C(O)C1O>>OCC1OC(OC2C(O)C(N)C(OC2CO)OC3C(O)C(N)C(O)OC3CO)C(N)C(O)C1O, OCC1OC(OC2C(O)C(N)C(OC2CO)OC3C(O)C(N)C(OC3CO)OC4C(O)C(N)C(O)OC4CO)C(N)C(O)C1O>>OCC1OC(OC2C(O)C(N)C(OC2CO)OC3C(O)C(N)C(O)OC3CO)C(N)C(O)C1O]


//
SELECTED AAM MAPPING
[OH:1][CH2:2][CH:3]1[O:4][CH:5]([O:6][CH:7]2[CH:8]([OH:9])[CH:10]([NH2:11])[CH:12]([O:13][CH:14]2[CH2:15][OH:16])[O:17][CH:18]3[CH:19]([OH:20])[CH:21]([NH2:22])[CH:23]([O:24][CH:25]3[CH2:26][OH:27])[O:28][CH:29]4[CH:30]([OH:31])[CH:32]([NH2:33])[CH:34]([OH:35])[O:36][CH:37]4[CH2:38][OH:39])[CH:40]([NH2:41])[CH:42]([OH:43])[CH:44]1[OH:45]>>[OH:39][CH2:38][CH:37]1[O:36][CH:34]([OH:35])[CH:32]([NH2:33])[CH:30]([OH:31])[CH:29]1[OH:46].[OH:1][CH2:2][CH:3]1[O:4][CH:5]([O:6][CH:7]2[CH:8]([OH:9])[CH:10]([NH2:11])[CH:12]([O:13][CH:14]2[CH2:15][OH:16])[O:17][CH:18]3[CH:19]([OH:20])[CH:21]([NH2:22])[CH:23]([OH:28])[O:24][CH:25]3[CH2:26][OH:27])[CH:40]([NH2:41])[CH:42]([OH:43])[CH:44]1[OH:45]


//
REACTANT INPUT ATOM INDEX<->AAM ID
{1=2, 2=3, 3=44, 4=42, 5=40, 6=5, 7=4, 8=6, 9=7, 10=14, 11=13, 12=12, 13=10, 14=8, 15=9, 16=11, 17=17, 18=18, 19=25, 20=24, 21=23, 22=21, 23=19, 24=20, 25=22, 26=28, 27=29, 28=37, 29=36, 30=34, 31=32, 32=30, 33=31, 34=33, 35=35, 36=38, 37=39, 38=26, 39=27, 40=15, 41=16, 42=41, 43=43, 44=45, 45=1}
PRODUCT INPUT ATOM INDEX<->AAM ID
{1=36, 2=37, 3=45, 4=43, 5=41, 6=39, 7=38, 8=40, 9=42, 10=44, 11=46, 12=35, 13=2, 14=3, 15=33, 16=31, 17=29, 18=5, 19=4, 20=6, 21=7, 22=14, 23=13, 24=12, 25=10, 26=8, 27=9, 28=11, 29=17, 30=18, 31=26, 32=25, 33=23, 34=21, 35=19, 36=20, 37=22, 38=24, 39=27, 40=28, 41=15, 42=16, 43=30, 44=32, 45=34, 46=1}

