
//
FINGERPRINTS BC

FORMED_CLEAVED
[C%O:3.0, C-O:3.0]

STEREO_CHANGED
[C(R/S):6.0]

//
FINGERPRINTS RC
[O:3.0, O>>[CH]O:1.0, O>>[CH]OC(O)C([CH])O:1.0, O>>[O]C([CH])O:1.0, [CH]:16.0, [CH]C(O)C(O)C([CH])O:3.0, [CH]C([CH])O:9.0, [CH]C([CH])O>>[CH]C([CH])O:3.0, [CH]C([CH])OC1OC([CH2])[CH]C(O)C1O>>OC1OC([CH2])[CH]C(O)C1O:2.0, [CH]C([CH])OC1OC([CH2])[CH]C(O)C1O>>[CH]C([CH])OC1OC([CH2])[CH]C(O)C1O:2.0, [CH]O:4.0, [CH]OC(O)C([CH])O:2.0, [CH]OC(O[CH])C([CH])O:6.0, [CH]OC(O[CH])C([CH])O>>[CH]OC(O)C([CH])O:2.0, [CH]OC(O[CH])C([CH])O>>[CH]OC(O[CH])C([CH])O:2.0, [CH]O[CH]:3.0, [CH]O[CH]>>[CH]O:3.0, [OH]:4.0, [O]:3.0, [O]C([CH2])C(O)C([CH])O:1.0, [O]C([CH2])C(OC(O[CH])C([CH])O)C([CH])O>>[CH]OC(O)C([CH])O:1.0, [O]C([CH2])C(OC(O[CH])C([CH])O)C([CH])O>>[O]C([CH2])C(O)C([CH])O:2.0, [O]C([CH2])C(O[CH])C([CH])O:1.0, [O]C([CH2])C(O[CH])C([CH])O>>[O]C([CH2])C(O)C([CH])O:1.0, [O]C([CH])C(O)C([CH])O:3.0, [O]C([CH])C(O)C([CH])O>>[CH]C(O)C(O)C([CH])O:3.0, [O]C([CH])O:4.0, [O]C([CH])OC([CH])[CH]:3.0, [O]C([CH])OC([CH])[CH]>>[CH]C([CH])O:2.0, [O]C([CH])OC([CH])[CH]>>[O]C([CH])O:1.0, [O]C([CH])OC1C(O)C(O)[CH]OC1CO>>OCC1O[CH]C(O)C(O)C1O:1.0, [O]C([CH])[CH]:1.0, [O]C([CH])[CH]>>[CH]C([CH])O:1.0, [O]C([O])[CH]:6.0, [O]C([O])[CH]>>[O]C([CH])O:2.0, [O]C([O])[CH]>>[O]C([O])[CH]:2.0, [O]C1OC([CH2])C(O[CH])C(O)C1O>>OC1OC([CH2])C(O)C(O)C1O:1.0, [O]C1OC([CH2])C(O[CH])C(O)C1O>>[O]C1OC([CH2])C(O)C(O)C1O:2.0]

//
Reaction Centre Formed/Cleaved

ID=Reaction Center at Level: 0 (4)
[O:1.0, [CH]:6.0, [OH]:3.0, [O]:3.0]


ID=Reaction Center at Level: 1 (7)
[O:1.0, [CH]C([CH])O:1.0, [CH]O:3.0, [CH]O[CH]:3.0, [O]C([CH])O:2.0, [O]C([CH])[CH]:1.0, [O]C([O])[CH]:2.0]


ID=Reaction Center at Level: 2 (8)
[O:1.0, [CH]C([CH])O:1.0, [CH]OC(O)C([CH])O:2.0, [CH]OC(O[CH])C([CH])O:2.0, [O]C([CH2])C(O)C([CH])O:1.0, [O]C([CH2])C(O[CH])C([CH])O:1.0, [O]C([CH])O:2.0, [O]C([CH])OC([CH])[CH]:3.0]


Reaction Centre Order Changed

Reaction Centre Stereo Changes

ID=Reaction Center at Level: 0 (1)
[[CH]:12.0]


ID=Reaction Center at Level: 1 (3)
[[CH]C([CH])O:6.0, [O]C([CH])O:1.0, [O]C([O])[CH]:5.0]


ID=Reaction Center at Level: 2 (4)
[[CH]C(O)C(O)C([CH])O:3.0, [CH]OC(O)C([CH])O:1.0, [CH]OC(O[CH])C([CH])O:5.0, [O]C([CH])C(O)C([CH])O:3.0]



//
TRANSFORMATIONS
MMP Level 1
1: [O]C([O])[CH]>>[O]C([O])[CH]
2: [CH]O[CH]>>[CH]O
3: [CH]C([CH])O>>[CH]C([CH])O
4: [CH]O[CH]>>[CH]O
5: [O]C([CH])[CH]>>[CH]C([CH])O
6: [CH]C([CH])O>>[CH]C([CH])O
7: [CH]C([CH])O>>[CH]C([CH])O
8: [CH]O[CH]>>[CH]O
9: [O]C([O])[CH]>>[O]C([CH])O
10: O>>[CH]O
11: [O]C([O])[CH]>>[O]C([O])[CH]
12: [O]C([O])[CH]>>[O]C([CH])O

MMP Level 2
1: [CH]OC(O[CH])C([CH])O>>[CH]OC(O[CH])C([CH])O
2: [O]C([CH])OC([CH])[CH]>>[CH]C([CH])O
3: [O]C([CH])C(O)C([CH])O>>[CH]C(O)C(O)C([CH])O
4: [O]C([CH])OC([CH])[CH]>>[O]C([CH])O
5: [O]C([CH2])C(O[CH])C([CH])O>>[O]C([CH2])C(O)C([CH])O
6: [O]C([CH])C(O)C([CH])O>>[CH]C(O)C(O)C([CH])O
7: [O]C([CH])C(O)C([CH])O>>[CH]C(O)C(O)C([CH])O
8: [O]C([CH])OC([CH])[CH]>>[CH]C([CH])O
9: [CH]OC(O[CH])C([CH])O>>[CH]OC(O)C([CH])O
10: O>>[O]C([CH])O
11: [CH]OC(O[CH])C([CH])O>>[CH]OC(O[CH])C([CH])O
12: [CH]OC(O[CH])C([CH])O>>[CH]OC(O)C([CH])O

MMP Level 3
1: [CH]C([CH])OC1OC([CH2])[CH]C(O)C1O>>[CH]C([CH])OC1OC([CH2])[CH]C(O)C1O
2: [O]C([CH2])C(OC(O[CH])C([CH])O)C([CH])O>>[O]C([CH2])C(O)C([CH])O
3: [O]C1OC([CH2])C(O[CH])C(O)C1O>>[O]C1OC([CH2])C(O)C(O)C1O
4: [O]C([CH2])C(OC(O[CH])C([CH])O)C([CH])O>>[CH]OC(O)C([CH])O
5: [O]C([CH])OC1C(O)C(O)[CH]OC1CO>>OCC1O[CH]C(O)C(O)C1O
6: [O]C1OC([CH2])C(O[CH])C(O)C1O>>OC1OC([CH2])C(O)C(O)C1O
7: [O]C1OC([CH2])C(O[CH])C(O)C1O>>[O]C1OC([CH2])C(O)C(O)C1O
8: [O]C([CH2])C(OC(O[CH])C([CH])O)C([CH])O>>[O]C([CH2])C(O)C([CH])O
9: [CH]C([CH])OC1OC([CH2])[CH]C(O)C1O>>OC1OC([CH2])[CH]C(O)C1O
10: O>>[CH]OC(O)C([CH])O
11: [CH]C([CH])OC1OC([CH2])[CH]C(O)C1O>>[CH]C([CH])OC1OC([CH2])[CH]C(O)C1O
12: [CH]C([CH])OC1OC([CH2])[CH]C(O)C1O>>OC1OC([CH2])[CH]C(O)C1O


//
REACTION MMP (RPAIR)
1: R:M00001, P:M00003	[OCC1OC2OC3C(O)C(O)C(OC3CO)OC4C(O)C(O)C(OC4CO)OC5C(O)C(O)C(OC5CO)OC6C(O)C(O)C(OC6CO)OC7C(O)C(O)C(OC7CO)OC1C(O)C2O>>OCC1OC(O)C(O)C(O)C1O, OCC1OC2OC3C(O)C(O)C(OC3CO)OC4C(O)C(O)C(OC4CO)OC5C(O)C(O)C(OC5CO)OC6C(O)C(O)C(OC6CO)OC7C(O)C(O)C(OC7CO)OC1C(O)C2O>>OCC1OC(O)C(O)C(O)C1O, OCC1OC2OC3C(O)C(O)C(OC3CO)OC4C(O)C(O)C(OC4CO)OC5C(O)C(O)C(OC5CO)OC6C(O)C(O)C(OC6CO)OC7C(O)C(O)C(OC7CO)OC1C(O)C2O>>OCC1OC(O)C(O)C(O)C1O]
2: R:M00001, P:M00004	[OCC1OC2OC3C(O)C(O)C(OC3CO)OC4C(O)C(O)C(OC4CO)OC5C(O)C(O)C(OC5CO)OC6C(O)C(O)C(OC6CO)OC7C(O)C(O)C(OC7CO)OC1C(O)C2O>>OCC1OC(OC2C(O)C(O)C(O)OC2CO)C(O)C(O)C1O, OCC1OC2OC3C(O)C(O)C(OC3CO)OC4C(O)C(O)C(OC4CO)OC5C(O)C(O)C(OC5CO)OC6C(O)C(O)C(OC6CO)OC7C(O)C(O)C(OC7CO)OC1C(O)C2O>>OCC1OC(OC2C(O)C(O)C(O)OC2CO)C(O)C(O)C1O, OCC1OC2OC3C(O)C(O)C(OC3CO)OC4C(O)C(O)C(OC4CO)OC5C(O)C(O)C(OC5CO)OC6C(O)C(O)C(OC6CO)OC7C(O)C(O)C(OC7CO)OC1C(O)C2O>>OCC1OC(OC2C(O)C(O)C(O)OC2CO)C(O)C(O)C1O, OCC1OC2OC3C(O)C(O)C(OC3CO)OC4C(O)C(O)C(OC4CO)OC5C(O)C(O)C(OC5CO)OC6C(O)C(O)C(OC6CO)OC7C(O)C(O)C(OC7CO)OC1C(O)C2O>>OCC1OC(OC2C(O)C(O)C(O)OC2CO)C(O)C(O)C1O]
3: R:M00001, P:M00005	[OCC1OC2OC3C(O)C(O)C(OC3CO)OC4C(O)C(O)C(OC4CO)OC5C(O)C(O)C(OC5CO)OC6C(O)C(O)C(OC6CO)OC7C(O)C(O)C(OC7CO)OC1C(O)C2O>>OCC1OC(OC2C(O)C(O)C(OC2CO)OC3C(O)C(O)C(O)OC3CO)C(O)C(O)C1O, OCC1OC2OC3C(O)C(O)C(OC3CO)OC4C(O)C(O)C(OC4CO)OC5C(O)C(O)C(OC5CO)OC6C(O)C(O)C(OC6CO)OC7C(O)C(O)C(OC7CO)OC1C(O)C2O>>OCC1OC(OC2C(O)C(O)C(OC2CO)OC3C(O)C(O)C(O)OC3CO)C(O)C(O)C1O, OCC1OC2OC3C(O)C(O)C(OC3CO)OC4C(O)C(O)C(OC4CO)OC5C(O)C(O)C(OC5CO)OC6C(O)C(O)C(OC6CO)OC7C(O)C(O)C(OC7CO)OC1C(O)C2O>>OCC1OC(OC2C(O)C(O)C(OC2CO)OC3C(O)C(O)C(O)OC3CO)C(O)C(O)C1O, OCC1OC2OC3C(O)C(O)C(OC3CO)OC4C(O)C(O)C(OC4CO)OC5C(O)C(O)C(OC5CO)OC6C(O)C(O)C(OC6CO)OC7C(O)C(O)C(OC7CO)OC1C(O)C2O>>OCC1OC(OC2C(O)C(O)C(OC2CO)OC3C(O)C(O)C(O)OC3CO)C(O)C(O)C1O]
4: R:M00002, P:M00004	[O>>OCC1OC(OC2C(O)C(O)C(O)OC2CO)C(O)C(O)C1O]


//
SELECTED AAM MAPPING
[OH2:67].[OH:38][CH2:37][CH:36]1[O:35][CH:34]2[O:39][CH:40]3[CH:41]([OH:42])[CH:43]([OH:44])[CH:45]([O:46][CH:47]3[CH2:48][OH:49])[O:50][CH:51]4[CH:52]([OH:53])[CH:54]([OH:55])[CH:56]([O:57][CH:58]4[CH2:59][OH:60])[O:61][CH:62]5[CH:63]([OH:64])[CH:65]([OH:66])[CH:5]([O:4][CH:3]5[CH2:2][OH:1])[O:6][CH:7]6[CH:8]([OH:9])[CH:10]([OH:11])[CH:12]([O:13][CH:14]6[CH2:15][OH:16])[O:17][CH:18]7[CH:19]([OH:20])[CH:21]([OH:22])[CH:23]([O:24][CH:25]7[CH2:26][OH:27])[O:28][CH:29]1[CH:30]([OH:31])[CH:32]2[OH:33]>>[OH:38][CH2:37][CH:36]1[O:35][CH:34]([OH:68])[CH:32]([OH:33])[CH:30]([OH:31])[CH:29]1[OH:69].[OH:49][CH2:48][CH:47]1[O:46][CH:45]([O:50][CH:51]2[CH:52]([OH:53])[CH:54]([OH:55])[CH:56]([OH:67])[O:57][CH:58]2[CH2:59][OH:60])[CH:43]([OH:44])[CH:41]([OH:42])[CH:40]1[OH:39].[OH:1][CH2:2][CH:3]1[O:4][CH:5]([O:6][CH:7]2[CH:8]([OH:9])[CH:10]([OH:11])[CH:12]([O:13][CH:14]2[CH2:15][OH:16])[O:17][CH:18]3[CH:19]([OH:20])[CH:21]([OH:22])[CH:23]([OH:28])[O:24][CH:25]3[CH2:26][OH:27])[CH:65]([OH:66])[CH:63]([OH:64])[CH:62]1[OH:61]


//
REACTANT INPUT ATOM INDEX<->AAM ID
{1=15, 2=14, 3=7, 4=8, 5=10, 6=12, 7=13, 8=17, 9=18, 10=25, 11=24, 12=23, 13=21, 14=19, 15=20, 16=22, 17=28, 18=29, 19=36, 20=35, 21=34, 22=32, 23=30, 24=31, 25=33, 26=39, 27=40, 28=47, 29=46, 30=45, 31=43, 32=41, 33=42, 34=44, 35=50, 36=51, 37=58, 38=57, 39=56, 40=54, 41=52, 42=53, 43=55, 44=61, 45=62, 46=3, 47=4, 48=5, 49=6, 50=65, 51=63, 52=64, 53=66, 54=2, 55=1, 56=59, 57=60, 58=48, 59=49, 60=37, 61=38, 62=26, 63=27, 64=11, 65=9, 66=16, 67=67}
PRODUCT INPUT ATOM INDEX<->AAM ID
{1=59, 2=60, 3=68, 4=66, 5=64, 6=62, 7=61, 8=63, 9=65, 10=67, 11=69, 12=58, 13=36, 14=37, 15=56, 16=54, 17=52, 18=39, 19=38, 20=40, 21=41, 22=49, 23=48, 24=46, 25=44, 26=42, 27=43, 28=45, 29=47, 30=50, 31=51, 32=53, 33=55, 34=57, 35=35, 36=2, 37=3, 38=33, 39=31, 40=29, 41=5, 42=4, 43=6, 44=7, 45=14, 46=13, 47=12, 48=10, 49=8, 50=9, 51=11, 52=17, 53=18, 54=26, 55=25, 56=23, 57=21, 58=19, 59=20, 60=22, 61=24, 62=27, 63=28, 64=15, 65=16, 66=30, 67=32, 68=34, 69=1}

