
//
FINGERPRINTS BC

FORMED_CLEAVED
[C-C:2.0, C-S:1.0]

ORDER_CHANGED
[C-O*C=O:1.0]

//
FINGERPRINTS RC
[O=C(O)CC(=O)S[CH2]>>[C]C(=[CH])C(=O)CC(=O)S[CH2]:1.0, O=C(O)[CH2]:2.0, O=C(O)[CH2]>>O=C=O:2.0, O=C(SC[CH2])C(=C[CH])C(=[CH])N>>O=C([S])CC(=O)C(=C[CH])C(=[CH])N:1.0, O=C([S])CC(=O)O:1.0, O=C([S])CC(=O)O>>O=C=O:1.0, O=C([S])CC(=O)O>>[C]C(=O)CC(=O)[S]:1.0, O=C=O:3.0, SC[CH2]:1.0, S[CH2]:1.0, [CH2]:2.0, [C]:4.0, [C]=O:1.0, [C]C(=O)CC(=O)[S]:1.0, [C]C(=O)SC[CH2]:1.0, [C]C(=O)SC[CH2]>>SC[CH2]:1.0, [C]C(=O)[CH2]:1.0, [C]C(=O)[S]:1.0, [C]C(=O)[S]>>[C]C(=O)[CH2]:1.0, [C]C(=[CH])C(=O)C[C]:1.0, [C]C(=[CH])C(=O)SCC[NH]>>[NH]CCS:1.0, [C]C(=[CH])C(=O)S[CH2]:1.0, [C]C(=[CH])C(=O)S[CH2]>>[C]C(=[CH])C(=O)C[C]:1.0, [C]CC(=O)O:1.0, [C]CC(=O)O>>O=C=O:2.0, [C]C[C]:2.0, [C]C[C]>>[C]C[C]:1.0, [C]O:1.0, [C]O>>[C]=O:1.0, [C]S[CH2]:1.0, [C]S[CH2]>>S[CH2]:1.0, [OH]:1.0, [O]:1.0, [SH]:1.0, [S]:1.0]

//
Reaction Centre Formed/Cleaved

ID=Reaction Center at Level: 0 (3)
[[CH2]:2.0, [C]:3.0, [S]:1.0]


ID=Reaction Center at Level: 1 (5)
[O=C(O)[CH2]:1.0, [C]C(=O)[CH2]:1.0, [C]C(=O)[S]:1.0, [C]C[C]:2.0, [C]S[CH2]:1.0]


ID=Reaction Center at Level: 2 (6)
[O=C([S])CC(=O)O:1.0, [C]C(=O)CC(=O)[S]:1.0, [C]C(=O)SC[CH2]:1.0, [C]C(=[CH])C(=O)C[C]:1.0, [C]C(=[CH])C(=O)S[CH2]:1.0, [C]CC(=O)O:1.0]


Reaction Centre Order Changed

ID=Reaction Center at Level: 0 (3)
[[C]:2.0, [OH]:1.0, [O]:1.0]


ID=Reaction Center at Level: 1 (4)
[O=C(O)[CH2]:1.0, O=C=O:1.0, [C]=O:1.0, [C]O:1.0]


ID=Reaction Center at Level: 2 (3)
[O=C(O)[CH2]:1.0, O=C=O:2.0, [C]CC(=O)O:1.0]


Reaction Centre Stereo Changes


//
TRANSFORMATIONS
MMP Level 1
1: [C]C(=O)[S]>>[C]C(=O)[CH2]
2: [C]C[C]>>[C]C[C]
3: O=C(O)[CH2]>>O=C=O
4: [C]O>>[C]=O
5: [C]S[CH2]>>S[CH2]

MMP Level 2
1: [C]C(=[CH])C(=O)S[CH2]>>[C]C(=[CH])C(=O)C[C]
2: O=C([S])CC(=O)O>>[C]C(=O)CC(=O)[S]
3: [C]CC(=O)O>>O=C=O
4: O=C(O)[CH2]>>O=C=O
5: [C]C(=O)SC[CH2]>>SC[CH2]

MMP Level 3
1: O=C(SC[CH2])C(=C[CH])C(=[CH])N>>O=C([S])CC(=O)C(=C[CH])C(=[CH])N
2: O=C(O)CC(=O)S[CH2]>>[C]C(=[CH])C(=O)CC(=O)S[CH2]
3: O=C([S])CC(=O)O>>O=C=O
4: [C]CC(=O)O>>O=C=O
5: [C]C(=[CH])C(=O)SCC[NH]>>[NH]CCS


//
REACTION MMP (RPAIR)
1: R:M00001, P:M00003	[O=C(SCCNC(=O)CCNC(=O)C(O)C(C)(C)COP(=O)(O)OP(=O)(O)OCC1OC(n2cnc3c(ncnc32)N)C(O)C1OP(=O)(O)O)c4ccccc4N>>O=C(SCCNC(=O)CCNC(=O)C(O)C(C)(C)COP(=O)(O)OP(=O)(O)OCC1OC(n2cnc3c(ncnc32)N)C(O)C1OP(=O)(O)O)CC(=O)c4ccccc4N]
2: R:M00001, P:M00004	[O=C(SCCNC(=O)CCNC(=O)C(O)C(C)(C)COP(=O)(O)OP(=O)(O)OCC1OC(n2cnc3c(ncnc32)N)C(O)C1OP(=O)(O)O)c4ccccc4N>>O=C(NCCS)CCNC(=O)C(O)C(C)(C)COP(=O)(O)OP(=O)(O)OCC1OC(n2cnc3c(ncnc32)N)C(O)C1OP(=O)(O)O]
3: R:M00002, P:M00003	[O=C(O)CC(=O)SCCNC(=O)CCNC(=O)C(O)C(C)(C)COP(=O)(O)OP(=O)(O)OCC1OC(n2cnc3c(ncnc32)N)C(O)C1OP(=O)(O)O>>O=C(SCCNC(=O)CCNC(=O)C(O)C(C)(C)COP(=O)(O)OP(=O)(O)OCC1OC(n2cnc3c(ncnc32)N)C(O)C1OP(=O)(O)O)CC(=O)c4ccccc4N]
4: R:M00002, P:M00005	[O=C(O)CC(=O)SCCNC(=O)CCNC(=O)C(O)C(C)(C)COP(=O)(O)OP(=O)(O)OCC1OC(n2cnc3c(ncnc32)N)C(O)C1OP(=O)(O)O>>O=C=O, O=C(O)CC(=O)SCCNC(=O)CCNC(=O)C(O)C(C)(C)COP(=O)(O)OP(=O)(O)OCC1OC(n2cnc3c(ncnc32)N)C(O)C1OP(=O)(O)O>>O=C=O]


//
SELECTED AAM MAPPING
[O:58]=[C:59]([OH:60])[CH2:61][C:62](=[O:63])[S:64][CH2:65][CH2:66][NH:67][C:68](=[O:69])[CH2:70][CH2:71][NH:72][C:73](=[O:74])[CH:75]([OH:76])[C:77]([CH3:78])([CH3:79])[CH2:80][O:81][P:82](=[O:83])([OH:84])[O:85][P:86](=[O:87])([OH:88])[O:89][CH2:90][CH:91]1[O:92][CH:93]([N:94]:2:[CH:95]:[N:96]:[C:97]:3:[C:98](:[N:99]:[CH:100]:[N:101]:[C:102]32)[NH2:103])[CH:104]([OH:105])[CH:106]1[O:107][P:108](=[O:109])([OH:110])[OH:111].[O:1]=[C:2]([S:3][CH2:4][CH2:5][NH:6][C:7](=[O:8])[CH2:9][CH2:10][NH:11][C:12](=[O:13])[CH:14]([OH:15])[C:16]([CH3:17])([CH3:18])[CH2:19][O:20][P:21](=[O:22])([OH:23])[O:24][P:25](=[O:26])([OH:27])[O:28][CH2:29][CH:30]1[O:31][CH:32]([N:33]:2:[CH:34]:[N:35]:[C:36]:3:[C:37](:[N:38]:[CH:39]:[N:40]:[C:41]32)[NH2:42])[CH:43]([OH:44])[CH:45]1[O:46][P:47](=[O:48])([OH:49])[OH:50])[C:51]:4:[CH:52]:[CH:53]:[CH:54]:[CH:55]:[C:56]4[NH2:57]>>[O:58]=[C:59]=[O:60].[O:63]=[C:62]([S:64][CH2:65][CH2:66][NH:67][C:68](=[O:69])[CH2:70][CH2:71][NH:72][C:73](=[O:74])[CH:75]([OH:76])[C:77]([CH3:78])([CH3:79])[CH2:80][O:81][P:82](=[O:83])([OH:84])[O:85][P:86](=[O:87])([OH:88])[O:89][CH2:90][CH:91]1[O:92][CH:93]([N:94]:2:[CH:95]:[N:96]:[C:97]:3:[C:98](:[N:99]:[CH:100]:[N:101]:[C:102]32)[NH2:103])[CH:104]([OH:105])[CH:106]1[O:107][P:108](=[O:109])([OH:110])[OH:111])[CH2:61][C:2](=[O:1])[C:51]:4:[CH:52]:[CH:53]:[CH:54]:[CH:55]:[C:56]4[NH2:57].[O:8]=[C:7]([NH:6][CH2:5][CH2:4][SH:3])[CH2:9][CH2:10][NH:11][C:12](=[O:13])[CH:14]([OH:15])[C:16]([CH3:17])([CH3:18])[CH2:19][O:20][P:21](=[O:22])([OH:23])[O:24][P:25](=[O:26])([OH:27])[O:28][CH2:29][CH:30]1[O:31][CH:32]([N:33]:2:[CH:34]:[N:35]:[C:36]:3:[C:37](:[N:38]:[CH:39]:[N:40]:[C:41]32)[NH2:42])[CH:43]([OH:44])[CH:45]1[O:46][P:47](=[O:48])([OH:49])[OH:50]


//
REACTANT INPUT ATOM INDEX<->AAM ID
{1=17, 2=16, 3=18, 4=19, 5=20, 6=21, 7=22, 8=23, 9=24, 10=25, 11=26, 12=27, 13=28, 14=29, 15=30, 16=45, 17=43, 18=32, 19=31, 20=33, 21=34, 22=35, 23=36, 24=41, 25=40, 26=39, 27=38, 28=37, 29=42, 30=44, 31=46, 32=47, 33=48, 34=49, 35=50, 36=14, 37=12, 38=13, 39=11, 40=10, 41=9, 42=7, 43=8, 44=6, 45=5, 46=4, 47=3, 48=2, 49=1, 50=51, 51=52, 52=53, 53=54, 54=55, 55=56, 56=57, 57=15, 58=78, 59=77, 60=79, 61=80, 62=81, 63=82, 64=83, 65=84, 66=85, 67=86, 68=87, 69=88, 70=89, 71=90, 72=91, 73=106, 74=104, 75=93, 76=92, 77=94, 78=95, 79=96, 80=97, 81=102, 82=101, 83=100, 84=99, 85=98, 86=103, 87=105, 88=107, 89=108, 90=109, 91=110, 92=111, 93=75, 94=73, 95=74, 96=72, 97=71, 98=70, 99=68, 100=69, 101=67, 102=66, 103=65, 104=64, 105=62, 106=63, 107=61, 108=59, 109=58, 110=60, 111=76}
PRODUCT INPUT ATOM INDEX<->AAM ID
{1=17, 2=16, 3=18, 4=19, 5=20, 6=21, 7=22, 8=23, 9=24, 10=25, 11=26, 12=27, 13=28, 14=29, 15=30, 16=45, 17=43, 18=32, 19=31, 20=33, 21=34, 22=35, 23=36, 24=41, 25=40, 26=39, 27=38, 28=37, 29=42, 30=44, 31=46, 32=47, 33=48, 34=49, 35=50, 36=14, 37=12, 38=13, 39=11, 40=10, 41=9, 42=7, 43=8, 44=6, 45=5, 46=4, 47=3, 48=2, 49=1, 50=51, 51=52, 52=53, 53=54, 54=55, 55=56, 56=57, 57=58, 58=59, 59=60, 60=15, 61=75, 62=74, 63=76, 64=77, 65=78, 66=79, 67=80, 68=81, 69=82, 70=83, 71=84, 72=85, 73=86, 74=87, 75=88, 76=103, 77=101, 78=90, 79=89, 80=91, 81=92, 82=93, 83=94, 84=99, 85=98, 86=97, 87=96, 88=95, 89=100, 90=102, 91=104, 92=105, 93=106, 94=107, 95=108, 96=72, 97=70, 98=71, 99=69, 100=68, 101=67, 102=62, 103=61, 104=63, 105=64, 106=65, 107=66, 108=73, 109=110, 110=109, 111=111}

