
//
FINGERPRINTS BC

FORMED_CLEAVED
[C-N:1.0, C-S:1.0]

//
FINGERPRINTS RC
[S([CH2])C:1.0, [CH2]:2.0, [CH2]CCN>>[CH2]CCNCC[CH2]:1.0, [CH2]CN:1.0, [CH2]CN>>[CH2]CNC[CH2]:1.0, [CH2]CNC[CH2]:1.0, [CH2]N:1.0, [CH2]N>>[CH2]N[CH2]:1.0, [CH2]NCC[CH2]:1.0, [CH2]N[CH2]:1.0, [CH2][S+](C)CC[CH2]:1.0, [CH2][S+](C)CC[CH2]>>[CH2]NCC[CH2]:1.0, [CH2][S+]([CH2])C:1.0, [CH2][S+]([CH2])C>>S([CH2])C:1.0, [CH]CSC:1.0, [CH]C[S+](C)CCCN>>[CH2]CNCCCN:1.0, [CH]C[S+](C)C[CH2]:1.0, [CH]C[S+](C)C[CH2]>>[CH]CSC:1.0, [NH2]:1.0, [NH]:1.0, [NH]C[CH2]:1.0, [O]C([CH])C[S+](C)CC[CH2]>>[O]C([CH])CSC:1.0, [S+]:1.0, [S+]C[CH2]:1.0, [S+]C[CH2]>>[NH]C[CH2]:1.0, [S]:1.0]

//
Reaction Centre Formed/Cleaved

ID=Reaction Center at Level: 0 (3)
[[CH2]:2.0, [NH]:1.0, [S+]:1.0]


ID=Reaction Center at Level: 1 (4)
[[CH2]N[CH2]:1.0, [CH2][S+]([CH2])C:1.0, [NH]C[CH2]:1.0, [S+]C[CH2]:1.0]


ID=Reaction Center at Level: 2 (4)
[[CH2]CNC[CH2]:1.0, [CH2]NCC[CH2]:1.0, [CH2][S+](C)CC[CH2]:1.0, [CH]C[S+](C)C[CH2]:1.0]


Reaction Centre Order Changed

Reaction Centre Stereo Changes


//
TRANSFORMATIONS
MMP Level 1
1: [CH2]N>>[CH2]N[CH2]
2: [CH2][S+]([CH2])C>>S([CH2])C
3: [S+]C[CH2]>>[NH]C[CH2]

MMP Level 2
1: [CH2]CN>>[CH2]CNC[CH2]
2: [CH]C[S+](C)C[CH2]>>[CH]CSC
3: [CH2][S+](C)CC[CH2]>>[CH2]NCC[CH2]

MMP Level 3
1: [CH2]CCN>>[CH2]CCNCC[CH2]
2: [O]C([CH])C[S+](C)CC[CH2]>>[O]C([CH])CSC
3: [CH]C[S+](C)CCCN>>[CH2]CNCCCN


//
REACTION MMP (RPAIR)
1: R:M00001, P:M00003	[OC1C(O)C(OC1n2cnc3c(ncnc32)N)C[S+](C)CCCN>>OC1C(O)C(OC1n2cnc3c(ncnc32)N)CSC]
2: R:M00001, P:M00004	[OC1C(O)C(OC1n2cnc3c(ncnc32)N)C[S+](C)CCCN>>NCCCNCCCCN]
3: R:M00002, P:M00004	[NCCCCN>>NCCCNCCCCN]


//
SELECTED AAM MAPPING
[OH:1][CH:2]1[CH:3]([OH:4])[CH:5]([O:6][CH:7]1[N:8]:2:[CH:9]:[N:10]:[C:11]:3:[C:12](:[N:13]:[CH:14]:[N:15]:[C:16]32)[NH2:17])[CH2:18][S+:19]([CH3:20])[CH2:21][CH2:22][CH2:23][NH2:24].[NH2:25][CH2:26][CH2:27][CH2:28][CH2:29][NH2:30]>>[OH:1][CH:2]1[CH:3]([OH:4])[CH:5]([O:6][CH:7]1[N:8]:2:[CH:9]:[N:10]:[C:11]:3:[C:12](:[N:13]:[CH:14]:[N:15]:[C:16]32)[NH2:17])[CH2:18][S:19][CH3:20].[NH2:24][CH2:23][CH2:22][CH2:21][NH:25][CH2:26][CH2:27][CH2:28][CH2:29][NH2:30]


//
REACTANT INPUT ATOM INDEX<->AAM ID
{1=20, 2=19, 3=21, 4=22, 5=23, 6=24, 7=18, 8=5, 9=3, 10=2, 11=7, 12=6, 13=8, 14=9, 15=10, 16=11, 17=16, 18=15, 19=14, 20=13, 21=12, 22=17, 23=1, 24=4, 25=28, 26=27, 27=26, 28=25, 29=29, 30=30}
PRODUCT INPUT ATOM INDEX<->AAM ID
{1=20, 2=19, 3=18, 4=5, 5=3, 6=2, 7=7, 8=6, 9=8, 10=9, 11=10, 12=11, 13=16, 14=15, 15=14, 16=13, 17=12, 18=17, 19=1, 20=4, 21=28, 22=27, 23=26, 24=25, 25=24, 26=23, 27=22, 28=21, 29=29, 30=30}

