
//
FINGERPRINTS BC

FORMED_CLEAVED
[C-O:1.0, C-S:1.0]

//
FINGERPRINTS RC
[S([CH2])[CH2]:1.0, [CH2][S+]([CH2])C:2.0, [CH2][S+]([CH2])C>>S([CH2])[CH2]:1.0, [CH2][S+]([CH2])C>>[C]OC:1.0, [CH3]:2.0, [CH]C(=[CH])O:1.0, [CH]C(=[CH])O>>[CH]C(=[CH])OC:1.0, [CH]C(=[CH])OC:1.0, [CH]CSC[CH2]:1.0, [CH]C[S+](C)C[CH2]:1.0, [CH]C[S+](C)C[CH2]>>[CH]C(=[CH])OC:1.0, [CH]C[S+](C)C[CH2]>>[CH]CSC[CH2]:1.0, [C]C=C(O)C=[CH]>>[C]C=C(OC)C=[CH]:1.0, [C]O:1.0, [C]O>>[C]OC:1.0, [C]OC:2.0, [OH]:1.0, [O]:1.0, [O]C:1.0, [O]C([CH])C[S+](C)CC[CH]>>[O]C([CH])CSCC[CH]:1.0, [S+]:1.0, [S+]C:1.0, [S+]C>>[O]C:1.0, [S]:1.0]

//
Reaction Centre Formed/Cleaved

ID=Reaction Center at Level: 0 (3)
[[CH3]:2.0, [O]:1.0, [S+]:1.0]


ID=Reaction Center at Level: 1 (4)
[[CH2][S+]([CH2])C:1.0, [C]OC:1.0, [O]C:1.0, [S+]C:1.0]


ID=Reaction Center at Level: 2 (4)
[[CH2][S+]([CH2])C:1.0, [CH]C(=[CH])OC:1.0, [CH]C[S+](C)C[CH2]:1.0, [C]OC:1.0]


Reaction Centre Order Changed

Reaction Centre Stereo Changes


//
TRANSFORMATIONS
MMP Level 1
1: [CH2][S+]([CH2])C>>S([CH2])[CH2]
2: [S+]C>>[O]C
3: [C]O>>[C]OC

MMP Level 2
1: [CH]C[S+](C)C[CH2]>>[CH]CSC[CH2]
2: [CH2][S+]([CH2])C>>[C]OC
3: [CH]C(=[CH])O>>[CH]C(=[CH])OC

MMP Level 3
1: [O]C([CH])C[S+](C)CC[CH]>>[O]C([CH])CSCC[CH]
2: [CH]C[S+](C)C[CH2]>>[CH]C(=[CH])OC
3: [C]C=C(O)C=[CH]>>[C]C=C(OC)C=[CH]


//
REACTION MMP (RPAIR)
1: R:M00001, P:M00003	[O=C(O)C(N)CC[S+](C)CC1OC(n2cnc3c(ncnc32)N)C(O)C1O>>O=C(O)C(N)CCSCC1OC(n2cnc3c(ncnc32)N)C(O)C1O]
2: R:M00001, P:M00004	[O=C(O)C(N)CC[S+](C)CC1OC(n2cnc3c(ncnc32)N)C(O)C1O>>O=C(NCCc1c[nH]c2ccc(OC)cc21)C]
3: R:M00002, P:M00004	[O=C(NCCc1c[nH]c2ccc(O)cc21)C>>O=C(NCCc1c[nH]c2ccc(OC)cc21)C]


//
SELECTED AAM MAPPING
[O:1]=[C:2]([OH:3])[CH:4]([NH2:5])[CH2:6][CH2:7][S+:8]([CH3:9])[CH2:10][CH:11]1[O:12][CH:13]([N:14]:2:[CH:15]:[N:16]:[C:17]:3:[C:18](:[N:19]:[CH:20]:[N:21]:[C:22]32)[NH2:23])[CH:24]([OH:25])[CH:26]1[OH:27].[O:28]=[C:29]([NH:30][CH2:31][CH2:32][C:33]:1:[CH:34]:[NH:35]:[C:36]:2:[CH:37]:[CH:38]:[C:39]([OH:40]):[CH:41]:[C:42]21)[CH3:43]>>[O:1]=[C:2]([OH:3])[CH:4]([NH2:5])[CH2:6][CH2:7][S:8][CH2:10][CH:11]1[O:12][CH:13]([N:14]:2:[CH:15]:[N:16]:[C:17]:3:[C:18](:[N:19]:[CH:20]:[N:21]:[C:22]32)[NH2:23])[CH:24]([OH:25])[CH:26]1[OH:27].[O:28]=[C:29]([NH:30][CH2:31][CH2:32][C:33]:1:[CH:34]:[NH:35]:[C:36]:2:[CH:37]:[CH:38]:[C:39]([O:40][CH3:9]):[CH:41]:[C:42]21)[CH3:43]


//
REACTANT INPUT ATOM INDEX<->AAM ID
{1=9, 2=8, 3=7, 4=6, 5=4, 6=2, 7=1, 8=3, 9=5, 10=10, 11=11, 12=26, 13=24, 14=13, 15=12, 16=14, 17=15, 18=16, 19=17, 20=22, 21=21, 22=20, 23=19, 24=18, 25=23, 26=25, 27=27, 28=43, 29=29, 30=28, 31=30, 32=31, 33=32, 34=33, 35=34, 36=35, 37=36, 38=42, 39=41, 40=39, 41=38, 42=37, 43=40}
PRODUCT INPUT ATOM INDEX<->AAM ID
{1=19, 2=20, 3=21, 4=16, 5=17, 6=18, 7=22, 8=15, 9=14, 10=13, 11=12, 12=23, 13=25, 14=10, 15=11, 16=9, 17=8, 18=7, 19=6, 20=4, 21=2, 22=1, 23=3, 24=5, 25=26, 26=24, 27=43, 28=28, 29=27, 30=29, 31=30, 32=31, 33=32, 34=33, 35=34, 36=35, 37=42, 38=41, 39=38, 40=37, 41=36, 42=39, 43=40}

