
//
FINGERPRINTS BC

FORMED_CLEAVED
[C-S:1.0]

//
FINGERPRINTS RC
[O=C(N)C1=C[N]C=CC1>>O=C(N)C=1C=[N+]C=CC1:1.0, O=C(O)CC(=O)SC[CH2]>>O=CCC(=O)O:1.0, O=C(SC[CH2])[CH2]:1.0, O=C(SC[CH2])[CH2]>>SC[CH2]:1.0, O=C([S])[CH2]:1.0, O=C([S])[CH2]>>O=C[CH2]:1.0, O=C[CH2]:1.0, SC[CH2]:1.0, S[CH2]:1.0, [CH2]:1.0, [CH]:2.0, [CH]N([CH])[CH]:1.0, [CH]N([CH])[CH]>>[CH][N+]([CH])=[CH]:1.0, [CH][N+]([CH])=[CH]:1.0, [C]:1.0, [C]=CN(C=[CH])C([O])[CH]:1.0, [C]=CN(C=[CH])C([O])[CH]>>[C]=C[N+](=C[CH])C([O])[CH]:1.0, [C]=C[N+](=C[CH])C([O])[CH]:1.0, [C]C(=[CH])C=C[CH]:1.0, [C]C(=[CH])CC=[CH]:1.0, [C]C(=[CH])CC=[CH]>>[C]C(=[CH])C=C[CH]:1.0, [C]C1=CN(C=CC1)C2O[CH][CH]C2O>>[C]c1ccc[n+](c1)C2O[CH][CH]C2O:1.0, [C]C=[CH]:1.0, [C]CC(=O)SCC[NH]>>[NH]CCS:1.0, [C]CC(=O)S[CH2]:1.0, [C]CC(=O)S[CH2]>>[C]CC=O:1.0, [C]CC=O:1.0, [C]C[CH]:1.0, [C]C[CH]>>[C]C=[CH]:1.0, [C]S[CH2]:1.0, [C]S[CH2]>>S[CH2]:1.0, [N+]:1.0, [N]:1.0, [SH]:1.0, [S]:1.0]

//
Reaction Centre Formed/Cleaved

ID=Reaction Center at Level: 0 (2)
[[C]:1.0, [S]:1.0]


ID=Reaction Center at Level: 1 (2)
[O=C([S])[CH2]:1.0, [C]S[CH2]:1.0]


ID=Reaction Center at Level: 2 (2)
[O=C(SC[CH2])[CH2]:1.0, [C]CC(=O)S[CH2]:1.0]


Reaction Centre Order Changed

Reaction Centre Stereo Changes


//
TRANSFORMATIONS
MMP Level 1
1: [C]S[CH2]>>S[CH2]
2: O=C([S])[CH2]>>O=C[CH2]
3: [C]C[CH]>>[C]C=[CH]
4: [CH]N([CH])[CH]>>[CH][N+]([CH])=[CH]

MMP Level 2
1: O=C(SC[CH2])[CH2]>>SC[CH2]
2: [C]CC(=O)S[CH2]>>[C]CC=O
3: [C]C(=[CH])CC=[CH]>>[C]C(=[CH])C=C[CH]
4: [C]=CN(C=[CH])C([O])[CH]>>[C]=C[N+](=C[CH])C([O])[CH]

MMP Level 3
1: [C]CC(=O)SCC[NH]>>[NH]CCS
2: O=C(O)CC(=O)SC[CH2]>>O=CCC(=O)O
3: O=C(N)C1=C[N]C=CC1>>O=C(N)C=1C=[N+]C=CC1
4: [C]C1=CN(C=CC1)C2O[CH][CH]C2O>>[C]c1ccc[n+](c1)C2O[CH][CH]C2O


//
REACTION MMP (RPAIR)
1: R:M00001, P:M00006	[O=C(N)C1=CN(C=CC1)C2OC(COP(=O)(O)OP(=O)(O)OCC3OC(n4cnc5c(ncnc54)N)C(OP(=O)(O)O)C3O)C(O)C2O>>O=C(N)c1ccc[n+](c1)C2OC(COP(=O)(O)OP(=O)(O)OCC3OC(n4cnc5c(ncnc54)N)C(OP(=O)(O)O)C3O)C(O)C2O, O=C(N)C1=CN(C=CC1)C2OC(COP(=O)(O)OP(=O)(O)OCC3OC(n4cnc5c(ncnc54)N)C(OP(=O)(O)O)C3O)C(O)C2O>>O=C(N)c1ccc[n+](c1)C2OC(COP(=O)(O)OP(=O)(O)OCC3OC(n4cnc5c(ncnc54)N)C(OP(=O)(O)O)C3O)C(O)C2O]
2: R:M00003, P:M00004	[O=C(O)CC(=O)SCCNC(=O)CCNC(=O)C(O)C(C)(C)COP(=O)(O)OP(=O)(O)OCC1OC(n2cnc3c(ncnc32)N)C(O)C1OP(=O)(O)O>>O=C(NCCS)CCNC(=O)C(O)C(C)(C)COP(=O)(O)OP(=O)(O)OCC1OC(n2cnc3c(ncnc32)N)C(O)C1OP(=O)(O)O]
3: R:M00003, P:M00005	[O=C(O)CC(=O)SCCNC(=O)CCNC(=O)C(O)C(C)(C)COP(=O)(O)OP(=O)(O)OCC1OC(n2cnc3c(ncnc32)N)C(O)C1OP(=O)(O)O>>O=CCC(=O)O]


//
SELECTED AAM MAPPING
[H+:103].[O:1]=[C:2]([OH:3])[CH2:4][C:5](=[O:6])[S:7][CH2:8][CH2:9][NH:10][C:11](=[O:12])[CH2:13][CH2:14][NH:15][C:16](=[O:17])[CH:18]([OH:19])[C:20]([CH3:21])([CH3:22])[CH2:23][O:24][P:25](=[O:26])([OH:27])[O:28][P:29](=[O:30])([OH:31])[O:32][CH2:33][CH:34]1[O:35][CH:36]([N:37]:2:[CH:38]:[N:39]:[C:40]:3:[C:41](:[N:42]:[CH:43]:[N:44]:[C:45]32)[NH2:46])[CH:47]([OH:48])[CH:49]1[O:50][P:51](=[O:52])([OH:53])[OH:54].[O:55]=[C:56]([NH2:57])[C:58]1=[CH:59][N:60]([CH:61]=[CH:62][CH2:63]1)[CH:64]2[O:65][CH:66]([CH2:67][O:68][P:69](=[O:70])([OH:71])[O:72][P:73](=[O:74])([OH:75])[O:76][CH2:77][CH:78]3[O:79][CH:80]([N:81]:4:[CH:82]:[N:83]:[C:84]:5:[C:85](:[N:86]:[CH:87]:[N:88]:[C:89]54)[NH2:90])[CH:91]([O:92][P:93](=[O:94])([OH:95])[OH:96])[CH:97]3[OH:98])[CH:99]([OH:100])[CH:101]2[OH:102]>>[O:6]=[CH:5][CH2:4][C:2](=[O:1])[OH:3].[O:55]=[C:56]([NH2:57])[C:58]:1:[CH:63]:[CH:62]:[CH:61]:[N+:60](:[CH:59]1)[CH:64]2[O:65][CH:66]([CH2:67][O:68][P:69](=[O:70])([OH:71])[O:72][P:73](=[O:74])([OH:75])[O:76][CH2:77][CH:78]3[O:79][CH:80]([N:81]:4:[CH:82]:[N:83]:[C:84]:5:[C:85](:[N:86]:[CH:87]:[N:88]:[C:89]54)[NH2:90])[CH:91]([O:92][P:93](=[O:94])([OH:95])[OH:96])[CH:97]3[OH:98])[CH:99]([OH:100])[CH:101]2[OH:102].[O:12]=[C:11]([NH:10][CH2:9][CH2:8][SH:7])[CH2:13][CH2:14][NH:15][C:16](=[O:17])[CH:18]([OH:19])[C:20]([CH3:21])([CH3:22])[CH2:23][O:24][P:25](=[O:26])([OH:27])[O:28][P:29](=[O:30])([OH:31])[O:32][CH2:33][CH:34]1[O:35][CH:36]([N:37]:2:[CH:38]:[N:39]:[C:40]:3:[C:41](:[N:42]:[CH:43]:[N:44]:[C:45]32)[NH2:46])[CH:47]([OH:48])[CH:49]1[O:50][P:51](=[O:52])([OH:53])[OH:54]


//
REACTANT INPUT ATOM INDEX<->AAM ID
{1=63, 2=62, 3=61, 4=60, 5=59, 6=58, 7=56, 8=55, 9=57, 10=64, 11=101, 12=99, 13=66, 14=65, 15=67, 16=68, 17=69, 18=70, 19=71, 20=72, 21=73, 22=74, 23=75, 24=76, 25=77, 26=78, 27=97, 28=91, 29=80, 30=79, 31=81, 32=82, 33=83, 34=84, 35=89, 36=88, 37=87, 38=86, 39=85, 40=90, 41=92, 42=93, 43=94, 44=95, 45=96, 46=98, 47=100, 48=102, 49=103, 50=21, 51=20, 52=22, 53=23, 54=24, 55=25, 56=26, 57=27, 58=28, 59=29, 60=30, 61=31, 62=32, 63=33, 64=34, 65=49, 66=47, 67=36, 68=35, 69=37, 70=38, 71=39, 72=40, 73=45, 74=44, 75=43, 76=42, 77=41, 78=46, 79=48, 80=50, 81=51, 82=52, 83=53, 84=54, 85=18, 86=16, 87=17, 88=15, 89=14, 90=13, 91=11, 92=12, 93=10, 94=9, 95=8, 96=7, 97=5, 98=6, 99=4, 100=2, 101=1, 102=3, 103=19}
PRODUCT INPUT ATOM INDEX<->AAM ID
{1=15, 2=14, 3=16, 4=17, 5=18, 6=19, 7=20, 8=21, 9=22, 10=23, 11=24, 12=25, 13=26, 14=27, 15=28, 16=43, 17=41, 18=30, 19=29, 20=31, 21=32, 22=33, 23=34, 24=39, 25=38, 26=37, 27=36, 28=35, 29=40, 30=42, 31=44, 32=45, 33=46, 34=47, 35=48, 36=12, 37=10, 38=11, 39=9, 40=8, 41=7, 42=2, 43=1, 44=3, 45=4, 46=5, 47=6, 48=13, 49=99, 50=98, 51=97, 52=100, 53=101, 54=102, 55=54, 56=53, 57=52, 58=57, 59=56, 60=55, 61=58, 62=95, 63=93, 64=60, 65=59, 66=61, 67=62, 68=63, 69=64, 70=65, 71=66, 72=67, 73=68, 74=69, 75=70, 76=71, 77=72, 78=91, 79=85, 80=74, 81=73, 82=75, 83=76, 84=77, 85=78, 86=83, 87=82, 88=81, 89=80, 90=79, 91=84, 92=86, 93=87, 94=88, 95=89, 96=90, 97=92, 98=94, 99=96, 100=50, 101=49, 102=51}

