
//
FINGERPRINTS BC

FORMED_CLEAVED
[C-O:2.0]

//
FINGERPRINTS RC
[O[CH2]:1.0, [CH2]:1.0, [CH]:1.0, [CH]CO:1.0, [CH]O:1.0, [CH]OC(O[CH2])C([CH])O:1.0, [CH]O[CH2]:2.0, [CH]O[CH2]>>O[CH2]:1.0, [CH]O[CH2]>>[CH]O:1.0, [OH]:2.0, [O]:2.0, [O]C([CH])COC(O[CH])C([CH])O>>[CH]OC(O)C([CH])O:1.0, [O]C([CH])COC(O[CH])C([CH])O>>[O]C([CH])CO:1.0, [O]C([CH])CO[CH]:1.0, [O]C([CH])O:1.0, [O]C([CH])OC[CH]:2.0, [O]C([CH])OC[CH]>>[CH]CO:1.0, [O]C([CH])OC[CH]>>[O]C([CH])O:1.0, [O]C([O])[CH]:1.0, [O]C[CH]:1.0]

//
Reaction Centre Formed/Cleaved

ID=Reaction Center at Level: 0 (3)
[[CH2]:1.0, [CH]:1.0, [O]:2.0]


ID=Reaction Center at Level: 1 (3)
[[CH]O[CH2]:2.0, [O]C([O])[CH]:1.0, [O]C[CH]:1.0]


ID=Reaction Center at Level: 2 (3)
[[CH]OC(O[CH2])C([CH])O:1.0, [O]C([CH])CO[CH]:1.0, [O]C([CH])OC[CH]:2.0]


Reaction Centre Order Changed

Reaction Centre Stereo Changes


//
TRANSFORMATIONS
MMP Level 1
1: [CH]O[CH2]>>[CH]O
2: [CH]O[CH2]>>O[CH2]

MMP Level 2
1: [O]C([CH])OC[CH]>>[O]C([CH])O
2: [O]C([CH])OC[CH]>>[CH]CO

MMP Level 3
1: [O]C([CH])COC(O[CH])C([CH])O>>[CH]OC(O)C([CH])O
2: [O]C([CH])COC(O[CH])C([CH])O>>[O]C([CH])CO


//
REACTION MMP (RPAIR)
1: R:M00001, P:M00003	[OCC1OC(OCC2OC(OCC3OC(OC4(OC(CO)C(O)C4O)CO)C(O)C(O)C3O)C(O)C(O)C2O)C(O)C(O)C1O>>OCC1OC(O)C(O)C(O)C1O]
2: R:M00001, P:M00004	[OCC1OC(OCC2OC(OCC3OC(OC4(OC(CO)C(O)C4O)CO)C(O)C(O)C3O)C(O)C(O)C2O)C(O)C(O)C1O>>OCC1OC(OC2(OC(CO)C(O)C2O)CO)C(O)C(O)C1O]


//
SELECTED AAM MAPPING
[OH2:46].[OH:1][CH2:2][CH:3]1[O:4][CH:5]([O:6][CH2:36][CH:37]2[O:38][CH:39]([O:7][CH2:8][CH:9]3[O:10][CH:11]([O:12][C:13]4([O:14][CH:15]([CH2:16][OH:17])[CH:18]([OH:19])[CH:20]4[OH:21])[CH2:22][OH:23])[CH:24]([OH:25])[CH:26]([OH:27])[CH:28]3[OH:29])[CH:40]([OH:41])[CH:42]([OH:43])[CH:44]2[OH:45])[CH:30]([OH:31])[CH:32]([OH:33])[CH:34]1[OH:35]>>[OH:1][CH2:2][CH:3]1[O:4][CH:5]([OH:6])[CH:30]([OH:31])[CH:32]([OH:33])[CH:34]1[OH:35].[OH:7][CH2:8][CH:9]1[O:10][CH:11]([O:12][C:13]2([O:14][CH:15]([CH2:16][OH:17])[CH:18]([OH:19])[CH:20]2[OH:21])[CH2:22][OH:23])[CH:24]([OH:25])[CH:26]([OH:27])[CH:28]1[OH:29]


//
REACTANT INPUT ATOM INDEX<->AAM ID
{1=2, 2=3, 3=44, 4=42, 5=40, 6=5, 7=4, 8=6, 9=7, 10=8, 11=38, 12=36, 13=34, 14=10, 15=9, 16=11, 17=12, 18=13, 19=32, 20=30, 21=28, 22=15, 23=14, 24=16, 25=17, 26=24, 27=22, 28=19, 29=18, 30=20, 31=21, 32=23, 33=25, 34=26, 35=27, 36=29, 37=31, 38=33, 39=35, 40=37, 41=39, 42=41, 43=43, 44=45, 45=1, 46=46}
PRODUCT INPUT ATOM INDEX<->AAM ID
{1=25, 2=26, 3=34, 4=32, 5=30, 6=28, 7=27, 8=29, 9=31, 10=33, 11=35, 12=24, 13=2, 14=3, 15=22, 16=20, 17=18, 18=5, 19=4, 20=6, 21=7, 22=14, 23=12, 24=9, 25=8, 26=10, 27=11, 28=13, 29=15, 30=16, 31=17, 32=19, 33=21, 34=23, 35=1}

