
//
FINGERPRINTS BC

FORMED_CLEAVED
[O=O:1.0]

//
FINGERPRINTS RC
[O:3.0, O=O:4.0, O=O>>O:3.0, [O]:2.0]

//
Reaction Centre Formed/Cleaved

ID=Reaction Center at Level: 0 (2)
[O:1.0, [O]:2.0]


ID=Reaction Center at Level: 1 (2)
[O:1.0, O=O:2.0]


ID=Reaction Center at Level: 2 (2)
[O:1.0, O=O:2.0]


Reaction Centre Order Changed

Reaction Centre Stereo Changes


//
TRANSFORMATIONS
MMP Level 1
1: O=O>>O

MMP Level 2
1: O=O>>O

MMP Level 3
1: O=O>>O


//
REACTION MMP (RPAIR)
1: R:M00002, P:M00003	[O=O>>O]


//
SELECTED AAM MAPPING
[O:1]=[O:10].[OH:2][C:3]:1:[CH:4]:[CH:5]:[CH:6]:[CH:7]:[C:8]1[OH:9]>>[OH2:1]


//
REACTANT INPUT ATOM INDEX<->AAM ID
{1=4, 2=5, 3=6, 4=7, 5=2, 6=3, 7=1, 8=8, 9=9, 10=10}
PRODUCT INPUT ATOM INDEX<->AAM ID
{1=1}

