
//
FINGERPRINTS BC

FORMED_CLEAVED
[N=O:1.0]

//
FINGERPRINTS RC
[O:3.0, O>>[N]=O:1.0, O>>[O-]N=O:2.0, ON:4.0, ON>>[N][O-]:1.0, ON>>[O-]N=O:5.0, [Fe+2]:3.0, [Fe+3]:3.0, [Fe+3]>>[Fe+2]:3.0, [NH2]:1.0, [N]:1.0, [N]=O:1.0, [N][O-]:1.0, [O-]:1.0, [O-]N=O:4.0, [OH]:1.0, [O]:1.0]

//
Reaction Centre Formed/Cleaved

ID=Reaction Center at Level: 0 (5)
[O:1.0, [Fe+2]:1.0, [Fe+3]:1.0, [N]:1.0, [O]:1.0]


ID=Reaction Center at Level: 1 (5)
[O:1.0, [Fe+2]:1.0, [Fe+3]:1.0, [N]=O:1.0, [O-]N=O:1.0]


ID=Reaction Center at Level: 2 (4)
[O:1.0, [Fe+2]:1.0, [Fe+3]:1.0, [O-]N=O:2.0]


Reaction Centre Order Changed

Reaction Centre Stereo Changes


//
TRANSFORMATIONS
MMP Level 1
1: ON>>[N][O-]
2: ON>>[O-]N=O
3: O>>[N]=O
4: [Fe+3]>>[Fe+2]

MMP Level 2
1: ON>>[O-]N=O
2: ON>>[O-]N=O
3: O>>[O-]N=O
4: [Fe+3]>>[Fe+2]

MMP Level 3
1: ON>>[O-]N=O
2: ON>>[O-]N=O
3: O>>[O-]N=O
4: [Fe+3]>>[Fe+2]


//
REACTION MMP (RPAIR)
1: R:M00001, P:M00005	[O>>[O-]N=O]
2: R:M00002, P:M00005	[ON>>[O-]N=O, ON>>[O-]N=O]
3: R:M00004, P:M00007	[[Fe+3]>>[Fe+2]]


//
SELECTED AAM MAPPING
[Fe+3:61].[O:1]=[C:2]([OH:3])[CH2:4][CH2:5][C:6]:1:[C:7]:2:[N-:8]:[C:9](:[CH:10]:[C:11]3:[N:12]:[C:13](:[CH:14]:[C:15]4:[N:16]:[C:17](:[CH:18]:[C:19]:5:[N-:20]:[C:21](:[CH:22]2):[C:23](:[C:24]5[CH3:25])[CH2:26][CH2:27][C:28](=[O:29])[OH:30])[C:31](=[C:32]4[CH3:33])[CH:34]([S:35][CH2:36][CH:37]([NH2:38])[C:39](=[O:40])[NH:41][CH3:42])[CH3:43])[C:44](=[C:45]3[CH3:46])[CH:47]([S:48][CH2:49][CH:50]([NH2:51])[C:52](=[O:53])[NH:54][CH3:55])[CH3:56]):[C:57]1[CH3:58].[OH2:62].[OH:59][NH2:60]>>[H+:63].[Fe+2:61].[O:62]=[N:60][O-:59].[O:1]=[C:2]([OH:3])[CH2:4][CH2:5][C:6]:1:[C:7]:2:[N-:8]:[C:9](:[CH:10]:[C:11]3:[N:12]:[C:13](:[CH:14]:[C:15]4:[N:16]:[C:17](:[CH:18]:[C:19]:5:[N-:20]:[C:21](:[CH:22]2):[C:23](:[C:24]5[CH3:25])[CH2:26][CH2:27][C:28](=[O:29])[OH:30])[C:31](=[C:32]4[CH3:33])[CH:34]([S:35][CH2:36][CH:37]([NH2:38])[C:39](=[O:40])[NH:41][CH3:42])[CH3:43])[C:44](=[C:45]3[CH3:46])[CH:47]([S:48][CH2:49][CH:50]([NH2:51])[C:52](=[O:53])[NH:54][CH3:55])[CH3:56]):[C:57]1[CH3:58]


//
REACTANT INPUT ATOM INDEX<->AAM ID
{1=62, 2=60, 3=59, 4=58, 5=57, 6=6, 7=7, 8=22, 9=21, 10=23, 11=24, 12=19, 13=20, 14=18, 15=17, 16=31, 17=32, 18=15, 19=16, 20=14, 21=13, 22=44, 23=45, 24=11, 25=12, 26=10, 27=9, 28=8, 29=46, 30=47, 31=56, 32=48, 33=49, 34=50, 35=52, 36=53, 37=54, 38=55, 39=51, 40=33, 41=34, 42=43, 43=35, 44=36, 45=37, 46=39, 47=40, 48=41, 49=42, 50=38, 51=25, 52=26, 53=27, 54=28, 55=29, 56=30, 57=5, 58=4, 59=2, 60=1, 61=3, 62=61}
PRODUCT INPUT ATOM INDEX<->AAM ID
{1=60, 2=59, 3=61, 4=63, 5=58, 6=57, 7=6, 8=7, 9=22, 10=21, 11=23, 12=24, 13=19, 14=20, 15=18, 16=17, 17=31, 18=32, 19=15, 20=16, 21=14, 22=13, 23=44, 24=45, 25=11, 26=12, 27=10, 28=9, 29=8, 30=46, 31=47, 32=56, 33=48, 34=49, 35=50, 36=52, 37=53, 38=54, 39=55, 40=51, 41=33, 42=34, 43=43, 44=35, 45=36, 46=37, 47=39, 48=40, 49=41, 50=42, 51=38, 52=25, 53=26, 54=27, 55=28, 56=29, 57=30, 58=5, 59=4, 60=2, 61=1, 62=3, 63=62}

