
//
FINGERPRINTS BC

ORDER_CHANGED
[C-O*C=O:1.0]

STEREO_CHANGED
[C(R/S):1.0]

//
FINGERPRINTS RC
[O=C(N)C=1C=[N+]C=CC1>>O=C(N)C1=C[N]C=CC1:1.0, O=C([CH2])C:2.0, O=C([S])CC(O)C>>O=C([S])CC(=O)C:1.0, OC([CH2])C:2.0, OC([CH2])C>>O=C([CH2])C:2.0, [CH2]:1.0, [CH]:2.0, [CH]N([CH])[CH]:1.0, [CH]O:1.0, [CH]O>>[C]=O:1.0, [CH][N+]([CH])=[CH]:1.0, [CH][N+]([CH])=[CH]>>[CH]N([CH])[CH]:1.0, [C]:1.0, [C]=CN(C=[CH])C([O])[CH]:1.0, [C]=C[N+](=C[CH])C([O])[CH]:1.0, [C]=C[N+](=C[CH])C([O])[CH]>>[C]=CN(C=[CH])C([O])[CH]:1.0, [C]=O:1.0, [C]C(=[CH])C=C[CH]:1.0, [C]C(=[CH])C=C[CH]>>[C]C(=[CH])CC=[CH]:1.0, [C]C(=[CH])CC=[CH]:1.0, [C]C=[CH]:1.0, [C]C=[CH]>>[C]C[CH]:1.0, [C]CC(=O)C:1.0, [C]CC(O)C:1.0, [C]CC(O)C>>[C]CC(=O)C:2.0, [C]C[CH]:1.0, [C]c1ccc[n+](c1)C2O[CH][CH]C2O>>[C]C1=CN(C=CC1)C2O[CH][CH]C2O:1.0, [N+]:1.0, [N]:1.0, [OH]:1.0, [O]:1.0]

//
Reaction Centre Formed/Cleaved

Reaction Centre Order Changed

ID=Reaction Center at Level: 0 (4)
[[CH]:1.0, [C]:1.0, [OH]:1.0, [O]:1.0]


ID=Reaction Center at Level: 1 (4)
[O=C([CH2])C:1.0, OC([CH2])C:1.0, [CH]O:1.0, [C]=O:1.0]


ID=Reaction Center at Level: 2 (4)
[O=C([CH2])C:1.0, OC([CH2])C:1.0, [C]CC(=O)C:1.0, [C]CC(O)C:1.0]


Reaction Centre Stereo Changes

ID=Reaction Center at Level: 0 (2)
[[CH]:1.0, [C]:1.0]


ID=Reaction Center at Level: 1 (2)
[O=C([CH2])C:1.0, OC([CH2])C:1.0]


ID=Reaction Center at Level: 2 (2)
[[C]CC(=O)C:1.0, [C]CC(O)C:1.0]



//
TRANSFORMATIONS
MMP Level 1
1: [CH][N+]([CH])=[CH]>>[CH]N([CH])[CH]
2: OC([CH2])C>>O=C([CH2])C
3: [C]C=[CH]>>[C]C[CH]
4: [CH]O>>[C]=O

MMP Level 2
1: [C]=C[N+](=C[CH])C([O])[CH]>>[C]=CN(C=[CH])C([O])[CH]
2: [C]CC(O)C>>[C]CC(=O)C
3: [C]C(=[CH])C=C[CH]>>[C]C(=[CH])CC=[CH]
4: OC([CH2])C>>O=C([CH2])C

MMP Level 3
1: [C]c1ccc[n+](c1)C2O[CH][CH]C2O>>[C]C1=CN(C=CC1)C2O[CH][CH]C2O
2: O=C([S])CC(O)C>>O=C([S])CC(=O)C
3: O=C(N)C=1C=[N+]C=CC1>>O=C(N)C1=C[N]C=CC1
4: [C]CC(O)C>>[C]CC(=O)C


//
REACTION MMP (RPAIR)
1: R:M00001, P:M00005	[O=C(SCCNC(=O)CCNC(=O)C(O)C(C)(C)COP(=O)(O)OP(=O)(O)OCC1OC(n2cnc3c(ncnc32)N)C(O)C1OP(=O)(O)O)CC(O)C>>O=C(SCCNC(=O)CCNC(=O)C(O)C(C)(C)COP(=O)(O)OP(=O)(O)OCC1OC(n2cnc3c(ncnc32)N)C(O)C1OP(=O)(O)O)CC(=O)C, O=C(SCCNC(=O)CCNC(=O)C(O)C(C)(C)COP(=O)(O)OP(=O)(O)OCC1OC(n2cnc3c(ncnc32)N)C(O)C1OP(=O)(O)O)CC(O)C>>O=C(SCCNC(=O)CCNC(=O)C(O)C(C)(C)COP(=O)(O)OP(=O)(O)OCC1OC(n2cnc3c(ncnc32)N)C(O)C1OP(=O)(O)O)CC(=O)C]
2: R:M00002, P:M00003	[O=C(N)c1ccc[n+](c1)C2OC(COP(=O)(O)OP(=O)(O)OCC3OC(n4cnc5c(ncnc54)N)C(O)C3O)C(O)C2O>>O=C(N)C1=CN(C=CC1)C2OC(COP(=O)(O)OP(=O)(O)OCC3OC(n4cnc5c(ncnc54)N)C(O)C3O)C(O)C2O, O=C(N)c1ccc[n+](c1)C2OC(COP(=O)(O)OP(=O)(O)OCC3OC(n4cnc5c(ncnc54)N)C(O)C3O)C(O)C2O>>O=C(N)C1=CN(C=CC1)C2OC(COP(=O)(O)OP(=O)(O)OCC3OC(n4cnc5c(ncnc54)N)C(O)C3O)C(O)C2O]


//
SELECTED AAM MAPPING
[O:55]=[C:56]([NH2:57])[C:58]:1:[CH:59]:[CH:60]:[CH:61]:[N+:62](:[CH:63]1)[CH:64]2[O:65][CH:66]([CH2:67][O:68][P:69](=[O:70])([OH:71])[O:72][P:73](=[O:74])([OH:75])[O:76][CH2:77][CH:78]3[O:79][CH:80]([N:81]:4:[CH:82]:[N:83]:[C:84]:5:[C:85](:[N:86]:[CH:87]:[N:88]:[C:89]54)[NH2:90])[CH:91]([OH:92])[CH:93]3[OH:94])[CH:95]([OH:96])[CH:97]2[OH:98].[O:1]=[C:2]([S:3][CH2:4][CH2:5][NH:6][C:7](=[O:8])[CH2:9][CH2:10][NH:11][C:12](=[O:13])[CH:14]([OH:15])[C:16]([CH3:17])([CH3:18])[CH2:19][O:20][P:21](=[O:22])([OH:23])[O:24][P:25](=[O:26])([OH:27])[O:28][CH2:29][CH:30]1[O:31][CH:32]([N:33]:2:[CH:34]:[N:35]:[C:36]:3:[C:37](:[N:38]:[CH:39]:[N:40]:[C:41]32)[NH2:42])[CH:43]([OH:44])[CH:45]1[O:46][P:47](=[O:48])([OH:50])[OH:49])[CH2:51][CH:52]([OH:53])[CH3:54]>>[H+:99].[O:55]=[C:56]([NH2:57])[C:58]1=[CH:63][N:62]([CH:61]=[CH:60][CH2:59]1)[CH:64]2[O:65][CH:66]([CH2:67][O:68][P:69](=[O:70])([OH:71])[O:72][P:73](=[O:74])([OH:75])[O:76][CH2:77][CH:78]3[O:79][CH:80]([N:81]:4:[CH:82]:[N:83]:[C:84]:5:[C:85](:[N:86]:[CH:87]:[N:88]:[C:89]54)[NH2:90])[CH:91]([OH:92])[CH:93]3[OH:94])[CH:95]([OH:96])[CH:97]2[OH:98].[O:1]=[C:2]([S:3][CH2:4][CH2:5][NH:6][C:7](=[O:8])[CH2:9][CH2:10][NH:11][C:12](=[O:13])[CH:14]([OH:15])[C:16]([CH3:17])([CH3:18])[CH2:19][O:20][P:21](=[O:22])([OH:23])[O:24][P:25](=[O:26])([OH:27])[O:28][CH2:29][CH:30]1[O:31][CH:32]([N:33]:2:[CH:34]:[N:35]:[C:36]:3:[C:37](:[N:38]:[CH:39]:[N:40]:[C:41]32)[NH2:42])[CH:43]([OH:44])[CH:45]1[O:46][P:47](=[O:48])([OH:50])[OH:49])[CH2:51][C:52](=[O:53])[CH3:54]


//
REACTANT INPUT ATOM INDEX<->AAM ID
{1=54, 2=52, 3=51, 4=2, 5=1, 6=3, 7=4, 8=5, 9=6, 10=7, 11=8, 12=9, 13=10, 14=11, 15=12, 16=13, 17=14, 18=16, 19=17, 20=18, 21=19, 22=20, 23=21, 24=22, 25=23, 26=24, 27=25, 28=26, 29=27, 30=28, 31=29, 32=30, 33=45, 34=43, 35=32, 36=31, 37=33, 38=34, 39=35, 40=36, 41=41, 42=40, 43=39, 44=38, 45=37, 46=42, 47=44, 48=46, 49=47, 50=48, 51=49, 52=50, 53=15, 54=53, 55=60, 56=59, 57=58, 58=63, 59=62, 60=61, 61=64, 62=97, 63=95, 64=66, 65=65, 66=67, 67=68, 68=69, 69=70, 70=71, 71=72, 72=73, 73=74, 74=75, 75=76, 76=77, 77=78, 78=93, 79=91, 80=80, 81=79, 82=81, 83=82, 84=83, 85=84, 86=89, 87=88, 88=87, 89=86, 90=85, 91=90, 92=92, 93=94, 94=96, 95=98, 96=56, 97=55, 98=57}
PRODUCT INPUT ATOM INDEX<->AAM ID
{1=63, 2=62, 3=61, 4=60, 5=59, 6=58, 7=56, 8=55, 9=57, 10=64, 11=97, 12=95, 13=66, 14=65, 15=67, 16=68, 17=69, 18=70, 19=71, 20=72, 21=73, 22=74, 23=75, 24=76, 25=77, 26=78, 27=93, 28=91, 29=80, 30=79, 31=81, 32=82, 33=83, 34=84, 35=89, 36=88, 37=87, 38=86, 39=85, 40=90, 41=92, 42=94, 43=96, 44=98, 45=99, 46=54, 47=52, 48=53, 49=51, 50=2, 51=1, 52=3, 53=4, 54=5, 55=6, 56=7, 57=8, 58=9, 59=10, 60=11, 61=12, 62=13, 63=14, 64=16, 65=17, 66=18, 67=19, 68=20, 69=21, 70=22, 71=23, 72=24, 73=25, 74=26, 75=27, 76=28, 77=29, 78=30, 79=45, 80=43, 81=32, 82=31, 83=33, 84=34, 85=35, 86=36, 87=41, 88=40, 89=39, 90=38, 91=37, 92=42, 93=44, 94=46, 95=47, 96=48, 97=49, 98=50, 99=15}

