
//
FINGERPRINTS BC

FORMED_CLEAVED
[C-O:1.0, C-S:1.0, O-P:2.0]

//
FINGERPRINTS RC
[O=C(O)[CH2]:1.0, O=C(SC[CH2])[CH2]:1.0, O=C(S[CH2])C[CH2]:1.0, O=C([S])[CH2]:1.0, O=P(O)(O)O[P]:1.0, O=P(O)(O[P])OP(=O)(O)O[CH2]>>O=P(O)(O)O[CH2]:1.0, O=P(O)(O[P])O[P]:1.0, O=P(O)(O[P])O[P]>>O=P(O)(O)O[P]:1.0, SC[CH2]:1.0, SC[CH2]>>O=C(SC[CH2])[CH2]:1.0, S[CH2]:1.0, S[CH2]>>[C]S[CH2]:1.0, [C]:2.0, [C]O:1.0, [C]S[CH2]:1.0, [C][O-]:2.0, [C][O-]>>[C]O:1.0, [C][O-]>>[P]O:1.0, [NH]CCS>>O=C(SCC[NH])C[CH2]:1.0, [O-]:2.0, [O-]C(=O)CC[CH2]>>O=C(SC[CH2])CC[CH2]:1.0, [O-]C(=O)C[CH2]:1.0, [O-]C(=O)C[CH2]>>O=C(O)C[CH2]:1.0, [O-]C(=O)C[CH2]>>O=C(S[CH2])C[CH2]:1.0, [O-]C(=O)C[CH2]>>O=P(O)(O)O[P]:1.0, [O-]C(=O)[CH2]:3.0, [O-]C(=O)[CH2]>>O=C(O)[CH2]:1.0, [O-]C(=O)[CH2]>>O=C([S])[CH2]:1.0, [O-]C(=O)[CH2]>>[O]P(=O)(O)O:1.0, [OH]:3.0, [O]:1.0, [O]P(=O)(O)O:3.0, [O]P(=O)(O)OP(=O)(O)OP(=O)(O)O>>O=P(O)(O)OP(=O)(O)O:1.0, [O]P(=O)(O)OP([O])(=O)O:1.0, [O]P(=O)(O)OP([O])(=O)O>>[O]P(=O)(O)O:1.0, [O]P([O])(=O)O:1.0, [O]P([O])(=O)O>>[O]P(=O)(O)O:1.0, [P]:2.0, [P]O:2.0, [P]O[P]:1.0, [P]O[P]>>[P]O:1.0, [SH]:1.0, [S]:1.0]

//
Reaction Centre Formed/Cleaved

ID=Reaction Center at Level: 0 (6)
[[C]:2.0, [O-]:1.0, [OH]:1.0, [O]:1.0, [P]:2.0, [S]:1.0]


ID=Reaction Center at Level: 1 (8)
[O=C([S])[CH2]:1.0, [C]S[CH2]:1.0, [C][O-]:1.0, [O-]C(=O)[CH2]:1.0, [O]P(=O)(O)O:1.0, [O]P([O])(=O)O:1.0, [P]O:1.0, [P]O[P]:1.0]


ID=Reaction Center at Level: 2 (8)
[O=C(SC[CH2])[CH2]:1.0, O=C(S[CH2])C[CH2]:1.0, O=P(O)(O)O[P]:1.0, O=P(O)(O[P])O[P]:1.0, [O-]C(=O)C[CH2]:1.0, [O-]C(=O)[CH2]:1.0, [O]P(=O)(O)O:1.0, [O]P(=O)(O)OP([O])(=O)O:1.0]


Reaction Centre Order Changed

Reaction Centre Stereo Changes


//
TRANSFORMATIONS
MMP Level 1
1: [O]P([O])(=O)O>>[O]P(=O)(O)O
2: [P]O[P]>>[P]O
3: [O-]C(=O)[CH2]>>O=C([S])[CH2]
4: [C][O-]>>[C]O
5: S[CH2]>>[C]S[CH2]
6: [C][O-]>>[P]O

MMP Level 2
1: O=P(O)(O[P])O[P]>>O=P(O)(O)O[P]
2: [O]P(=O)(O)OP([O])(=O)O>>[O]P(=O)(O)O
3: [O-]C(=O)C[CH2]>>O=C(S[CH2])C[CH2]
4: [O-]C(=O)[CH2]>>O=C(O)[CH2]
5: SC[CH2]>>O=C(SC[CH2])[CH2]
6: [O-]C(=O)[CH2]>>[O]P(=O)(O)O

MMP Level 3
1: [O]P(=O)(O)OP(=O)(O)OP(=O)(O)O>>O=P(O)(O)OP(=O)(O)O
2: O=P(O)(O[P])OP(=O)(O)O[CH2]>>O=P(O)(O)O[CH2]
3: [O-]C(=O)CC[CH2]>>O=C(SC[CH2])CC[CH2]
4: [O-]C(=O)C[CH2]>>O=C(O)C[CH2]
5: [NH]CCS>>O=C(SCC[NH])C[CH2]
6: [O-]C(=O)C[CH2]>>O=P(O)(O)O[P]


//
REACTION MMP (RPAIR)
1: R:M00001, P:M00004	[O=P(O)(O)OP(=O)(O)OP(=O)(O)OCC1OC(n2cnc3c(ncnc32)N)C(O)C1O>>O=P(O)(O)OP(=O)(O)O]
2: R:M00001, P:M00005	[O=P(O)(O)OP(=O)(O)OP(=O)(O)OCC1OC(n2cnc3c(ncnc32)N)C(O)C1O>>O=P(O)(O)OCC1OC(n2cnc3c(ncnc32)N)C(O)C1O]
3: R:M00002, P:M00006	[O=C(NCCS)CCNC(=O)C(O)C(C)(C)COP(=O)(O)OP(=O)(O)OCC1OC(n2cnc3c(ncnc32)N)C(O)C1OP(=O)(O)O>>O=C(O)CCCCCC(=O)SCCNC(=O)CCNC(=O)C(O)C(C)(C)COP(=O)(O)OP(=O)(O)OCC1OC(n2cnc3c(ncnc32)N)C(O)C1OP(=O)(O)O]
4: R:M00003, P:M00004	[[O-]C(=O)CCCCCC([O-])=O>>O=P(O)(O)OP(=O)(O)O]
5: R:M00003, P:M00006	[[O-]C(=O)CCCCCC([O-])=O>>O=C(O)CCCCCC(=O)SCCNC(=O)CCNC(=O)C(O)C(C)(C)COP(=O)(O)OP(=O)(O)OCC1OC(n2cnc3c(ncnc32)N)C(O)C1OP(=O)(O)O, [O-]C(=O)CCCCCC([O-])=O>>O=C(O)CCCCCC(=O)SCCNC(=O)CCNC(=O)C(O)C(C)(C)COP(=O)(O)OP(=O)(O)OCC1OC(n2cnc3c(ncnc32)N)C(O)C1OP(=O)(O)O]


//
SELECTED AAM MAPPING
[O:80]=[C:81]([O-:82])[CH2:83][CH2:84][CH2:85][CH2:86][CH2:87][C:88](=[O:89])[O-:90].[O:1]=[C:2]([NH:3][CH2:4][CH2:5][SH:6])[CH2:7][CH2:8][NH:9][C:10](=[O:11])[CH:12]([OH:13])[C:14]([CH3:15])([CH3:16])[CH2:17][O:18][P:19](=[O:20])([OH:21])[O:22][P:23](=[O:24])([OH:25])[O:26][CH2:27][CH:28]1[O:29][CH:30]([N:31]:2:[CH:32]:[N:33]:[C:34]:3:[C:35](:[N:36]:[CH:37]:[N:38]:[C:39]32)[NH2:40])[CH:41]([OH:42])[CH:43]1[O:44][P:45](=[O:46])([OH:47])[OH:48].[O:49]=[P:50]([OH:51])([OH:52])[O:53][P:54](=[O:55])([OH:56])[O:57][P:58](=[O:59])([OH:60])[O:61][CH2:62][CH:63]1[O:64][CH:65]([N:66]:2:[CH:67]:[N:68]:[C:69]:3:[C:70](:[N:71]:[CH:72]:[N:73]:[C:74]32)[NH2:75])[CH:76]([OH:77])[CH:78]1[OH:79]>>[O:80]=[C:81]([OH:82])[CH2:83][CH2:84][CH2:85][CH2:86][CH2:87][C:88](=[O:89])[S:6][CH2:5][CH2:4][NH:3][C:2](=[O:1])[CH2:7][CH2:8][NH:9][C:10](=[O:11])[CH:12]([OH:13])[C:14]([CH3:15])([CH3:16])[CH2:17][O:18][P:19](=[O:20])([OH:21])[O:22][P:23](=[O:24])([OH:25])[O:26][CH2:27][CH:28]1[O:29][CH:30]([N:31]:2:[CH:32]:[N:33]:[C:34]:3:[C:35](:[N:36]:[CH:37]:[N:38]:[C:39]32)[NH2:40])[CH:41]([OH:42])[CH:43]1[O:44][P:45](=[O:46])([OH:47])[OH:48].[O:59]=[P:58]([OH:57])([OH:60])[O:61][CH2:62][CH:63]1[O:64][CH:65]([N:66]:2:[CH:67]:[N:68]:[C:69]:3:[C:70](:[N:71]:[CH:72]:[N:73]:[C:74]32)[NH2:75])[CH:76]([OH:77])[CH:78]1[OH:79].[O:49]=[P:50]([OH:51])([OH:52])[O:53][P:54](=[O:55])([OH:56])[OH:90]


//
REACTANT INPUT ATOM INDEX<->AAM ID
{1=72, 2=73, 3=74, 4=69, 5=70, 6=71, 7=75, 8=68, 9=67, 10=66, 11=65, 12=76, 13=78, 14=63, 15=64, 16=62, 17=61, 18=58, 19=59, 20=60, 21=57, 22=54, 23=55, 24=56, 25=53, 26=50, 27=49, 28=51, 29=52, 30=79, 31=77, 32=15, 33=14, 34=16, 35=17, 36=18, 37=19, 38=20, 39=21, 40=22, 41=23, 42=24, 43=25, 44=26, 45=27, 46=28, 47=43, 48=41, 49=30, 50=29, 51=31, 52=32, 53=33, 54=34, 55=39, 56=38, 57=37, 58=36, 59=35, 60=40, 61=42, 62=44, 63=45, 64=46, 65=47, 66=48, 67=12, 68=10, 69=11, 70=9, 71=8, 72=7, 73=2, 74=1, 75=3, 76=4, 77=5, 78=6, 79=13, 80=85, 81=84, 82=83, 83=81, 84=80, 85=82, 86=86, 87=87, 88=88, 89=89, 90=90}
PRODUCT INPUT ATOM INDEX<->AAM ID
{1=84, 2=83, 3=82, 4=85, 5=86, 6=87, 7=88, 8=89, 9=90, 10=74, 11=75, 12=76, 13=71, 14=72, 15=73, 16=77, 17=70, 18=69, 19=68, 20=67, 21=78, 22=80, 23=65, 24=66, 25=64, 26=63, 27=60, 28=59, 29=61, 30=62, 31=81, 32=79, 33=25, 34=24, 35=26, 36=27, 37=28, 38=29, 39=30, 40=31, 41=32, 42=33, 43=34, 44=35, 45=36, 46=37, 47=38, 48=53, 49=51, 50=40, 51=39, 52=41, 53=42, 54=43, 55=44, 56=49, 57=48, 58=47, 59=46, 60=45, 61=50, 62=52, 63=54, 64=55, 65=56, 66=57, 67=58, 68=22, 69=20, 70=21, 71=19, 72=18, 73=17, 74=15, 75=16, 76=14, 77=13, 78=12, 79=11, 80=9, 81=10, 82=8, 83=7, 84=6, 85=5, 86=4, 87=2, 88=1, 89=3, 90=23}

