
//
FINGERPRINTS BC

FORMED_CLEAVED
[C%O:1.0, C-S:1.0]

STEREO_CHANGED
[C(R/S):1.0]

//
FINGERPRINTS RC
[O1[CH][CH]1:1.0, O1[CH][CH]1>>[CH]O:1.0, S[CH2]:1.0, S[CH2]>>[CH]S[CH2]:1.0, [CH]:2.0, [CH]=CC(S[CH2])C(O)[CH2]:1.0, [CH]=CC1OC1C[CH2]>>[S]C([CH])C(O)C[CH2]:1.0, [CH]=CC1OC1[CH2]:1.0, [CH]=CC1OC1[CH2]>>[CH]=CC(S[CH2])C(O)[CH2]:1.0, [CH]C(O)[CH2]:1.0, [CH]C1OC1[CH2]:1.0, [CH]C1OC1[CH2]>>[CH]C(O)[CH2]:1.0, [CH]C1O[CH]1:1.0, [CH]C1O[CH]1>>[S]C([CH])[CH]:1.0, [CH]C=CC1OC1C[CH2]>>[CH]C=CC(SC[CH])C(O)C[CH2]:1.0, [CH]CS:1.0, [CH]CS>>[CH]CSC([CH])[CH]:1.0, [CH]CSC([CH])[CH]:1.0, [CH]O:1.0, [CH]S[CH2]:1.0, [C]C([NH])CS>>[C]C([NH])CSC(C=[CH])C(O)[CH2]:1.0, [OH]:1.0, [O]:1.0, [SH]:1.0, [S]:1.0, [S]C([CH])[CH]:1.0]

//
Reaction Centre Formed/Cleaved

ID=Reaction Center at Level: 0 (3)
[[CH]:2.0, [O]:1.0, [S]:1.0]


ID=Reaction Center at Level: 1 (4)
[O1[CH][CH]1:1.0, [CH]C1O[CH]1:1.0, [CH]S[CH2]:1.0, [S]C([CH])[CH]:1.0]


ID=Reaction Center at Level: 2 (4)
[[CH]=CC(S[CH2])C(O)[CH2]:1.0, [CH]=CC1OC1[CH2]:1.0, [CH]C1OC1[CH2]:1.0, [CH]CSC([CH])[CH]:1.0]


Reaction Centre Order Changed

Reaction Centre Stereo Changes

ID=Reaction Center at Level: 0 (1)
[[CH]:2.0]


ID=Reaction Center at Level: 1 (2)
[[CH]C1O[CH]1:1.0, [S]C([CH])[CH]:1.0]


ID=Reaction Center at Level: 2 (2)
[[CH]=CC(S[CH2])C(O)[CH2]:1.0, [CH]=CC1OC1[CH2]:1.0]



//
TRANSFORMATIONS
MMP Level 1
1: [CH]C1O[CH]1>>[S]C([CH])[CH]
2: S[CH2]>>[CH]S[CH2]
3: O1[CH][CH]1>>[CH]O

MMP Level 2
1: [CH]=CC1OC1[CH2]>>[CH]=CC(S[CH2])C(O)[CH2]
2: [CH]CS>>[CH]CSC([CH])[CH]
3: [CH]C1OC1[CH2]>>[CH]C(O)[CH2]

MMP Level 3
1: [CH]C=CC1OC1C[CH2]>>[CH]C=CC(SC[CH])C(O)C[CH2]
2: [C]C([NH])CS>>[C]C([NH])CSC(C=[CH])C(O)[CH2]
3: [CH]=CC1OC1C[CH2]>>[S]C([CH])C(O)C[CH2]


//
REACTION MMP (RPAIR)
1: R:M00001, P:M00003	[O=C(O)CCCC1OC1C=CC=CC=CCC=CCCCCC>>O=C(O)CNC(=O)C(NC(=O)CCC(N)C(=O)O)CSC(C=CC=CC=CCC=CCCCCC)C(O)CCCC(=O)O, O=C(O)CCCC1OC1C=CC=CC=CCC=CCCCCC>>O=C(O)CNC(=O)C(NC(=O)CCC(N)C(=O)O)CSC(C=CC=CC=CCC=CCCCCC)C(O)CCCC(=O)O]
2: R:M00002, P:M00003	[O=C(O)CNC(=O)C(NC(=O)CCC(N)C(=O)O)CS>>O=C(O)CNC(=O)C(NC(=O)CCC(N)C(=O)O)CSC(C=CC=CC=CCC=CCCCCC)C(O)CCCC(=O)O]


//
SELECTED AAM MAPPING
[O:24]=[C:25]([OH:26])[CH2:27][NH:28][C:29](=[O:30])[CH:31]([NH:32][C:33](=[O:34])[CH2:35][CH2:36][CH:37]([NH2:38])[C:39](=[O:40])[OH:41])[CH2:42][SH:43].[O:1]=[C:2]([OH:3])[CH2:4][CH2:5][CH2:6][CH:7]1[O:8][CH:9]1[CH:10]=[CH:11][CH:12]=[CH:13][CH:14]=[CH:15][CH2:16][CH:17]=[CH:18][CH2:19][CH2:20][CH2:21][CH2:22][CH3:23]>>[O:24]=[C:25]([OH:26])[CH2:27][NH:28][C:29](=[O:30])[CH:31]([NH:32][C:33](=[O:34])[CH2:35][CH2:36][CH:37]([NH2:38])[C:39](=[O:40])[OH:41])[CH2:42][S:43][CH:9]([CH:10]=[CH:11][CH:12]=[CH:13][CH:14]=[CH:15][CH2:16][CH:17]=[CH:18][CH2:19][CH2:20][CH2:21][CH2:22][CH3:23])[CH:7]([OH:8])[CH2:6][CH2:5][CH2:4][C:2](=[O:1])[OH:3]


//
REACTANT INPUT ATOM INDEX<->AAM ID
{1=23, 2=22, 3=21, 4=20, 5=19, 6=18, 7=17, 8=16, 9=15, 10=14, 11=13, 12=12, 13=11, 14=10, 15=9, 16=7, 17=8, 18=6, 19=5, 20=4, 21=2, 22=1, 23=3, 24=36, 25=35, 26=33, 27=34, 28=32, 29=31, 30=42, 31=43, 32=29, 33=30, 34=28, 35=27, 36=25, 37=24, 38=26, 39=37, 40=39, 41=40, 42=41, 43=38}
PRODUCT INPUT ATOM INDEX<->AAM ID
{1=35, 2=34, 3=33, 4=32, 5=31, 6=30, 7=29, 8=28, 9=27, 10=26, 11=25, 12=24, 13=23, 14=22, 15=21, 16=36, 17=38, 18=39, 19=40, 20=41, 21=42, 22=43, 23=37, 24=20, 25=19, 26=8, 27=6, 28=7, 29=5, 30=4, 31=2, 32=1, 33=3, 34=9, 35=10, 36=11, 37=12, 38=13, 39=14, 40=16, 41=17, 42=18, 43=15}

