
//
FINGERPRINTS BC

FORMED_CLEAVED
[C-O:4.0]

STEREO_CHANGED
[C(R/S):5.0]

//
FINGERPRINTS RC
[O:3.0, O>>[CH]O:1.0, O>>[CH]OC(O)C([CH])O:1.0, O>>[O]C([CH])O:1.0, [CH]:12.0, [CH]C(=[CH])O:1.0, [CH]C(=[CH])OC1OC([CH2])[CH]C(O)C1O>>OC1OC([CH2])[CH]C(O)C1O:1.0, [CH]C(O)C(O)C([CH])O:1.0, [CH]C([CH])O:3.0, [CH]C([CH])O>>[CH]C([CH])O:1.0, [CH]C([CH])OC1OC([CH2])[CH]C(O)C1O>>OC1OC([CH2])[CH]C(O)C1O:1.0, [CH]C([CH])OC1OC([CH2])[CH]C(O)C1O>>[CH]C([CH])OC1OC([CH2])[CH]C(O)C1O:2.0, [CH]O:2.0, [CH]OC(O)C([CH])O:2.0, [CH]OC(OC(=C[CH])C=[CH])C([CH])O>>[CH]C=C(O)C=[CH]:1.0, [CH]OC(O[CH])C([CH])O:5.0, [CH]OC(O[CH])C([CH])O>>[CH]OC(O)C([CH])O:1.0, [CH]OC(O[CH])C([CH])O>>[CH]OC(O[CH])C([CH])O:2.0, [CH]O[CH]:1.0, [CH]O[CH]>>[CH]O:1.0, [C]O:1.0, [C]OC(O[CH])C([CH])O:1.0, [C]OC(O[CH])C([CH])O>>[CH]OC(O)C([CH])O:1.0, [C]O[CH]:1.0, [C]O[CH]>>[C]O:1.0, [OH]:3.0, [O]:2.0, [O]C([CH2])C(O)C([CH])O:1.0, [O]C([CH2])C(OC(O[CH])C([CH])O)C([CH])O>>[CH]OC(O)C([CH])O:1.0, [O]C([CH2])C(O[CH])C([CH])O:1.0, [O]C([CH2])C(O[CH])C([CH])O>>[O]C([CH2])C(O)C([CH])O:1.0, [O]C([CH])C(O)C([CH])O:1.0, [O]C([CH])C(O)C([CH])O>>[CH]C(O)C(O)C([CH])O:1.0, [O]C([CH])O:4.0, [O]C([CH])OC([CH])=[CH]:1.0, [O]C([CH])OC([CH])=[CH]>>[CH]C(=[CH])O:1.0, [O]C([CH])OC([CH])[CH]:1.0, [O]C([CH])OC([CH])[CH]>>[O]C([CH])O:1.0, [O]C([CH])OC1C(O)C(O)[CH]OC1CO>>OCC1O[CH]C(O)C(O)C1O:1.0, [O]C([CH])[CH]:1.0, [O]C([CH])[CH]>>[CH]C([CH])O:1.0, [O]C([O])[CH]:6.0, [O]C([O])[CH]>>[O]C([CH])O:2.0, [O]C([O])[CH]>>[O]C([O])[CH]:2.0, [O]C1OC([CH2])C(O[CH])C(O)C1O>>[O]C1OC([CH2])C(O)C(O)C1O:1.0]

//
Reaction Centre Formed/Cleaved

ID=Reaction Center at Level: 0 (4)
[O:1.0, [CH]:4.0, [OH]:2.0, [O]:2.0]


ID=Reaction Center at Level: 1 (8)
[O:1.0, [CH]C([CH])O:1.0, [CH]O:2.0, [CH]O[CH]:1.0, [C]O[CH]:1.0, [O]C([CH])O:1.0, [O]C([CH])[CH]:1.0, [O]C([O])[CH]:1.0]


ID=Reaction Center at Level: 2 (9)
[O:1.0, [CH]C([CH])O:1.0, [CH]OC(O)C([CH])O:1.0, [C]OC(O[CH])C([CH])O:1.0, [O]C([CH2])C(O)C([CH])O:1.0, [O]C([CH2])C(O[CH])C([CH])O:1.0, [O]C([CH])O:1.0, [O]C([CH])OC([CH])=[CH]:1.0, [O]C([CH])OC([CH])[CH]:1.0]


Reaction Centre Order Changed

Reaction Centre Stereo Changes

ID=Reaction Center at Level: 0 (1)
[[CH]:10.0]


ID=Reaction Center at Level: 1 (3)
[[CH]C([CH])O:2.0, [O]C([CH])O:2.0, [O]C([O])[CH]:6.0]


ID=Reaction Center at Level: 2 (5)
[[CH]C(O)C(O)C([CH])O:1.0, [CH]OC(O)C([CH])O:2.0, [CH]OC(O[CH])C([CH])O:5.0, [C]OC(O[CH])C([CH])O:1.0, [O]C([CH])C(O)C([CH])O:1.0]



//
TRANSFORMATIONS
MMP Level 1
1: [O]C([CH])[CH]>>[CH]C([CH])O
2: [C]O[CH]>>[C]O
3: [CH]O[CH]>>[CH]O
4: [O]C([O])[CH]>>[O]C([O])[CH]
5: [O]C([O])[CH]>>[O]C([CH])O
6: O>>[CH]O
7: [O]C([O])[CH]>>[O]C([CH])O
8: [CH]C([CH])O>>[CH]C([CH])O
9: [O]C([O])[CH]>>[O]C([O])[CH]

MMP Level 2
1: [O]C([CH2])C(O[CH])C([CH])O>>[O]C([CH2])C(O)C([CH])O
2: [O]C([CH])OC([CH])=[CH]>>[CH]C(=[CH])O
3: [O]C([CH])OC([CH])[CH]>>[O]C([CH])O
4: [CH]OC(O[CH])C([CH])O>>[CH]OC(O[CH])C([CH])O
5: [CH]OC(O[CH])C([CH])O>>[CH]OC(O)C([CH])O
6: O>>[O]C([CH])O
7: [C]OC(O[CH])C([CH])O>>[CH]OC(O)C([CH])O
8: [O]C([CH])C(O)C([CH])O>>[CH]C(O)C(O)C([CH])O
9: [CH]OC(O[CH])C([CH])O>>[CH]OC(O[CH])C([CH])O

MMP Level 3
1: [O]C([CH])OC1C(O)C(O)[CH]OC1CO>>OCC1O[CH]C(O)C(O)C1O
2: [CH]OC(OC(=C[CH])C=[CH])C([CH])O>>[CH]C=C(O)C=[CH]
3: [O]C([CH2])C(OC(O[CH])C([CH])O)C([CH])O>>[CH]OC(O)C([CH])O
4: [CH]C([CH])OC1OC([CH2])[CH]C(O)C1O>>[CH]C([CH])OC1OC([CH2])[CH]C(O)C1O
5: [CH]C([CH])OC1OC([CH2])[CH]C(O)C1O>>OC1OC([CH2])[CH]C(O)C1O
6: O>>[CH]OC(O)C([CH])O
7: [CH]C(=[CH])OC1OC([CH2])[CH]C(O)C1O>>OC1OC([CH2])[CH]C(O)C1O
8: [O]C1OC([CH2])C(O[CH])C(O)C1O>>[O]C1OC([CH2])C(O)C(O)C1O
9: [CH]C([CH])OC1OC([CH2])[CH]C(O)C1O>>[CH]C([CH])OC1OC([CH2])[CH]C(O)C1O


//
REACTION MMP (RPAIR)
1: R:M00001, P:M00003	[[O-][N+](=O)c1ccc(OC2OC(CO)C(OC3OC(CO)C(OC4OC(CO)C(OC5OC(CO)C(OC6OC(CO)C(OC7OC(CO)C(OC8OC(CO)C(O)C(O)C8O)C(O)C7O)C(O)C6O)C(O)C5O)C(O)C4O)C(O)C3O)C(O)C2O)cc1>>OCC1OC(OC2C(O)C(O)C(OC2CO)OC3C(O)C(O)C(O)OC3CO)C(O)C(O)C1O, [O-][N+](=O)c1ccc(OC2OC(CO)C(OC3OC(CO)C(OC4OC(CO)C(OC5OC(CO)C(OC6OC(CO)C(OC7OC(CO)C(OC8OC(CO)C(O)C(O)C8O)C(O)C7O)C(O)C6O)C(O)C5O)C(O)C4O)C(O)C3O)C(O)C2O)cc1>>OCC1OC(OC2C(O)C(O)C(OC2CO)OC3C(O)C(O)C(O)OC3CO)C(O)C(O)C1O, [O-][N+](=O)c1ccc(OC2OC(CO)C(OC3OC(CO)C(OC4OC(CO)C(OC5OC(CO)C(OC6OC(CO)C(OC7OC(CO)C(OC8OC(CO)C(O)C(O)C8O)C(O)C7O)C(O)C6O)C(O)C5O)C(O)C4O)C(O)C3O)C(O)C2O)cc1>>OCC1OC(OC2C(O)C(O)C(OC2CO)OC3C(O)C(O)C(O)OC3CO)C(O)C(O)C1O]
2: R:M00001, P:M00004	[[O-][N+](=O)c1ccc(OC2OC(CO)C(OC3OC(CO)C(OC4OC(CO)C(OC5OC(CO)C(OC6OC(CO)C(OC7OC(CO)C(OC8OC(CO)C(O)C(O)C8O)C(O)C7O)C(O)C6O)C(O)C5O)C(O)C4O)C(O)C3O)C(O)C2O)cc1>>OCC1OC(OC2C(O)C(O)C(OC2CO)OC3C(O)C(O)C(OC3CO)OC4C(O)C(O)C(O)OC4CO)C(O)C(O)C1O, [O-][N+](=O)c1ccc(OC2OC(CO)C(OC3OC(CO)C(OC4OC(CO)C(OC5OC(CO)C(OC6OC(CO)C(OC7OC(CO)C(OC8OC(CO)C(O)C(O)C8O)C(O)C7O)C(O)C6O)C(O)C5O)C(O)C4O)C(O)C3O)C(O)C2O)cc1>>OCC1OC(OC2C(O)C(O)C(OC2CO)OC3C(O)C(O)C(OC3CO)OC4C(O)C(O)C(O)OC4CO)C(O)C(O)C1O, [O-][N+](=O)c1ccc(OC2OC(CO)C(OC3OC(CO)C(OC4OC(CO)C(OC5OC(CO)C(OC6OC(CO)C(OC7OC(CO)C(OC8OC(CO)C(O)C(O)C8O)C(O)C7O)C(O)C6O)C(O)C5O)C(O)C4O)C(O)C3O)C(O)C2O)cc1>>OCC1OC(OC2C(O)C(O)C(OC2CO)OC3C(O)C(O)C(OC3CO)OC4C(O)C(O)C(O)OC4CO)C(O)C(O)C1O, [O-][N+](=O)c1ccc(OC2OC(CO)C(OC3OC(CO)C(OC4OC(CO)C(OC5OC(CO)C(OC6OC(CO)C(OC7OC(CO)C(OC8OC(CO)C(O)C(O)C8O)C(O)C7O)C(O)C6O)C(O)C5O)C(O)C4O)C(O)C3O)C(O)C2O)cc1>>OCC1OC(OC2C(O)C(O)C(OC2CO)OC3C(O)C(O)C(OC3CO)OC4C(O)C(O)C(O)OC4CO)C(O)C(O)C1O]
3: R:M00001, P:M00005	[[O-][N+](=O)c1ccc(OC2OC(CO)C(OC3OC(CO)C(OC4OC(CO)C(OC5OC(CO)C(OC6OC(CO)C(OC7OC(CO)C(OC8OC(CO)C(O)C(O)C8O)C(O)C7O)C(O)C6O)C(O)C5O)C(O)C4O)C(O)C3O)C(O)C2O)cc1>>[O-][N+](=O)c1ccc(O)cc1]
4: R:M00002, P:M00004	[O>>OCC1OC(OC2C(O)C(O)C(OC2CO)OC3C(O)C(O)C(OC3CO)OC4C(O)C(O)C(O)OC4CO)C(O)C(O)C1O]


//
SELECTED AAM MAPPING
[O:1]=[N+:2]([O-:3])[C:4]:1:[CH:87]:[CH:86]:[C:7]([O:8][CH:9]2[O:10][CH:11]([CH2:12][OH:13])[CH:14]([O:15][CH:16]3[O:17][CH:18]([CH2:19][OH:20])[CH:21]([O:22][CH:23]4[O:24][CH:25]([CH2:26][OH:27])[CH:28]([O:29][CH:30]5[O:31][CH:32]([CH2:33][OH:34])[CH:35]([O:36][CH:37]6[O:38][CH:39]([CH2:40][OH:41])[CH:42]([O:43][CH:44]7[O:45][CH:46]([CH2:47][OH:48])[CH:49]([O:50][CH:51]8[O:52][CH:53]([CH2:54][OH:55])[CH:56]([OH:57])[CH:58]([OH:59])[CH:60]8[OH:61])[CH:62]([OH:63])[CH:64]7[OH:65])[CH:66]([OH:67])[CH:68]6[OH:69])[CH:70]([OH:71])[CH:72]5[OH:73])[CH:74]([OH:75])[CH:76]4[OH:77])[CH:78]([OH:79])[CH:80]3[OH:81])[CH:82]([OH:83])[CH:84]2[OH:85]):[CH:6]:[CH:5]1.[OH2:88]>>[O:1]=[N+:2]([O-:3])[C:4]:1:[CH:5]:[CH:6]:[C:7]([OH:8]):[CH:86]:[CH:87]1.[OH:55][CH2:54][CH:53]1[O:52][CH:51]([O:50][CH:49]2[CH:62]([OH:63])[CH:64]([OH:65])[CH:44]([O:45][CH:46]2[CH2:47][OH:48])[O:43][CH:42]3[CH:66]([OH:67])[CH:68]([OH:69])[CH:37]([OH:36])[O:38][CH:39]3[CH2:40][OH:41])[CH:60]([OH:61])[CH:58]([OH:59])[CH:56]1[OH:57].[OH:34][CH2:33][CH:32]1[O:31][CH:30]([O:29][CH:28]2[CH:74]([OH:75])[CH:76]([OH:77])[CH:23]([O:24][CH:25]2[CH2:26][OH:27])[O:22][CH:21]3[CH:78]([OH:79])[CH:80]([OH:81])[CH:16]([O:17][CH:18]3[CH2:19][OH:20])[O:15][CH:14]4[CH:82]([OH:83])[CH:84]([OH:85])[CH:9]([OH:88])[O:10][CH:11]4[CH2:12][OH:13])[CH:72]([OH:73])[CH:70]([OH:71])[CH:35]1[OH:89]


//
REACTANT INPUT ATOM INDEX<->AAM ID
{1=5, 2=6, 3=7, 4=86, 5=87, 6=4, 7=2, 8=1, 9=3, 10=8, 11=9, 12=84, 13=82, 14=14, 15=11, 16=10, 17=12, 18=13, 19=15, 20=16, 21=80, 22=78, 23=21, 24=18, 25=17, 26=19, 27=20, 28=22, 29=23, 30=76, 31=74, 32=28, 33=25, 34=24, 35=26, 36=27, 37=29, 38=30, 39=72, 40=70, 41=35, 42=32, 43=31, 44=33, 45=34, 46=36, 47=37, 48=68, 49=66, 50=42, 51=39, 52=38, 53=40, 54=41, 55=43, 56=44, 57=64, 58=62, 59=49, 60=46, 61=45, 62=47, 63=48, 64=50, 65=51, 66=60, 67=58, 68=56, 69=53, 70=52, 71=54, 72=55, 73=57, 74=59, 75=61, 76=63, 77=65, 78=67, 79=69, 80=71, 81=73, 82=75, 83=77, 84=79, 85=81, 86=83, 87=85, 88=88}
PRODUCT INPUT ATOM INDEX<->AAM ID
{1=47, 2=48, 3=78, 4=76, 5=74, 6=50, 7=49, 8=51, 9=52, 10=59, 11=58, 12=57, 13=55, 14=53, 15=54, 16=56, 17=62, 18=63, 19=71, 20=70, 21=68, 22=66, 23=64, 24=65, 25=67, 26=69, 27=72, 28=73, 29=60, 30=61, 31=75, 32=77, 33=79, 34=46, 35=2, 36=3, 37=44, 38=42, 39=40, 40=5, 41=4, 42=6, 43=7, 44=14, 45=13, 46=12, 47=10, 48=8, 49=9, 50=11, 51=17, 52=18, 53=25, 54=24, 55=23, 56=21, 57=19, 58=20, 59=22, 60=28, 61=29, 62=37, 63=36, 64=34, 65=32, 66=30, 67=31, 68=33, 69=35, 70=38, 71=39, 72=26, 73=27, 74=15, 75=16, 76=41, 77=43, 78=45, 79=1, 80=84, 81=85, 82=86, 83=88, 84=89, 85=83, 86=81, 87=80, 88=82, 89=87}

