
//
FINGERPRINTS BC

FORMED_CLEAVED
[C-O:2.0]

//
FINGERPRINTS RC
[O=P(O)(O[P])OC(O[CH])C([CH])[NH]>>O=P(O)(O)O[P]:1.0, O[CH2]:1.0, O[CH2]>>[CH]O[CH2]:1.0, [CH]:2.0, [CH]CO:1.0, [CH]CO>>[O]C([CH])OC[CH]:1.0, [CH]OC(O[CH2])C([CH])[NH]:1.0, [CH]O[CH2]:1.0, [C]NC1C([O])[CH]C(OC1OP([O])(=O)O)[CH2]>>[C]NC1C([O])[CH]C(OC1OC[CH])[CH2]:1.0, [OH]:2.0, [O]:2.0, [O]C([CH])CO>>[O]C([CH])COC(O[CH])C([CH])[NH]:1.0, [O]C([CH])OC[CH]:1.0, [O]C([CH])OP([O])(=O)O:1.0, [O]C([CH])OP([O])(=O)O>>[O]P(=O)(O)O:1.0, [O]C([O])[CH]:2.0, [O]C([O])[CH]>>[O]C([O])[CH]:1.0, [O]P(=O)(O)O:1.0, [P]O:1.0, [P]OC(O[CH])C([CH])[NH]:1.0, [P]OC(O[CH])C([CH])[NH]>>[CH]OC(O[CH2])C([CH])[NH]:1.0, [P]O[CH]:1.0, [P]O[CH]>>[P]O:1.0]

//
Reaction Centre Formed/Cleaved

ID=Reaction Center at Level: 0 (2)
[[CH]:2.0, [O]:2.0]


ID=Reaction Center at Level: 1 (3)
[[CH]O[CH2]:1.0, [O]C([O])[CH]:2.0, [P]O[CH]:1.0]


ID=Reaction Center at Level: 2 (4)
[[CH]OC(O[CH2])C([CH])[NH]:1.0, [O]C([CH])OC[CH]:1.0, [O]C([CH])OP([O])(=O)O:1.0, [P]OC(O[CH])C([CH])[NH]:1.0]


Reaction Centre Order Changed

Reaction Centre Stereo Changes


//
TRANSFORMATIONS
MMP Level 1
1: [P]O[CH]>>[P]O
2: [O]C([O])[CH]>>[O]C([O])[CH]
3: O[CH2]>>[CH]O[CH2]

MMP Level 2
1: [O]C([CH])OP([O])(=O)O>>[O]P(=O)(O)O
2: [P]OC(O[CH])C([CH])[NH]>>[CH]OC(O[CH2])C([CH])[NH]
3: [CH]CO>>[O]C([CH])OC[CH]

MMP Level 3
1: O=P(O)(O[P])OC(O[CH])C([CH])[NH]>>O=P(O)(O)O[P]
2: [C]NC1C([O])[CH]C(OC1OP([O])(=O)O)[CH2]>>[C]NC1C([O])[CH]C(OC1OC[CH])[CH2]
3: [O]C([CH])CO>>[O]C([CH])COC(O[CH])C([CH])[NH]


//
REACTION MMP (RPAIR)
1: R:M00001, P:M00003	[O=c1ccn(c(=O)[nH]1)C2OC(COP(=O)(O)OP(=O)(O)OC3OC(CO)C(O)C(OC(=O)CC(O)CCCCCCCCCCC)C3NC(=O)CC(O)CCCCCCCCCCC)C(O)C2O>>O=c1ccn(c(=O)[nH]1)C2OC(COP(=O)(O)OP(=O)(O)O)C(O)C2O]
2: R:M00001, P:M00004	[O=c1ccn(c(=O)[nH]1)C2OC(COP(=O)(O)OP(=O)(O)OC3OC(CO)C(O)C(OC(=O)CC(O)CCCCCCCCCCC)C3NC(=O)CC(O)CCCCCCCCCCC)C(O)C2O>>O=C(OC1C(O)C(OC(OCC2OC(OP(=O)(O)O)C(NC(=O)CC(O)CCCCCCCCCCC)C(OC(=O)CC(O)CCCCCCCCCCC)C2O)C1NC(=O)CC(O)CCCCCCCCCCC)CO)CC(O)CCCCCCCCCCC]
3: R:M00002, P:M00004	[O=C(OC1C(O)C(OC(OP(=O)(O)O)C1NC(=O)CC(O)CCCCCCCCCCC)CO)CC(O)CCCCCCCCCCC>>O=C(OC1C(O)C(OC(OCC2OC(OP(=O)(O)O)C(NC(=O)CC(O)CCCCCCCCCCC)C(OC(=O)CC(O)CCCCCCCCCCC)C2O)C1NC(=O)CC(O)CCCCCCCCCCC)CO)CC(O)CCCCCCCCCCC]


//
SELECTED AAM MAPPING
[O:1]=[C:2]1[CH:3]=[CH:4][N:5]([C:6](=[O:7])[NH:8]1)[CH:9]2[O:10][CH:11]([CH2:12][O:13][P:14](=[O:15])([OH:16])[O:17][P:18](=[O:19])([OH:20])[O:21][CH:22]3[O:23][CH:24]([CH2:25][OH:26])[CH:27]([OH:28])[CH:29]([O:30][C:31](=[O:32])[CH2:33][CH:34]([OH:35])[CH2:36][CH2:37][CH2:38][CH2:39][CH2:40][CH2:41][CH2:42][CH2:43][CH2:44][CH2:45][CH3:46])[CH:47]3[NH:48][C:49](=[O:50])[CH2:51][CH:52]([OH:53])[CH2:54][CH2:55][CH2:56][CH2:57][CH2:58][CH2:59][CH2:60][CH2:61][CH2:62][CH2:63][CH3:64])[CH:65]([OH:66])[CH:67]2[OH:68].[O:69]=[C:70]([O:71][CH:72]1[CH:73]([OH:74])[CH:75]([O:76][CH:77]([O:78][P:79](=[O:80])([OH:81])[OH:82])[CH:83]1[NH:84][C:85](=[O:86])[CH2:87][CH:88]([OH:89])[CH2:90][CH2:91][CH2:92][CH2:93][CH2:94][CH2:95][CH2:96][CH2:97][CH2:98][CH2:99][CH3:100])[CH2:101][OH:102])[CH2:103][CH:104]([OH:105])[CH2:106][CH2:107][CH2:108][CH2:109][CH2:110][CH2:111][CH2:112][CH2:113][CH2:114][CH2:115][CH3:116]>>[O:1]=[C:2]1[CH:3]=[CH:4][N:5]([C:6](=[O:7])[NH:8]1)[CH:9]2[O:10][CH:11]([CH2:12][O:13][P:14](=[O:15])([OH:16])[O:17][P:18](=[O:19])([OH:20])[OH:21])[CH:65]([OH:66])[CH:67]2[OH:68].[O:32]=[C:31]([O:30][CH:29]1[CH:27]([OH:28])[CH:24]([O:23][CH:22]([O:102][CH2:101][CH:75]2[O:76][CH:77]([O:78][P:79](=[O:80])([OH:81])[OH:82])[CH:83]([NH:84][C:85](=[O:86])[CH2:87][CH:88]([OH:89])[CH2:90][CH2:91][CH2:92][CH2:93][CH2:94][CH2:95][CH2:96][CH2:97][CH2:98][CH2:99][CH3:100])[CH:72]([O:71][C:70](=[O:69])[CH2:103][CH:104]([OH:105])[CH2:106][CH2:107][CH2:108][CH2:109][CH2:110][CH2:111][CH2:112][CH2:113][CH2:114][CH2:115][CH3:116])[CH:73]2[OH:74])[CH:47]1[NH:48][C:49](=[O:50])[CH2:51][CH:52]([OH:53])[CH2:54][CH2:55][CH2:56][CH2:57][CH2:58][CH2:59][CH2:60][CH2:61][CH2:62][CH2:63][CH3:64])[CH2:25][OH:26])[CH2:33][CH:34]([OH:35])[CH2:36][CH2:37][CH2:38][CH2:39][CH2:40][CH2:41][CH2:42][CH2:43][CH2:44][CH2:45][CH3:46]


//
REACTANT INPUT ATOM INDEX<->AAM ID
{1=64, 2=63, 3=62, 4=61, 5=60, 6=59, 7=58, 8=57, 9=56, 10=55, 11=54, 12=52, 13=51, 14=49, 15=50, 16=48, 17=47, 18=29, 19=27, 20=24, 21=23, 22=22, 23=21, 24=18, 25=19, 26=20, 27=17, 28=14, 29=15, 30=16, 31=13, 32=12, 33=11, 34=65, 35=67, 36=9, 37=10, 38=5, 39=4, 40=3, 41=2, 42=1, 43=8, 44=6, 45=7, 46=68, 47=66, 48=25, 49=26, 50=28, 51=30, 52=31, 53=32, 54=33, 55=34, 56=36, 57=37, 58=38, 59=39, 60=40, 61=41, 62=42, 63=43, 64=44, 65=45, 66=46, 67=35, 68=53, 69=100, 70=99, 71=98, 72=97, 73=96, 74=95, 75=94, 76=93, 77=92, 78=91, 79=90, 80=88, 81=87, 82=85, 83=86, 84=84, 85=83, 86=72, 87=73, 88=75, 89=76, 90=77, 91=78, 92=79, 93=80, 94=81, 95=82, 96=101, 97=102, 98=74, 99=71, 100=70, 101=69, 102=103, 103=104, 104=106, 105=107, 106=108, 107=109, 108=110, 109=111, 110=112, 111=113, 112=114, 113=115, 114=116, 115=105, 116=89}
PRODUCT INPUT ATOM INDEX<->AAM ID
{1=94, 2=95, 3=96, 4=97, 5=98, 6=99, 7=93, 8=92, 9=100, 10=115, 11=113, 12=102, 13=101, 14=103, 15=104, 16=105, 17=106, 18=107, 19=108, 20=109, 21=110, 22=111, 23=112, 24=114, 25=116, 26=75, 27=74, 28=73, 29=72, 30=71, 31=70, 32=69, 33=68, 34=67, 35=66, 36=65, 37=63, 38=62, 39=60, 40=61, 41=59, 42=58, 43=4, 44=5, 45=7, 46=8, 47=9, 48=10, 49=11, 50=12, 51=56, 52=38, 53=20, 54=14, 55=13, 56=15, 57=16, 58=17, 59=18, 60=19, 61=21, 62=22, 63=23, 64=24, 65=25, 66=27, 67=28, 68=29, 69=30, 70=31, 71=32, 72=33, 73=34, 74=35, 75=36, 76=37, 77=26, 78=39, 79=40, 80=41, 81=42, 82=43, 83=45, 84=46, 85=47, 86=48, 87=49, 88=50, 89=51, 90=52, 91=53, 92=54, 93=55, 94=44, 95=57, 96=76, 97=77, 98=6, 99=3, 100=2, 101=1, 102=78, 103=79, 104=81, 105=82, 106=83, 107=84, 108=85, 109=86, 110=87, 111=88, 112=89, 113=90, 114=91, 115=80, 116=64}

