
//
FINGERPRINTS BC

FORMED_CLEAVED
[O-P:2.0]

//
FINGERPRINTS RC
[O:3.0, O=P(O)(O)O:3.0, O=P(O)(O)OP(=O)(O)O[P]>>O=P(O)(O)O[P]:1.0, O=P(O)(O)O[P]:1.0, O=P(O)(O)O[P]>>O=P(O)(O)O:1.0, O>>O=P(O)(O)O:2.0, O>>[P]O:1.0, [OH]:2.0, [O]:1.0, [O]P(=O)(O)O:2.0, [O]P(=O)(O)O>>O=P(O)(O)O:1.0, [O]P(=O)(O)OP(=O)(O)O:1.0, [O]P(=O)(O)OP(=O)(O)O>>O=P(O)(O)O:1.0, [O]P(=O)(O)OP(=O)(O)O>>[O]P(=O)(O)O:1.0, [P]:2.0, [P]O:2.0, [P]O[P]:1.0, [P]O[P]>>[P]O:1.0]

//
Reaction Centre Formed/Cleaved

ID=Reaction Center at Level: 0 (4)
[O:1.0, [OH]:1.0, [O]:1.0, [P]:2.0]


ID=Reaction Center at Level: 1 (5)
[O:1.0, O=P(O)(O)O:1.0, [O]P(=O)(O)O:1.0, [P]O:1.0, [P]O[P]:1.0]


ID=Reaction Center at Level: 2 (4)
[O:1.0, O=P(O)(O)O:2.0, O=P(O)(O)O[P]:1.0, [O]P(=O)(O)OP(=O)(O)O:1.0]


Reaction Centre Order Changed

Reaction Centre Stereo Changes


//
TRANSFORMATIONS
MMP Level 1
1: [P]O[P]>>[P]O
2: [O]P(=O)(O)O>>O=P(O)(O)O
3: O>>[P]O

MMP Level 2
1: [O]P(=O)(O)OP(=O)(O)O>>[O]P(=O)(O)O
2: O=P(O)(O)O[P]>>O=P(O)(O)O
3: O>>O=P(O)(O)O

MMP Level 3
1: O=P(O)(O)OP(=O)(O)O[P]>>O=P(O)(O)O[P]
2: [O]P(=O)(O)OP(=O)(O)O>>O=P(O)(O)O
3: O>>O=P(O)(O)O


//
REACTION MMP (RPAIR)
1: R:M00001, P:M00004	[O>>O=P(O)(O)O]
2: R:M00002, P:M00003	[O=P(O)(O)OP(=O)(O)OP(=O)(O)OCC1OC(n2cnc3c(ncnc32)N)C(O)C1O>>O=P(O)(O)OP(=O)(O)OCC1OC(n2cnc3c(ncnc32)N)C(O)C1O]
3: R:M00002, P:M00004	[O=P(O)(O)OP(=O)(O)OP(=O)(O)OCC1OC(n2cnc3c(ncnc32)N)C(O)C1O>>O=P(O)(O)O]


//
SELECTED AAM MAPPING
[O:1]=[P:2]([OH:3])([OH:4])[O:5][P:6](=[O:7])([OH:8])[O:9][P:10](=[O:11])([OH:12])[O:13][CH2:14][CH:15]1[O:16][CH:17]([N:18]:2:[CH:19]:[N:20]:[C:21]:3:[C:22](:[N:23]:[CH:24]:[N:25]:[C:26]32)[NH2:27])[CH:28]([OH:29])[CH:30]1[OH:31].[OH2:32]>>[O:1]=[P:2]([OH:4])([OH:32])[OH:3].[O:7]=[P:6]([OH:5])([OH:8])[O:9][P:10](=[O:11])([OH:12])[O:13][CH2:14][CH:15]1[O:16][CH:17]([N:18]:2:[CH:19]:[N:20]:[C:21]:3:[C:22](:[N:23]:[CH:24]:[N:25]:[C:26]32)[NH2:27])[CH:28]([OH:29])[CH:30]1[OH:31]


//
REACTANT INPUT ATOM INDEX<->AAM ID
{1=32, 2=24, 3=25, 4=26, 5=21, 6=22, 7=23, 8=27, 9=20, 10=19, 11=18, 12=17, 13=28, 14=30, 15=15, 16=16, 17=14, 18=13, 19=10, 20=11, 21=12, 22=9, 23=6, 24=7, 25=8, 26=5, 27=2, 28=1, 29=3, 30=4, 31=31, 32=29}
PRODUCT INPUT ATOM INDEX<->AAM ID
{1=20, 2=21, 3=22, 4=17, 5=18, 6=19, 7=23, 8=16, 9=15, 10=14, 11=13, 12=24, 13=26, 14=11, 15=12, 16=10, 17=9, 18=6, 19=7, 20=8, 21=5, 22=2, 23=1, 24=3, 25=4, 26=27, 27=25, 28=30, 29=29, 30=28, 31=31, 32=32}

