,min,max,average
P45131,-4.9,-4.5,-4.73
D0L1T6,-4.8,5.2,1.0142857142857142
P57714,-5.0,-3.4,-4.13
Q4ZZ78,-5.6,-4.8,-5.08
Q88CT3,-5.9,-1.7,-3.33
Q6FEQ3,-5.7,-4.7,-5.13
A0A1D3PD87,-4.8,0.2,-1.7666666666666666
Q8P8L2,-5.9,-4.6,-5.24
H8L374,-5.3,-4.8,-5.04
A0A0I9RJ56,-3.7,0.7,-1.19
Q3IJY8,-4.5,-2.1,-3.2800000000000002
S2L5R8,-5.5,-5.0,-5.22
S2KHP1,-5.0,-0.2,-2.9
Q9AAS1,-3.2,-0.2,-1.31
A0A1D3PCK0,-8.4,-7.9,-8.12
F4QV02,-4.8,-4.4,-4.58
K9CVD6,-5.7,-4.7,-5.2
K9CMJ3,-7.7,-7.1,-7.29
A9I0E6,-6.1,-5.9,-6.02
Q2T284,-5.2,-4.6,-4.86
B7X2B6,-4.2,-2.5,-3.33
A0A0I9QGZ7,-4.1,-3.2,-3.62
C4XNQ9,-6.2,-3.8,-4.84
B3E278,-5.2,-3.3,-4.21
E0UR96,-5.5,-2.7,-4.51
B9L9I6,-6.6,-5.3,-5.64
